<?xml version="1.0" encoding="UTF-8" standalone="no"?>
<!-- Created with Inkscape (http://www.inkscape.org/) -->

<svg
   xmlns:dc="http://purl.org/dc/elements/1.1/"
   xmlns:cc="http://creativecommons.org/ns#"
   xmlns:rdf="http://www.w3.org/1999/02/22-rdf-syntax-ns#"
   xmlns:svg="http://www.w3.org/2000/svg"
   xmlns="http://www.w3.org/2000/svg"
   xmlns:sodipodi="http://sodipodi.sourceforge.net/DTD/sodipodi-0.dtd"
   xmlns:inkscape="http://www.inkscape.org/namespaces/inkscape"
   version="1.1"
   id="svg2"
   xml:space="preserve"
   width="210.66667"
   height="157.33333"
   viewBox="0 0 210.66667 157.33333"
   sodipodi:docname="overaphardswitch.svg"
   inkscape:version="0.92.5 (2060ec1f9f, 2020-04-08)"><metadata
     id="metadata8"><rdf:RDF><cc:Work
         rdf:about=""><dc:format>image/svg+xml</dc:format><dc:type
           rdf:resource="http://purl.org/dc/dcmitype/StillImage" /><dc:title></dc:title></cc:Work></rdf:RDF></metadata><defs
     id="defs6" /><sodipodi:namedview
     pagecolor="#ffffff"
     bordercolor="#666666"
     borderopacity="1"
     objecttolerance="10"
     gridtolerance="10"
     guidetolerance="10"
     inkscape:pageopacity="0"
     inkscape:pageshadow="2"
     inkscape:window-width="778"
     inkscape:window-height="480"
     id="namedview4"
     showgrid="false"
     inkscape:zoom="1.5"
     inkscape:cx="105.33334"
     inkscape:cy="78.666664"
     inkscape:window-x="52"
     inkscape:window-y="27"
     inkscape:window-maximized="0"
     inkscape:current-layer="g10" /><g
     id="g10"
     inkscape:groupmode="layer"
     inkscape:label="overaphardswitch"
     transform="matrix(1.3333333,0,0,-1.3333333,0,157.33333)"><g
       id="g12"
       transform="scale(0.1)"><path
         d="m 127.672,990.664 c -27.66,55.316 -27.66,71.916 -44.2579,154.896 -16.5938,-82.98 -16.5938,-99.58 -44.2539,-154.896 33.1914,11.066 55.3203,11.066 88.5118,0"
         style="fill:#000000;fill-opacity:1;fill-rule:evenodd;stroke:none"
         id="path14"
         inkscape:connector-curvature="0" /><path
         d="m 83.4141,570.23 v 464.69"
         style="fill:none;stroke:#000000;stroke-width:14.38319969;stroke-linecap:round;stroke-linejoin:miter;stroke-miterlimit:6;stroke-dasharray:none;stroke-opacity:1"
         id="path16"
         inkscape:connector-curvature="0" /><path
         d="m 1344.71,570.23 c 55.32,27.661 71.92,27.661 154.9,44.258 -82.98,16.594 -99.58,16.594 -154.9,44.254 11.07,-33.191 11.07,-55.316 0,-88.512"
         style="fill:#000000;fill-opacity:1;fill-rule:evenodd;stroke:none"
         id="path18"
         inkscape:connector-curvature="0" /><path
         d="M 1411.1,614.488 H 39.1602"
         style="fill:none;stroke:#000000;stroke-width:14.38319969;stroke-linecap:round;stroke-linejoin:miter;stroke-miterlimit:6;stroke-dasharray:none;stroke-opacity:1"
         id="path20"
         inkscape:connector-curvature="0" /><path
         d="M 1256.2,636.617 H 946.406 L 835.77,968.535 H 393.207 L 282.566,636.617 H 83.4141"
         style="fill:none;stroke:#ff0000;stroke-width:14.38319969;stroke-linecap:round;stroke-linejoin:miter;stroke-miterlimit:6;stroke-dasharray:none;stroke-opacity:1"
         id="path22"
         inkscape:connector-curvature="0" /><path
         d="M 1256.2,924.281 H 835.77 L 747.258,636.617 H 481.719 L 393.207,924.281 H 83.4141"
         style="fill:none;stroke:#0000ff;stroke-width:14.38319969;stroke-linecap:round;stroke-linejoin:miter;stroke-miterlimit:6;stroke-dasharray:none;stroke-opacity:1"
         id="path24"
         inkscape:connector-curvature="0" /><g
         id="g26"
         transform="scale(10)"><text
           transform="matrix(1,0,0,-1,148.634,57.023)"
           style="font-style:oblique;font-variant:normal;font-size:13.27680016px;font-family:Helvetica;-inkscape-font-specification:Helvetica-Oblique;writing-mode:lr-tb;fill:#000000;fill-opacity:1;fill-rule:nonzero;stroke:none"
           id="text30"><tspan
             x="0"
             y="0"
             id="tspan28">t</tspan></text>
</g><g
         id="g32"
         transform="scale(10)"><text
           transform="matrix(1,0,0,-1,46.5242,103.492)"
           style="font-style:oblique;font-variant:normal;font-size:13.27680016px;font-family:Helvetica;-inkscape-font-specification:Helvetica-Oblique;writing-mode:lr-tb;fill:#ff0000;fill-opacity:1;fill-rule:nonzero;stroke:none"
           id="text36"><tspan
             x="0"
             y="0"
             id="tspan34">v</tspan></text>
<text
           transform="matrix(1,0,0,-1,53.16248,100.55645)"
           style="font-style:oblique;font-variant:normal;font-size:8.89546013px;font-family:Helvetica;-inkscape-font-specification:Helvetica-Oblique;writing-mode:lr-tb;fill:#ff0000;fill-opacity:1;fill-rule:nonzero;stroke:none"
           id="text40"><tspan
             x="0 4.9458756"
             y="0"
             sodipodi:role="line"
             id="tspan38">ds</tspan></text>
<text
           transform="matrix(1,0,0,-1,62.55623,103.492)"
           style="font-style:oblique;font-variant:normal;font-size:13.27680016px;font-family:Helvetica;-inkscape-font-specification:Helvetica-Oblique;writing-mode:lr-tb;fill:#ff0000;fill-opacity:1;fill-rule:nonzero;stroke:none"
           id="text44"><tspan
             x="0 4.4211745 8.1121244"
             y="0"
             sodipodi:role="line"
             id="tspan42">(t)</tspan></text>
</g><g
         id="g46"
         transform="scale(10)"><text
           transform="matrix(1,0,0,-1,100.382,96.8535)"
           style="font-style:oblique;font-variant:normal;font-size:13.27680016px;font-family:Helvetica;-inkscape-font-specification:Helvetica-Oblique;writing-mode:lr-tb;fill:#0000ff;fill-opacity:1;fill-rule:nonzero;stroke:none"
           id="text50"><tspan
             x="0"
             y="0"
             id="tspan48">i</tspan></text>
<text
           transform="matrix(1,0,0,-1,103.32927,93.91795)"
           style="font-style:oblique;font-variant:normal;font-size:8.89546013px;font-family:Helvetica;-inkscape-font-specification:Helvetica-Oblique;writing-mode:lr-tb;fill:#0000ff;fill-opacity:1;fill-rule:nonzero;stroke:none"
           id="text54"><tspan
             x="0"
             y="0"
             id="tspan52">d</tspan></text>
<text
           transform="matrix(1,0,0,-1,108.27497,96.8535)"
           style="font-style:oblique;font-variant:normal;font-size:13.27680016px;font-family:Helvetica;-inkscape-font-specification:Helvetica-Oblique;writing-mode:lr-tb;fill:#0000ff;fill-opacity:1;fill-rule:nonzero;stroke:none"
           id="text58"><tspan
             x="0 4.4211745 8.1121244"
             y="0"
             sodipodi:role="line"
             id="tspan56">(t)</tspan></text>
</g><path
         d="m 127.672,371.078 c -27.66,55.32 -27.66,71.918 -44.2579,154.899 -16.5938,-82.981 -16.5938,-99.579 -44.2539,-154.899 33.1914,11.067 55.3203,11.067 88.5118,0"
         style="fill:#000000;fill-opacity:1;fill-rule:evenodd;stroke:none"
         id="path60"
         inkscape:connector-curvature="0" /><path
         d="M 83.4141,39.1602 V 415.336"
         style="fill:none;stroke:#000000;stroke-width:14.38319969;stroke-linecap:round;stroke-linejoin:miter;stroke-miterlimit:6;stroke-dasharray:none;stroke-opacity:1"
         id="path62"
         inkscape:connector-curvature="0" /><path
         d="m 1344.71,39.1602 c 55.32,27.6601 71.92,27.6601 154.9,44.2539 -82.98,16.5979 -99.58,16.5979 -154.9,44.2579 11.07,-33.1915 11.07,-55.3204 0,-88.5118"
         style="fill:#000000;fill-opacity:1;fill-rule:evenodd;stroke:none"
         id="path64"
         inkscape:connector-curvature="0" /><path
         d="M 1411.1,83.4141 H 39.1602"
         style="fill:none;stroke:#000000;stroke-width:14.38319969;stroke-linecap:round;stroke-linejoin:miter;stroke-miterlimit:6;stroke-dasharray:none;stroke-opacity:1"
         id="path66"
         inkscape:connector-curvature="0" /><g
         id="g68"
         transform="scale(10)"><text
           transform="matrix(1,0,0,-1,148.634,3.91602)"
           style="font-style:oblique;font-variant:normal;font-size:13.27680016px;font-family:Helvetica;-inkscape-font-specification:Helvetica-Oblique;writing-mode:lr-tb;fill:#000000;fill-opacity:1;fill-rule:nonzero;stroke:none"
           id="text72"><tspan
             x="0"
             y="0"
             id="tspan70">t</tspan></text>
</g><g
         id="g74"
         transform="scale(10)"><text
           transform="matrix(1,0,0,-1,52.5023,45.9594)"
           style="font-style:oblique;font-variant:normal;font-size:13.27680016px;font-family:Helvetica;-inkscape-font-specification:Helvetica-Oblique;writing-mode:lr-tb;fill:#d20adc;fill-opacity:1;fill-rule:nonzero;stroke:none"
           id="text78"><tspan
             x="0"
             y="0"
             id="tspan76">p</tspan></text>
<text
           transform="matrix(1,0,0,-1,59.88433,43.02385)"
           style="font-style:oblique;font-variant:normal;font-size:8.89546013px;font-family:Helvetica;-inkscape-font-specification:Helvetica-Oblique;writing-mode:lr-tb;fill:#d20adc;fill-opacity:1;fill-rule:nonzero;stroke:none"
           id="text82"><tspan
             x="0 1.9747921 6.9206676 11.368398"
             y="0"
             sodipodi:role="line"
             id="tspan80">loss</tspan></text>
<text
           transform="matrix(1,0,0,-1,75.70033,45.9594)"
           style="font-style:oblique;font-variant:normal;font-size:13.27680016px;font-family:Helvetica;-inkscape-font-specification:Helvetica-Oblique;writing-mode:lr-tb;fill:#d20adc;fill-opacity:1;fill-rule:nonzero;stroke:none"
           id="text86"><tspan
             x="0 4.4211745 8.1121244"
             y="0"
             sodipodi:role="line"
             id="tspan84">(t)</tspan></text>
</g><path
         d="M 282.566,105.543 H 481.719 L 393.207,393.207 282.566,105.543 H 83.4141"
         style="fill:#d829e1;fill-opacity:1;fill-rule:evenodd;stroke:none"
         id="path88"
         inkscape:connector-curvature="0" /><path
         d="M 282.566,105.543 H 481.719 L 393.207,393.207 282.566,105.543 H 83.4141"
         style="fill:none;stroke:#d20adc;stroke-width:14.38319969;stroke-linecap:round;stroke-linejoin:miter;stroke-miterlimit:6;stroke-dasharray:none;stroke-opacity:1"
         id="path90"
         inkscape:connector-curvature="0" /><path
         d="M 747.258,105.543 H 946.406 L 857.895,371.078 747.258,105.543 H 481.719"
         style="fill:#d829e1;fill-opacity:1;fill-rule:evenodd;stroke:none"
         id="path92"
         inkscape:connector-curvature="0" /><path
         d="M 747.258,105.543 H 946.406 L 857.895,371.078 747.258,105.543 H 481.719"
         style="fill:none;stroke:#d20adc;stroke-width:14.38319969;stroke-linecap:round;stroke-linejoin:miter;stroke-miterlimit:6;stroke-dasharray:none;stroke-opacity:1"
         id="path94"
         inkscape:connector-curvature="0" /><path
         d="M 83.4141,105.543 V 83.4141 H 1256.2 V 105.543 H 946.406"
         style="fill:#d829e1;fill-opacity:1;fill-rule:evenodd;stroke:none"
         id="path96"
         inkscape:connector-curvature="0" /><path
         d="M 83.4141,105.543 V 83.4141 H 1256.2 V 105.543 H 946.406"
         style="fill:none;stroke:#d20adc;stroke-width:14.38319969;stroke-linecap:round;stroke-linejoin:miter;stroke-miterlimit:6;stroke-dasharray:none;stroke-opacity:1"
         id="path98"
         inkscape:connector-curvature="0" /></g></g></svg>