<?xml version="1.0" encoding="UTF-8"?>
<svg xmlns="http://www.w3.org/2000/svg" xmlns:xlink="http://www.w3.org/1999/xlink" width="498pt" height="168pt" viewBox="0 0 498 168" version="1.1">
<defs>
<g>
<symbol overflow="visible" id="glyph0-0">
<path style="stroke:none;" d=""/>
</symbol>
<symbol overflow="visible" id="glyph0-1">
<path style="stroke:none;" d="M 4.53125 -8 L 3.703125 -8 L 3.703125 -4.40625 L 0.15625 -4.40625 L 0.15625 -3.578125 L 3.703125 -3.578125 L 3.703125 0 L 4.53125 0 L 4.53125 -3.578125 L 8.078125 -3.578125 L 8.078125 -4.40625 L 4.53125 -4.40625 Z M 4.53125 -8 "/>
</symbol>
<symbol overflow="visible" id="glyph0-2">
<path style="stroke:none;" d="M 0.171875 -4.40625 L 0.171875 -3.578125 L 8.03125 -3.578125 L 8.03125 -4.40625 Z M 0.171875 -4.40625 "/>
</symbol>
<symbol overflow="visible" id="glyph1-0">
<path style="stroke:none;" d=""/>
</symbol>
<symbol overflow="visible" id="glyph1-1">
<path style="stroke:none;" d="M 4.359375 -10.140625 L 1.671875 -8.78125 L 1.671875 -8.5625 C 1.84375 -8.640625 2.015625 -8.703125 2.0625 -8.734375 C 2.34375 -8.828125 2.59375 -8.890625 2.75 -8.890625 C 3.0625 -8.890625 3.1875 -8.671875 3.1875 -8.1875 L 3.1875 -1.390625 C 3.1875 -0.90625 3.078125 -0.5625 2.828125 -0.421875 C 2.609375 -0.28125 2.40625 -0.234375 1.765625 -0.21875 L 1.765625 0 L 5.90625 0 L 5.90625 -0.21875 C 4.71875 -0.234375 4.484375 -0.390625 4.484375 -1.109375 L 4.484375 -10.109375 Z M 4.359375 -10.140625 "/>
</symbol>
<symbol overflow="visible" id="glyph1-2">
<path style="stroke:none;" d="M 7.125 -2.0625 L 6.9375 -2.125 C 6.375 -1.28125 6.1875 -1.140625 5.5 -1.140625 L 1.921875 -1.140625 L 4.4375 -3.78125 C 5.78125 -5.171875 6.359375 -6.3125 6.359375 -7.484375 C 6.359375 -8.984375 5.140625 -10.140625 3.578125 -10.140625 C 2.765625 -10.140625 1.984375 -9.8125 1.421875 -9.203125 C 0.9375 -8.703125 0.71875 -8.21875 0.46875 -7.15625 L 0.78125 -7.078125 C 1.375 -8.546875 1.921875 -9.03125 2.953125 -9.03125 C 4.21875 -9.03125 5.0625 -8.171875 5.0625 -6.921875 C 5.0625 -5.75 4.375 -4.34375 3.125 -3.015625 L 0.453125 -0.1875 L 0.453125 0 L 6.296875 0 Z M 7.125 -2.0625 "/>
</symbol>
<symbol overflow="visible" id="glyph1-3">
<path style="stroke:none;" d="M 9.296875 -6.75 L 9.171875 -10.140625 L 8.84375 -10.140625 C 8.765625 -9.828125 8.515625 -9.640625 8.21875 -9.640625 C 8.078125 -9.640625 7.859375 -9.6875 7.640625 -9.78125 C 6.90625 -10.015625 6.15625 -10.140625 5.4375 -10.140625 C 4.21875 -10.140625 2.96875 -9.671875 2.046875 -8.84375 C 0.984375 -7.921875 0.421875 -6.53125 0.421875 -4.875 C 0.421875 -3.484375 0.875 -2.1875 1.640625 -1.328125 C 2.53125 -0.359375 3.921875 0.203125 5.40625 0.203125 C 7.09375 0.203125 8.578125 -0.484375 9.5 -1.6875 L 9.21875 -1.96875 C 8.109375 -0.90625 7.125 -0.453125 5.875 -0.453125 C 4.9375 -0.453125 4.09375 -0.75 3.453125 -1.3125 C 2.625 -2.0625 2.15625 -3.40625 2.15625 -5.0625 C 2.15625 -7.78125 3.5625 -9.546875 5.734375 -9.546875 C 6.578125 -9.546875 7.359375 -9.21875 7.96875 -8.625 C 8.4375 -8.140625 8.671875 -7.71875 8.953125 -6.75 Z M 9.296875 -6.75 "/>
</symbol>
<symbol overflow="visible" id="glyph1-4">
<path style="stroke:none;" d="M 9.890625 -0.28125 C 9.3125 -0.328125 9.015625 -0.484375 8.578125 -0.984375 L 5.484375 -4.78125 C 6.5 -4.984375 6.9375 -5.15625 7.4375 -5.5625 C 7.921875 -5.953125 8.203125 -6.578125 8.203125 -7.296875 C 8.203125 -7.9375 8.015625 -8.484375 7.625 -8.921875 C 7.046875 -9.546875 5.8125 -9.9375 4.390625 -9.9375 L 0.25 -9.9375 L 0.25 -9.640625 C 1.375 -9.53125 1.53125 -9.359375 1.53125 -8.296875 L 1.53125 -1.796875 C 1.53125 -0.5625 1.375 -0.375 0.25 -0.28125 L 0.25 0 L 4.40625 0 L 4.40625 -0.28125 C 3.25 -0.359375 3.0625 -0.5625 3.0625 -1.640625 L 3.0625 -4.59375 L 3.90625 -4.625 L 7.46875 0 L 9.890625 0 Z M 3.0625 -8.828125 C 3.0625 -9.25 3.21875 -9.375 3.828125 -9.375 C 5.703125 -9.375 6.5625 -8.734375 6.5625 -7.3125 C 6.5625 -6.5625 6.25 -5.9375 5.71875 -5.65625 C 5.03125 -5.265625 4.5 -5.171875 3.0625 -5.140625 Z M 3.0625 -8.828125 "/>
</symbol>
<symbol overflow="visible" id="glyph1-5">
<path style="stroke:none;" d="M 10.453125 -9.9375 L 7.375 -9.9375 L 7.375 -9.640625 C 8.203125 -9.59375 8.46875 -9.4375 8.46875 -9.015625 C 8.46875 -8.78125 8.375 -8.375 8.1875 -7.921875 L 5.984375 -2.421875 L 3.71875 -7.484375 C 3.21875 -8.578125 3.109375 -8.921875 3.109375 -9.15625 C 3.109375 -9.4375 3.3125 -9.578125 3.796875 -9.609375 C 3.859375 -9.609375 4.015625 -9.625 4.234375 -9.640625 L 4.234375 -9.9375 L 0.234375 -9.9375 L 0.234375 -9.640625 C 0.96875 -9.609375 1.1875 -9.40625 1.828125 -8.0625 L 5.515625 0.171875 L 5.75 0.171875 L 9.078125 -8.25 C 9.5625 -9.4375 9.734375 -9.59375 10.453125 -9.640625 Z M 10.453125 -9.9375 "/>
</symbol>
<symbol overflow="visible" id="glyph1-6">
<path style="stroke:none;" d="M 3.734375 -4.296875 L 0.453125 -4.296875 L 0.453125 -3.296875 L 3.734375 -3.296875 L 3.734375 0 L 4.71875 0 L 4.71875 -3.296875 L 8.015625 -3.296875 L 8.015625 -4.296875 L 4.71875 -4.296875 L 4.71875 -7.59375 L 3.734375 -7.59375 Z M 3.734375 -4.296875 "/>
</symbol>
<symbol overflow="visible" id="glyph1-7">
<path style="stroke:none;" d="M 0.578125 -3.859375 L 0.578125 -2.90625 L 4.28125 -2.90625 L 4.28125 -3.859375 Z M 0.578125 -3.859375 "/>
</symbol>
<symbol overflow="visible" id="glyph2-0">
<path style="stroke:none;" d=""/>
</symbol>
<symbol overflow="visible" id="glyph2-1">
<path style="stroke:none;" d="M 2.921875 -6.796875 L 1.109375 -5.875 L 1.109375 -5.734375 C 1.234375 -5.78125 1.34375 -5.828125 1.390625 -5.84375 C 1.5625 -5.921875 1.734375 -5.953125 1.84375 -5.953125 C 2.046875 -5.953125 2.140625 -5.8125 2.140625 -5.484375 L 2.140625 -0.9375 C 2.140625 -0.609375 2.0625 -0.375 1.90625 -0.28125 C 1.75 -0.1875 1.609375 -0.15625 1.1875 -0.15625 L 1.1875 0 L 3.953125 0 L 3.953125 -0.15625 C 3.171875 -0.15625 3 -0.265625 3 -0.75 L 3 -6.765625 Z M 2.921875 -6.796875 "/>
</symbol>
<symbol overflow="visible" id="glyph2-2">
<path style="stroke:none;" d="M 1.53125 -3.3125 C 2.125 -3.3125 2.359375 -3.296875 2.609375 -3.203125 C 3.21875 -2.984375 3.609375 -2.40625 3.609375 -1.71875 C 3.609375 -0.875 3.046875 -0.21875 2.296875 -0.21875 C 2.03125 -0.21875 1.828125 -0.296875 1.453125 -0.53125 C 1.15625 -0.71875 0.984375 -0.78125 0.8125 -0.78125 C 0.578125 -0.78125 0.4375 -0.640625 0.4375 -0.4375 C 0.4375 -0.078125 0.859375 0.140625 1.5625 0.140625 C 2.34375 0.140625 3.140625 -0.125 3.609375 -0.53125 C 4.078125 -0.9375 4.34375 -1.53125 4.34375 -2.203125 C 4.34375 -2.71875 4.171875 -3.1875 3.890625 -3.5 C 3.6875 -3.71875 3.5 -3.84375 3.046875 -4.03125 C 3.75 -4.5 4 -4.875 4 -5.421875 C 4 -6.234375 3.359375 -6.796875 2.4375 -6.796875 C 1.921875 -6.796875 1.484375 -6.625 1.125 -6.296875 C 0.828125 -6.03125 0.671875 -5.765625 0.453125 -5.171875 L 0.609375 -5.125 C 1.015625 -5.859375 1.46875 -6.1875 2.09375 -6.1875 C 2.75 -6.1875 3.203125 -5.75 3.203125 -5.109375 C 3.203125 -4.75 3.046875 -4.390625 2.796875 -4.140625 C 2.5 -3.84375 2.21875 -3.6875 1.53125 -3.453125 Z M 1.53125 -3.3125 "/>
</symbol>
<symbol overflow="visible" id="glyph2-3">
<path style="stroke:none;" d="M 4.765625 -1.375 L 4.640625 -1.421875 C 4.265625 -0.859375 4.140625 -0.765625 3.6875 -0.765625 L 1.28125 -0.765625 L 2.96875 -2.53125 C 3.875 -3.46875 4.265625 -4.234375 4.265625 -5.015625 C 4.265625 -6.015625 3.453125 -6.796875 2.40625 -6.796875 C 1.84375 -6.796875 1.328125 -6.578125 0.953125 -6.171875 C 0.640625 -5.828125 0.484375 -5.5 0.3125 -4.796875 L 0.515625 -4.734375 C 0.921875 -5.734375 1.28125 -6.046875 1.984375 -6.046875 C 2.828125 -6.046875 3.390625 -5.46875 3.390625 -4.625 C 3.390625 -3.84375 2.9375 -2.90625 2.09375 -2.015625 L 0.296875 -0.125 L 0.296875 0 L 4.21875 0 Z M 4.765625 -1.375 "/>
</symbol>
<symbol overflow="visible" id="glyph2-4">
<path style="stroke:none;" d="M 2.515625 -4.625 C 1.203125 -4.625 0.296875 -3.65625 0.296875 -2.265625 C 0.296875 -0.921875 1.21875 0.09375 2.484375 0.09375 C 3.75 0.09375 4.71875 -0.96875 4.71875 -2.34375 C 4.71875 -3.671875 3.796875 -4.625 2.515625 -4.625 Z M 2.375 -4.34375 C 3.21875 -4.34375 3.8125 -3.375 3.8125 -2 C 3.8125 -0.859375 3.359375 -0.1875 2.609375 -0.1875 C 2.21875 -0.1875 1.84375 -0.421875 1.640625 -0.828125 C 1.359375 -1.34375 1.203125 -2.046875 1.203125 -2.765625 C 1.203125 -3.71875 1.671875 -4.34375 2.375 -4.34375 Z M 2.375 -4.34375 "/>
</symbol>
<symbol overflow="visible" id="glyph2-5">
<path style="stroke:none;" d="M 1.765625 -4.625 L 0.203125 -4.0625 L 0.203125 -3.921875 L 0.28125 -3.921875 C 0.40625 -3.953125 0.53125 -3.953125 0.625 -3.953125 C 0.859375 -3.953125 0.953125 -3.796875 0.953125 -3.359375 L 0.953125 -1.03125 C 0.953125 -0.296875 0.859375 -0.1875 0.15625 -0.15625 L 0.15625 0 L 2.546875 0 L 2.546875 -0.15625 C 1.875 -0.203125 1.796875 -0.296875 1.796875 -1.03125 L 1.796875 -4.59375 Z M 1.28125 -6.859375 C 1.015625 -6.859375 0.78125 -6.625 0.78125 -6.34375 C 0.78125 -6.0625 1 -5.84375 1.28125 -5.84375 C 1.578125 -5.84375 1.8125 -6.0625 1.8125 -6.34375 C 1.8125 -6.625 1.578125 -6.859375 1.28125 -6.859375 Z M 1.28125 -6.859375 "/>
</symbol>
</g>
</defs>
<g id="surface1">
<path style="fill:none;stroke-width:9.75;stroke-linecap:round;stroke-linejoin:bevel;stroke:rgb(0%,0%,0%);stroke-opacity:1;stroke-miterlimit:6;" d="M 460 782.5 C 460 848.789062 406.289062 902.5 340 902.5 C 273.710938 902.5 220 848.789062 220 782.5 C 220 716.210938 273.710938 662.5 340 662.5 C 406.289062 662.5 460 716.210938 460 782.5 " transform="matrix(0.1,0,0,-0.1,0,168)"/>
<path style="fill:none;stroke-width:9.75;stroke-linecap:round;stroke-linejoin:bevel;stroke:rgb(0%,0%,0%);stroke-opacity:1;stroke-miterlimit:6;" d="M 340 1022.5 L 340 902.5 " transform="matrix(0.1,0,0,-0.1,0,168)"/>
<path style="fill:none;stroke-width:9.75;stroke-linecap:round;stroke-linejoin:bevel;stroke:rgb(0%,0%,0%);stroke-opacity:1;stroke-miterlimit:6;" d="M 340 542.5 L 340 662.5 " transform="matrix(0.1,0,0,-0.1,0,168)"/>
<g style="fill:rgb(0%,0%,0%);fill-opacity:1;">
  <use xlink:href="#glyph0-1" x="30.0391" y="88.4914"/>
</g>
<g style="fill:rgb(0%,0%,0%);fill-opacity:1;">
  <use xlink:href="#glyph0-2" x="30.075819" y="100.2016"/>
</g>
<path style="fill:none;stroke-width:12.675;stroke-linecap:round;stroke-linejoin:bevel;stroke:rgb(0%,0%,0%);stroke-opacity:1;stroke-miterlimit:6;" d="M 801.25 1510 L 520 1622.5 " transform="matrix(0.1,0,0,-0.1,0,168)"/>
<path style="fill:none;stroke-width:5.85;stroke-linecap:round;stroke-linejoin:bevel;stroke:rgb(0%,0%,0%);stroke-opacity:1;stroke-miterlimit:6;" d="M 658.671875 1642.734375 C 624.882812 1603.828125 606.25 1554.023438 606.25 1502.5 " transform="matrix(0.1,0,0,-0.1,0,168)"/>
<path style="fill:none;stroke-width:9.75;stroke-linecap:round;stroke-linejoin:bevel;stroke:rgb(0%,0%,0%);stroke-opacity:1;stroke-miterlimit:6;" d="M 797.5 1502.5 C 797.5 1514.921875 807.578125 1525 820 1525 C 832.421875 1525 842.5 1514.921875 842.5 1502.5 C 842.5 1490.078125 832.421875 1480 820 1480 C 807.578125 1480 797.5 1490.078125 797.5 1502.5 " transform="matrix(0.1,0,0,-0.1,0,168)"/>
<path style="fill:none;stroke-width:9.75;stroke-linecap:round;stroke-linejoin:bevel;stroke:rgb(0%,0%,0%);stroke-opacity:1;stroke-miterlimit:6;" d="M 842.5 1502.5 L 880 1502.5 " transform="matrix(0.1,0,0,-0.1,0,168)"/>
<path style=" stroke:none;fill-rule:evenodd;fill:rgb(0%,0%,0%);fill-opacity:1;" d="M 59.199219 15.949219 C 60.324219 18.199219 60.324219 18.875 61 22.25 C 61.675781 18.875 61.675781 18.199219 62.800781 15.949219 C 61.449219 16.398438 60.550781 16.398438 59.199219 15.949219 "/>
<path style="fill:none;stroke-width:9.75;stroke-linecap:round;stroke-linejoin:bevel;stroke:rgb(0%,0%,0%);stroke-opacity:1;stroke-miterlimit:6;" d="M 542.5 1502.5 C 542.5 1514.921875 532.421875 1525 520 1525 C 507.578125 1525 497.5 1514.921875 497.5 1502.5 C 497.5 1490.078125 507.578125 1480 520 1480 C 532.421875 1480 542.5 1490.078125 542.5 1502.5 " transform="matrix(0.1,0,0,-0.1,0,168)"/>
<path style="fill:none;stroke-width:9.75;stroke-linecap:round;stroke-linejoin:bevel;stroke:rgb(0%,0%,0%);stroke-opacity:1;stroke-miterlimit:6;" d="M 497.5 1502.5 L 460 1502.5 " transform="matrix(0.1,0,0,-0.1,0,168)"/>
<path style="fill:none;stroke-width:9.75;stroke-linecap:round;stroke-linejoin:bevel;stroke:rgb(0%,0%,0%);stroke-opacity:1;stroke-miterlimit:6;" d="M 1060 1120 L 1060 902.5 " transform="matrix(0.1,0,0,-0.1,0,168)"/>
<path style="fill:none;stroke-width:9.75;stroke-linecap:round;stroke-linejoin:bevel;stroke:rgb(0%,0%,0%);stroke-opacity:1;stroke-miterlimit:6;" d="M 1060 1165 L 1060 1382.5 " transform="matrix(0.1,0,0,-0.1,0,168)"/>
<path style="fill:none;stroke-width:9.75;stroke-linecap:round;stroke-linejoin:bevel;stroke:rgb(0%,0%,0%);stroke-opacity:1;stroke-miterlimit:6;" d="M 1180 1165 L 940 1165 " transform="matrix(0.1,0,0,-0.1,0,168)"/>
<path style="fill:none;stroke-width:9.75;stroke-linecap:round;stroke-linejoin:bevel;stroke:rgb(0%,0%,0%);stroke-opacity:1;stroke-miterlimit:6;" d="M 1180 1120 L 940 1120 " transform="matrix(0.1,0,0,-0.1,0,168)"/>
<path style="fill:none;stroke-width:12.675;stroke-linecap:round;stroke-linejoin:bevel;stroke:rgb(0%,0%,0%);stroke-opacity:1;stroke-miterlimit:6;" d="M 1067.5 321.25 L 1180 602.5 " transform="matrix(0.1,0,0,-0.1,0,168)"/>
<path style="fill:none;stroke-width:5.85;stroke-linecap:round;stroke-linejoin:bevel;stroke:rgb(0%,0%,0%);stroke-opacity:1;stroke-miterlimit:6;" d="M 1200.234375 463.828125 C 1161.328125 497.617188 1111.523438 516.25 1060 516.25 " transform="matrix(0.1,0,0,-0.1,0,168)"/>
<path style="fill:none;stroke-width:9.75;stroke-linecap:round;stroke-linejoin:bevel;stroke:rgb(0%,0%,0%);stroke-opacity:1;stroke-miterlimit:6;" d="M 1060 325 C 1072.421875 325 1082.5 314.921875 1082.5 302.5 C 1082.5 290.078125 1072.421875 280 1060 280 C 1047.578125 280 1037.5 290.078125 1037.5 302.5 C 1037.5 314.921875 1047.578125 325 1060 325 " transform="matrix(0.1,0,0,-0.1,0,168)"/>
<path style="fill:none;stroke-width:9.75;stroke-linecap:round;stroke-linejoin:bevel;stroke:rgb(0%,0%,0%);stroke-opacity:1;stroke-miterlimit:6;" d="M 1060 280 L 1060 242.5 " transform="matrix(0.1,0,0,-0.1,0,168)"/>
<path style=" stroke:none;fill-rule:evenodd;fill:rgb(0%,0%,0%);fill-opacity:1;" d="M 107.800781 114.949219 C 105.550781 116.074219 104.875 116.074219 101.5 116.75 C 104.875 117.425781 105.550781 117.425781 107.800781 118.550781 C 107.351562 117.199219 107.351562 116.300781 107.800781 114.949219 "/>
<path style="fill:none;stroke-width:9.75;stroke-linecap:round;stroke-linejoin:bevel;stroke:rgb(0%,0%,0%);stroke-opacity:1;stroke-miterlimit:6;" d="M 1060 580 C 1072.421875 580 1082.5 590.078125 1082.5 602.5 C 1082.5 614.921875 1072.421875 625 1060 625 C 1047.578125 625 1037.5 614.921875 1037.5 602.5 C 1037.5 590.078125 1047.578125 580 1060 580 " transform="matrix(0.1,0,0,-0.1,0,168)"/>
<path style="fill:none;stroke-width:9.75;stroke-linecap:round;stroke-linejoin:bevel;stroke:rgb(0%,0%,0%);stroke-opacity:1;stroke-miterlimit:6;" d="M 1060 625 L 1060 662.5 " transform="matrix(0.1,0,0,-0.1,0,168)"/>
<path style="fill:none;stroke-width:12.675;stroke-linecap:round;stroke-linejoin:bevel;stroke:rgb(0%,0%,0%);stroke-opacity:1;stroke-miterlimit:6;" d="M 1521.25 1510 L 1240 1622.5 " transform="matrix(0.1,0,0,-0.1,0,168)"/>
<path style="fill:none;stroke-width:5.85;stroke-linecap:round;stroke-linejoin:bevel;stroke:rgb(0%,0%,0%);stroke-opacity:1;stroke-miterlimit:6;" d="M 1378.671875 1642.734375 C 1344.882812 1603.828125 1326.25 1554.023438 1326.25 1502.5 " transform="matrix(0.1,0,0,-0.1,0,168)"/>
<path style="fill:none;stroke-width:9.75;stroke-linecap:round;stroke-linejoin:bevel;stroke:rgb(0%,0%,0%);stroke-opacity:1;stroke-miterlimit:6;" d="M 1517.5 1502.5 C 1517.5 1514.921875 1527.578125 1525 1540 1525 C 1552.421875 1525 1562.5 1514.921875 1562.5 1502.5 C 1562.5 1490.078125 1552.421875 1480 1540 1480 C 1527.578125 1480 1517.5 1490.078125 1517.5 1502.5 " transform="matrix(0.1,0,0,-0.1,0,168)"/>
<path style="fill:none;stroke-width:9.75;stroke-linecap:round;stroke-linejoin:bevel;stroke:rgb(0%,0%,0%);stroke-opacity:1;stroke-miterlimit:6;" d="M 1562.5 1502.5 L 1600 1502.5 " transform="matrix(0.1,0,0,-0.1,0,168)"/>
<path style=" stroke:none;fill-rule:evenodd;fill:rgb(0%,0%,0%);fill-opacity:1;" d="M 131.199219 15.949219 C 132.324219 18.199219 132.324219 18.875 133 22.25 C 133.675781 18.875 133.675781 18.199219 134.800781 15.949219 C 133.449219 16.398438 132.550781 16.398438 131.199219 15.949219 "/>
<path style="fill:none;stroke-width:9.75;stroke-linecap:round;stroke-linejoin:bevel;stroke:rgb(0%,0%,0%);stroke-opacity:1;stroke-miterlimit:6;" d="M 1262.5 1502.5 C 1262.5 1514.921875 1252.421875 1525 1240 1525 C 1227.578125 1525 1217.5 1514.921875 1217.5 1502.5 C 1217.5 1490.078125 1227.578125 1480 1240 1480 C 1252.421875 1480 1262.5 1490.078125 1262.5 1502.5 " transform="matrix(0.1,0,0,-0.1,0,168)"/>
<path style="fill:none;stroke-width:9.75;stroke-linecap:round;stroke-linejoin:bevel;stroke:rgb(0%,0%,0%);stroke-opacity:1;stroke-miterlimit:6;" d="M 1217.5 1502.5 L 1180 1502.5 " transform="matrix(0.1,0,0,-0.1,0,168)"/>
<path style="fill:none;stroke-width:12.675;stroke-linecap:round;stroke-linejoin:bevel;stroke:rgb(0%,0%,0%);stroke-opacity:1;stroke-miterlimit:6;" d="M 1521.25 790 L 1240 902.5 " transform="matrix(0.1,0,0,-0.1,0,168)"/>
<path style="fill:none;stroke-width:5.85;stroke-linecap:round;stroke-linejoin:bevel;stroke:rgb(0%,0%,0%);stroke-opacity:1;stroke-miterlimit:6;" d="M 1378.671875 922.734375 C 1344.882812 883.828125 1326.25 834.023438 1326.25 782.5 " transform="matrix(0.1,0,0,-0.1,0,168)"/>
<path style="fill:none;stroke-width:9.75;stroke-linecap:round;stroke-linejoin:bevel;stroke:rgb(0%,0%,0%);stroke-opacity:1;stroke-miterlimit:6;" d="M 1517.5 782.5 C 1517.5 794.921875 1527.578125 805 1540 805 C 1552.421875 805 1562.5 794.921875 1562.5 782.5 C 1562.5 770.078125 1552.421875 760 1540 760 C 1527.578125 760 1517.5 770.078125 1517.5 782.5 " transform="matrix(0.1,0,0,-0.1,0,168)"/>
<path style="fill:none;stroke-width:9.75;stroke-linecap:round;stroke-linejoin:bevel;stroke:rgb(0%,0%,0%);stroke-opacity:1;stroke-miterlimit:6;" d="M 1562.5 782.5 L 1600 782.5 " transform="matrix(0.1,0,0,-0.1,0,168)"/>
<path style=" stroke:none;fill-rule:evenodd;fill:rgb(0%,0%,0%);fill-opacity:1;" d="M 131.199219 87.949219 C 132.324219 90.199219 132.324219 90.875 133 94.25 C 133.675781 90.875 133.675781 90.199219 134.800781 87.949219 C 133.449219 88.398438 132.550781 88.398438 131.199219 87.949219 "/>
<path style="fill:none;stroke-width:9.75;stroke-linecap:round;stroke-linejoin:bevel;stroke:rgb(0%,0%,0%);stroke-opacity:1;stroke-miterlimit:6;" d="M 1262.5 782.5 C 1262.5 794.921875 1252.421875 805 1240 805 C 1227.578125 805 1217.5 794.921875 1217.5 782.5 C 1217.5 770.078125 1227.578125 760 1240 760 C 1252.421875 760 1262.5 770.078125 1262.5 782.5 " transform="matrix(0.1,0,0,-0.1,0,168)"/>
<path style="fill:none;stroke-width:9.75;stroke-linecap:round;stroke-linejoin:bevel;stroke:rgb(0%,0%,0%);stroke-opacity:1;stroke-miterlimit:6;" d="M 1217.5 782.5 L 1180 782.5 " transform="matrix(0.1,0,0,-0.1,0,168)"/>
<path style="fill:none;stroke-width:9.75;stroke-linecap:round;stroke-linejoin:bevel;stroke:rgb(0%,0%,0%);stroke-opacity:1;stroke-miterlimit:6;" d="M 1060 1382.5 L 1060 1502.5 " transform="matrix(0.1,0,0,-0.1,0,168)"/>
<path style="fill:none;stroke-width:9.75;stroke-linecap:round;stroke-linejoin:bevel;stroke:rgb(0%,0%,0%);stroke-opacity:1;stroke-miterlimit:6;" d="M 1180 1502.5 L 1060 1502.5 " transform="matrix(0.1,0,0,-0.1,0,168)"/>
<path style="fill:none;stroke-width:9.75;stroke-linecap:round;stroke-linejoin:bevel;stroke:rgb(0%,0%,0%);stroke-opacity:1;stroke-miterlimit:6;" d="M 1060 662.5 L 1060 902.5 " transform="matrix(0.1,0,0,-0.1,0,168)"/>
<path style="fill:none;stroke-width:9.75;stroke-linecap:round;stroke-linejoin:bevel;stroke:rgb(0%,0%,0%);stroke-opacity:1;stroke-miterlimit:6;" d="M 1060 62.5 L 1060 242.5 " transform="matrix(0.1,0,0,-0.1,0,168)"/>
<path style="fill:none;stroke-width:9.75;stroke-linecap:round;stroke-linejoin:bevel;stroke:rgb(0%,0%,0%);stroke-opacity:1;stroke-miterlimit:6;" d="M 1180 782.5 L 1060 782.5 " transform="matrix(0.1,0,0,-0.1,0,168)"/>
<path style=" stroke:none;fill-rule:evenodd;fill:rgb(0%,0%,0%);fill-opacity:1;" d="M 108.25 89.75 C 108.25 88.507812 107.242188 87.5 106 87.5 C 104.757812 87.5 103.75 88.507812 103.75 89.75 C 103.75 90.992188 104.757812 92 106 92 C 107.242188 92 108.25 90.992188 108.25 89.75 "/>
<path style="fill:none;stroke-width:9.75;stroke-linecap:round;stroke-linejoin:bevel;stroke:rgb(0%,0%,0%);stroke-opacity:1;stroke-miterlimit:6;" d="M 1600 782.5 L 1780 782.5 L 1780 1502.5 L 1600 1502.5 " transform="matrix(0.1,0,0,-0.1,0,168)"/>
<path style=" stroke:none;fill-rule:evenodd;fill:rgb(0%,0%,0%);fill-opacity:1;" d="M 108.25 17.75 C 108.25 16.507812 107.242188 15.5 106 15.5 C 104.757812 15.5 103.75 16.507812 103.75 17.75 C 103.75 18.992188 104.757812 20 106 20 C 107.242188 20 108.25 18.992188 108.25 17.75 "/>
<path style=" stroke:none;fill-rule:evenodd;fill:rgb(0%,0%,0%);fill-opacity:1;" d="M 108.25 161.75 C 108.25 160.507812 107.242188 159.5 106 159.5 C 104.757812 159.5 103.75 160.507812 103.75 161.75 C 103.75 162.992188 104.757812 164 106 164 C 107.242188 164 108.25 162.992188 108.25 161.75 "/>
<path style=" stroke:none;fill-rule:evenodd;fill:rgb(0%,0%,0%);fill-opacity:1;" d="M 180.25 17.75 C 180.25 16.507812 179.242188 15.5 178 15.5 C 176.757812 15.5 175.75 16.507812 175.75 17.75 C 175.75 18.992188 176.757812 20 178 20 C 179.242188 20 180.25 18.992188 180.25 17.75 "/>
<g style="fill:rgb(17.993164%,54.492188%,34.104919%);fill-opacity:1;">
  <use xlink:href="#glyph1-1" x="141.838" y="106.25"/>
</g>
<path style="fill:none;stroke-width:9.75;stroke-linecap:round;stroke-linejoin:bevel;stroke:rgb(17.993164%,54.492188%,34.104919%);stroke-opacity:1;stroke-miterlimit:6;" d="M 1540 662.5 C 1540 703.90625 1506.40625 737.5 1465 737.5 C 1423.59375 737.5 1390 703.90625 1390 662.5 C 1390 621.09375 1423.59375 587.5 1465 587.5 C 1506.40625 587.5 1540 621.09375 1540 662.5 " transform="matrix(0.1,0,0,-0.1,0,168)"/>
<path style="fill:none;stroke-width:9.75;stroke-linecap:round;stroke-linejoin:bevel;stroke:rgb(62.693787%,12.5%,94.139099%);stroke-opacity:1;stroke-miterlimit:6;" d="M 1030 422.5 C 1030 463.90625 996.40625 497.5 955 497.5 C 913.59375 497.5 880 463.90625 880 422.5 C 880 381.09375 913.59375 347.5 955 347.5 C 996.40625 347.5 1030 381.09375 1030 422.5 " transform="matrix(0.1,0,0,-0.1,0,168)"/>
<g style="fill:rgb(62.693787%,12.5%,94.139099%);fill-opacity:1;">
  <use xlink:href="#glyph1-2" x="90.55" y="130.25"/>
</g>
<path style="fill:none;stroke-width:9.75;stroke-linecap:round;stroke-linejoin:bevel;stroke:rgb(62.693787%,12.5%,94.139099%);stroke-opacity:1;stroke-miterlimit:6;" d="M 1510 1382.5 C 1510 1423.90625 1476.40625 1457.5 1435 1457.5 C 1393.59375 1457.5 1360 1423.90625 1360 1382.5 C 1360 1341.09375 1393.59375 1307.5 1435 1307.5 C 1476.40625 1307.5 1510 1341.09375 1510 1382.5 " transform="matrix(0.1,0,0,-0.1,0,168)"/>
<g style="fill:rgb(62.693787%,12.5%,94.139099%);fill-opacity:1;">
  <use xlink:href="#glyph1-2" x="138.55" y="34.25"/>
</g>
<path style="fill:none;stroke-width:9.75;stroke-linecap:round;stroke-linejoin:bevel;stroke:rgb(0%,0%,0%);stroke-opacity:1;stroke-miterlimit:6;" d="M 2020 1502.5 L 1780 1502.5 " transform="matrix(0.1,0,0,-0.1,0,168)"/>
<path style="fill:none;stroke-width:9.75;stroke-linecap:round;stroke-linejoin:bevel;stroke:rgb(0%,0%,0%);stroke-opacity:1;stroke-miterlimit:6;" d="M 2020 1120 L 2020 902.5 " transform="matrix(0.1,0,0,-0.1,0,168)"/>
<path style="fill:none;stroke-width:9.75;stroke-linecap:round;stroke-linejoin:bevel;stroke:rgb(0%,0%,0%);stroke-opacity:1;stroke-miterlimit:6;" d="M 2020 1165 L 2020 1382.5 " transform="matrix(0.1,0,0,-0.1,0,168)"/>
<path style="fill:none;stroke-width:9.75;stroke-linecap:round;stroke-linejoin:bevel;stroke:rgb(0%,0%,0%);stroke-opacity:1;stroke-miterlimit:6;" d="M 2140 1165 L 1900 1165 " transform="matrix(0.1,0,0,-0.1,0,168)"/>
<path style="fill:none;stroke-width:9.75;stroke-linecap:round;stroke-linejoin:bevel;stroke:rgb(0%,0%,0%);stroke-opacity:1;stroke-miterlimit:6;" d="M 2140 1120 L 1900 1120 " transform="matrix(0.1,0,0,-0.1,0,168)"/>
<path style="fill:none;stroke-width:12.675;stroke-linecap:round;stroke-linejoin:bevel;stroke:rgb(0%,0%,0%);stroke-opacity:1;stroke-miterlimit:6;" d="M 2027.5 321.25 L 2140 602.5 " transform="matrix(0.1,0,0,-0.1,0,168)"/>
<path style="fill:none;stroke-width:5.85;stroke-linecap:round;stroke-linejoin:bevel;stroke:rgb(0%,0%,0%);stroke-opacity:1;stroke-miterlimit:6;" d="M 2160.234375 463.828125 C 2121.328125 497.617188 2071.523438 516.25 2020 516.25 " transform="matrix(0.1,0,0,-0.1,0,168)"/>
<path style="fill:none;stroke-width:9.75;stroke-linecap:round;stroke-linejoin:bevel;stroke:rgb(0%,0%,0%);stroke-opacity:1;stroke-miterlimit:6;" d="M 2020 325 C 2032.421875 325 2042.5 314.921875 2042.5 302.5 C 2042.5 290.078125 2032.421875 280 2020 280 C 2007.578125 280 1997.5 290.078125 1997.5 302.5 C 1997.5 314.921875 2007.578125 325 2020 325 " transform="matrix(0.1,0,0,-0.1,0,168)"/>
<path style="fill:none;stroke-width:9.75;stroke-linecap:round;stroke-linejoin:bevel;stroke:rgb(0%,0%,0%);stroke-opacity:1;stroke-miterlimit:6;" d="M 2020 280 L 2020 242.5 " transform="matrix(0.1,0,0,-0.1,0,168)"/>
<path style=" stroke:none;fill-rule:evenodd;fill:rgb(0%,0%,0%);fill-opacity:1;" d="M 203.800781 114.949219 C 201.550781 116.074219 200.875 116.074219 197.5 116.75 C 200.875 117.425781 201.550781 117.425781 203.800781 118.550781 C 203.351562 117.199219 203.351562 116.300781 203.800781 114.949219 "/>
<path style="fill:none;stroke-width:9.75;stroke-linecap:round;stroke-linejoin:bevel;stroke:rgb(0%,0%,0%);stroke-opacity:1;stroke-miterlimit:6;" d="M 2020 580 C 2032.421875 580 2042.5 590.078125 2042.5 602.5 C 2042.5 614.921875 2032.421875 625 2020 625 C 2007.578125 625 1997.5 614.921875 1997.5 602.5 C 1997.5 590.078125 2007.578125 580 2020 580 " transform="matrix(0.1,0,0,-0.1,0,168)"/>
<path style="fill:none;stroke-width:9.75;stroke-linecap:round;stroke-linejoin:bevel;stroke:rgb(0%,0%,0%);stroke-opacity:1;stroke-miterlimit:6;" d="M 2020 625 L 2020 662.5 " transform="matrix(0.1,0,0,-0.1,0,168)"/>
<path style="fill:none;stroke-width:12.675;stroke-linecap:round;stroke-linejoin:bevel;stroke:rgb(0%,0%,0%);stroke-opacity:1;stroke-miterlimit:6;" d="M 2481.25 1510 L 2200 1622.5 " transform="matrix(0.1,0,0,-0.1,0,168)"/>
<path style="fill:none;stroke-width:5.85;stroke-linecap:round;stroke-linejoin:bevel;stroke:rgb(0%,0%,0%);stroke-opacity:1;stroke-miterlimit:6;" d="M 2338.671875 1642.734375 C 2304.882812 1603.828125 2286.25 1554.023438 2286.25 1502.5 " transform="matrix(0.1,0,0,-0.1,0,168)"/>
<path style="fill:none;stroke-width:9.75;stroke-linecap:round;stroke-linejoin:bevel;stroke:rgb(0%,0%,0%);stroke-opacity:1;stroke-miterlimit:6;" d="M 2477.5 1502.5 C 2477.5 1514.921875 2487.578125 1525 2500 1525 C 2512.421875 1525 2522.5 1514.921875 2522.5 1502.5 C 2522.5 1490.078125 2512.421875 1480 2500 1480 C 2487.578125 1480 2477.5 1490.078125 2477.5 1502.5 " transform="matrix(0.1,0,0,-0.1,0,168)"/>
<path style="fill:none;stroke-width:9.75;stroke-linecap:round;stroke-linejoin:bevel;stroke:rgb(0%,0%,0%);stroke-opacity:1;stroke-miterlimit:6;" d="M 2522.5 1502.5 L 2560 1502.5 " transform="matrix(0.1,0,0,-0.1,0,168)"/>
<path style=" stroke:none;fill-rule:evenodd;fill:rgb(0%,0%,0%);fill-opacity:1;" d="M 227.199219 15.949219 C 228.324219 18.199219 228.324219 18.875 229 22.25 C 229.675781 18.875 229.675781 18.199219 230.800781 15.949219 C 229.449219 16.398438 228.550781 16.398438 227.199219 15.949219 "/>
<path style="fill:none;stroke-width:9.75;stroke-linecap:round;stroke-linejoin:bevel;stroke:rgb(0%,0%,0%);stroke-opacity:1;stroke-miterlimit:6;" d="M 2222.5 1502.5 C 2222.5 1514.921875 2212.421875 1525 2200 1525 C 2187.578125 1525 2177.5 1514.921875 2177.5 1502.5 C 2177.5 1490.078125 2187.578125 1480 2200 1480 C 2212.421875 1480 2222.5 1490.078125 2222.5 1502.5 " transform="matrix(0.1,0,0,-0.1,0,168)"/>
<path style="fill:none;stroke-width:9.75;stroke-linecap:round;stroke-linejoin:bevel;stroke:rgb(0%,0%,0%);stroke-opacity:1;stroke-miterlimit:6;" d="M 2177.5 1502.5 L 2140 1502.5 " transform="matrix(0.1,0,0,-0.1,0,168)"/>
<path style="fill:none;stroke-width:12.675;stroke-linecap:round;stroke-linejoin:bevel;stroke:rgb(0%,0%,0%);stroke-opacity:1;stroke-miterlimit:6;" d="M 2481.25 790 L 2200 902.5 " transform="matrix(0.1,0,0,-0.1,0,168)"/>
<path style="fill:none;stroke-width:5.85;stroke-linecap:round;stroke-linejoin:bevel;stroke:rgb(0%,0%,0%);stroke-opacity:1;stroke-miterlimit:6;" d="M 2338.671875 922.734375 C 2304.882812 883.828125 2286.25 834.023438 2286.25 782.5 " transform="matrix(0.1,0,0,-0.1,0,168)"/>
<path style="fill:none;stroke-width:9.75;stroke-linecap:round;stroke-linejoin:bevel;stroke:rgb(0%,0%,0%);stroke-opacity:1;stroke-miterlimit:6;" d="M 2477.5 782.5 C 2477.5 794.921875 2487.578125 805 2500 805 C 2512.421875 805 2522.5 794.921875 2522.5 782.5 C 2522.5 770.078125 2512.421875 760 2500 760 C 2487.578125 760 2477.5 770.078125 2477.5 782.5 " transform="matrix(0.1,0,0,-0.1,0,168)"/>
<path style="fill:none;stroke-width:9.75;stroke-linecap:round;stroke-linejoin:bevel;stroke:rgb(0%,0%,0%);stroke-opacity:1;stroke-miterlimit:6;" d="M 2522.5 782.5 L 2560 782.5 " transform="matrix(0.1,0,0,-0.1,0,168)"/>
<path style=" stroke:none;fill-rule:evenodd;fill:rgb(0%,0%,0%);fill-opacity:1;" d="M 227.199219 87.949219 C 228.324219 90.199219 228.324219 90.875 229 94.25 C 229.675781 90.875 229.675781 90.199219 230.800781 87.949219 C 229.449219 88.398438 228.550781 88.398438 227.199219 87.949219 "/>
<path style="fill:none;stroke-width:9.75;stroke-linecap:round;stroke-linejoin:bevel;stroke:rgb(0%,0%,0%);stroke-opacity:1;stroke-miterlimit:6;" d="M 2222.5 782.5 C 2222.5 794.921875 2212.421875 805 2200 805 C 2187.578125 805 2177.5 794.921875 2177.5 782.5 C 2177.5 770.078125 2187.578125 760 2200 760 C 2212.421875 760 2222.5 770.078125 2222.5 782.5 " transform="matrix(0.1,0,0,-0.1,0,168)"/>
<path style="fill:none;stroke-width:9.75;stroke-linecap:round;stroke-linejoin:bevel;stroke:rgb(0%,0%,0%);stroke-opacity:1;stroke-miterlimit:6;" d="M 2177.5 782.5 L 2140 782.5 " transform="matrix(0.1,0,0,-0.1,0,168)"/>
<path style="fill:none;stroke-width:9.75;stroke-linecap:round;stroke-linejoin:bevel;stroke:rgb(0%,0%,0%);stroke-opacity:1;stroke-miterlimit:6;" d="M 2020 1382.5 L 2020 1502.5 " transform="matrix(0.1,0,0,-0.1,0,168)"/>
<path style="fill:none;stroke-width:9.75;stroke-linecap:round;stroke-linejoin:bevel;stroke:rgb(0%,0%,0%);stroke-opacity:1;stroke-miterlimit:6;" d="M 2140 1502.5 L 2020 1502.5 " transform="matrix(0.1,0,0,-0.1,0,168)"/>
<path style="fill:none;stroke-width:9.75;stroke-linecap:round;stroke-linejoin:bevel;stroke:rgb(0%,0%,0%);stroke-opacity:1;stroke-miterlimit:6;" d="M 2020 662.5 L 2020 902.5 " transform="matrix(0.1,0,0,-0.1,0,168)"/>
<path style="fill:none;stroke-width:9.75;stroke-linecap:round;stroke-linejoin:bevel;stroke:rgb(0%,0%,0%);stroke-opacity:1;stroke-miterlimit:6;" d="M 2020 62.5 L 2020 242.5 " transform="matrix(0.1,0,0,-0.1,0,168)"/>
<path style="fill:none;stroke-width:9.75;stroke-linecap:round;stroke-linejoin:bevel;stroke:rgb(0%,0%,0%);stroke-opacity:1;stroke-miterlimit:6;" d="M 2140 782.5 L 2020 782.5 " transform="matrix(0.1,0,0,-0.1,0,168)"/>
<path style=" stroke:none;fill-rule:evenodd;fill:rgb(0%,0%,0%);fill-opacity:1;" d="M 204.25 89.75 C 204.25 88.507812 203.242188 87.5 202 87.5 C 200.757812 87.5 199.75 88.507812 199.75 89.75 C 199.75 90.992188 200.757812 92 202 92 C 203.242188 92 204.25 90.992188 204.25 89.75 "/>
<path style="fill:none;stroke-width:9.75;stroke-linecap:round;stroke-linejoin:bevel;stroke:rgb(0%,0%,0%);stroke-opacity:1;stroke-miterlimit:6;" d="M 2560 782.5 L 2740 782.5 L 2740 1502.5 L 2560 1502.5 " transform="matrix(0.1,0,0,-0.1,0,168)"/>
<path style=" stroke:none;fill-rule:evenodd;fill:rgb(0%,0%,0%);fill-opacity:1;" d="M 204.25 17.75 C 204.25 16.507812 203.242188 15.5 202 15.5 C 200.757812 15.5 199.75 16.507812 199.75 17.75 C 199.75 18.992188 200.757812 20 202 20 C 203.242188 20 204.25 18.992188 204.25 17.75 "/>
<path style=" stroke:none;fill-rule:evenodd;fill:rgb(0%,0%,0%);fill-opacity:1;" d="M 204.25 161.75 C 204.25 160.507812 203.242188 159.5 202 159.5 C 200.757812 159.5 199.75 160.507812 199.75 161.75 C 199.75 162.992188 200.757812 164 202 164 C 203.242188 164 204.25 162.992188 204.25 161.75 "/>
<path style=" stroke:none;fill-rule:evenodd;fill:rgb(0%,0%,0%);fill-opacity:1;" d="M 276.25 17.75 C 276.25 16.507812 275.242188 15.5 274 15.5 C 272.757812 15.5 271.75 16.507812 271.75 17.75 C 271.75 18.992188 272.757812 20 274 20 C 275.242188 20 276.25 18.992188 276.25 17.75 "/>
<path style="fill:none;stroke-width:9.75;stroke-linecap:round;stroke-linejoin:bevel;stroke:rgb(0%,0%,0%);stroke-opacity:1;stroke-miterlimit:6;" d="M 2980 1502.5 L 2740 1502.5 " transform="matrix(0.1,0,0,-0.1,0,168)"/>
<path style="fill:none;stroke-width:9.75;stroke-linecap:round;stroke-linejoin:bevel;stroke:rgb(0%,0%,0%);stroke-opacity:1;stroke-miterlimit:6;" d="M 2980 1120 L 2980 902.5 " transform="matrix(0.1,0,0,-0.1,0,168)"/>
<path style="fill:none;stroke-width:9.75;stroke-linecap:round;stroke-linejoin:bevel;stroke:rgb(0%,0%,0%);stroke-opacity:1;stroke-miterlimit:6;" d="M 2980 1165 L 2980 1382.5 " transform="matrix(0.1,0,0,-0.1,0,168)"/>
<path style="fill:none;stroke-width:9.75;stroke-linecap:round;stroke-linejoin:bevel;stroke:rgb(0%,0%,0%);stroke-opacity:1;stroke-miterlimit:6;" d="M 3100 1165 L 2860 1165 " transform="matrix(0.1,0,0,-0.1,0,168)"/>
<path style="fill:none;stroke-width:9.75;stroke-linecap:round;stroke-linejoin:bevel;stroke:rgb(0%,0%,0%);stroke-opacity:1;stroke-miterlimit:6;" d="M 3100 1120 L 2860 1120 " transform="matrix(0.1,0,0,-0.1,0,168)"/>
<path style="fill:none;stroke-width:12.675;stroke-linecap:round;stroke-linejoin:bevel;stroke:rgb(0%,0%,0%);stroke-opacity:1;stroke-miterlimit:6;" d="M 2987.5 321.25 L 3100 602.5 " transform="matrix(0.1,0,0,-0.1,0,168)"/>
<path style="fill:none;stroke-width:5.85;stroke-linecap:round;stroke-linejoin:bevel;stroke:rgb(0%,0%,0%);stroke-opacity:1;stroke-miterlimit:6;" d="M 3120.234375 463.828125 C 3081.328125 497.617188 3031.523438 516.25 2980 516.25 " transform="matrix(0.1,0,0,-0.1,0,168)"/>
<path style="fill:none;stroke-width:9.75;stroke-linecap:round;stroke-linejoin:bevel;stroke:rgb(0%,0%,0%);stroke-opacity:1;stroke-miterlimit:6;" d="M 2980 325 C 2992.421875 325 3002.5 314.921875 3002.5 302.5 C 3002.5 290.078125 2992.421875 280 2980 280 C 2967.578125 280 2957.5 290.078125 2957.5 302.5 C 2957.5 314.921875 2967.578125 325 2980 325 " transform="matrix(0.1,0,0,-0.1,0,168)"/>
<path style="fill:none;stroke-width:9.75;stroke-linecap:round;stroke-linejoin:bevel;stroke:rgb(0%,0%,0%);stroke-opacity:1;stroke-miterlimit:6;" d="M 2980 280 L 2980 242.5 " transform="matrix(0.1,0,0,-0.1,0,168)"/>
<path style=" stroke:none;fill-rule:evenodd;fill:rgb(0%,0%,0%);fill-opacity:1;" d="M 299.800781 114.949219 C 297.550781 116.074219 296.875 116.074219 293.5 116.75 C 296.875 117.425781 297.550781 117.425781 299.800781 118.550781 C 299.351562 117.199219 299.351562 116.300781 299.800781 114.949219 "/>
<path style="fill:none;stroke-width:9.75;stroke-linecap:round;stroke-linejoin:bevel;stroke:rgb(0%,0%,0%);stroke-opacity:1;stroke-miterlimit:6;" d="M 2980 580 C 2992.421875 580 3002.5 590.078125 3002.5 602.5 C 3002.5 614.921875 2992.421875 625 2980 625 C 2967.578125 625 2957.5 614.921875 2957.5 602.5 C 2957.5 590.078125 2967.578125 580 2980 580 " transform="matrix(0.1,0,0,-0.1,0,168)"/>
<path style="fill:none;stroke-width:9.75;stroke-linecap:round;stroke-linejoin:bevel;stroke:rgb(0%,0%,0%);stroke-opacity:1;stroke-miterlimit:6;" d="M 2980 625 L 2980 662.5 " transform="matrix(0.1,0,0,-0.1,0,168)"/>
<path style="fill:none;stroke-width:12.675;stroke-linecap:round;stroke-linejoin:bevel;stroke:rgb(0%,0%,0%);stroke-opacity:1;stroke-miterlimit:6;" d="M 3441.25 1510 L 3160 1622.5 " transform="matrix(0.1,0,0,-0.1,0,168)"/>
<path style="fill:none;stroke-width:5.85;stroke-linecap:round;stroke-linejoin:bevel;stroke:rgb(0%,0%,0%);stroke-opacity:1;stroke-miterlimit:6;" d="M 3298.671875 1642.734375 C 3264.882812 1603.828125 3246.25 1554.023438 3246.25 1502.5 " transform="matrix(0.1,0,0,-0.1,0,168)"/>
<path style="fill:none;stroke-width:9.75;stroke-linecap:round;stroke-linejoin:bevel;stroke:rgb(0%,0%,0%);stroke-opacity:1;stroke-miterlimit:6;" d="M 3437.5 1502.5 C 3437.5 1514.921875 3447.578125 1525 3460 1525 C 3472.421875 1525 3482.5 1514.921875 3482.5 1502.5 C 3482.5 1490.078125 3472.421875 1480 3460 1480 C 3447.578125 1480 3437.5 1490.078125 3437.5 1502.5 " transform="matrix(0.1,0,0,-0.1,0,168)"/>
<path style="fill:none;stroke-width:9.75;stroke-linecap:round;stroke-linejoin:bevel;stroke:rgb(0%,0%,0%);stroke-opacity:1;stroke-miterlimit:6;" d="M 3482.5 1502.5 L 3520 1502.5 " transform="matrix(0.1,0,0,-0.1,0,168)"/>
<path style=" stroke:none;fill-rule:evenodd;fill:rgb(0%,0%,0%);fill-opacity:1;" d="M 323.199219 15.949219 C 324.324219 18.199219 324.324219 18.875 325 22.25 C 325.675781 18.875 325.675781 18.199219 326.800781 15.949219 C 325.449219 16.398438 324.550781 16.398438 323.199219 15.949219 "/>
<path style="fill:none;stroke-width:9.75;stroke-linecap:round;stroke-linejoin:bevel;stroke:rgb(0%,0%,0%);stroke-opacity:1;stroke-miterlimit:6;" d="M 3182.5 1502.5 C 3182.5 1514.921875 3172.421875 1525 3160 1525 C 3147.578125 1525 3137.5 1514.921875 3137.5 1502.5 C 3137.5 1490.078125 3147.578125 1480 3160 1480 C 3172.421875 1480 3182.5 1490.078125 3182.5 1502.5 " transform="matrix(0.1,0,0,-0.1,0,168)"/>
<path style="fill:none;stroke-width:9.75;stroke-linecap:round;stroke-linejoin:bevel;stroke:rgb(0%,0%,0%);stroke-opacity:1;stroke-miterlimit:6;" d="M 3137.5 1502.5 L 3100 1502.5 " transform="matrix(0.1,0,0,-0.1,0,168)"/>
<path style="fill:none;stroke-width:12.675;stroke-linecap:round;stroke-linejoin:bevel;stroke:rgb(0%,0%,0%);stroke-opacity:1;stroke-miterlimit:6;" d="M 3441.25 790 L 3160 902.5 " transform="matrix(0.1,0,0,-0.1,0,168)"/>
<path style="fill:none;stroke-width:5.85;stroke-linecap:round;stroke-linejoin:bevel;stroke:rgb(0%,0%,0%);stroke-opacity:1;stroke-miterlimit:6;" d="M 3298.671875 922.734375 C 3264.882812 883.828125 3246.25 834.023438 3246.25 782.5 " transform="matrix(0.1,0,0,-0.1,0,168)"/>
<path style="fill:none;stroke-width:9.75;stroke-linecap:round;stroke-linejoin:bevel;stroke:rgb(0%,0%,0%);stroke-opacity:1;stroke-miterlimit:6;" d="M 3437.5 782.5 C 3437.5 794.921875 3447.578125 805 3460 805 C 3472.421875 805 3482.5 794.921875 3482.5 782.5 C 3482.5 770.078125 3472.421875 760 3460 760 C 3447.578125 760 3437.5 770.078125 3437.5 782.5 " transform="matrix(0.1,0,0,-0.1,0,168)"/>
<path style="fill:none;stroke-width:9.75;stroke-linecap:round;stroke-linejoin:bevel;stroke:rgb(0%,0%,0%);stroke-opacity:1;stroke-miterlimit:6;" d="M 3482.5 782.5 L 3520 782.5 " transform="matrix(0.1,0,0,-0.1,0,168)"/>
<path style=" stroke:none;fill-rule:evenodd;fill:rgb(0%,0%,0%);fill-opacity:1;" d="M 323.199219 87.949219 C 324.324219 90.199219 324.324219 90.875 325 94.25 C 325.675781 90.875 325.675781 90.199219 326.800781 87.949219 C 325.449219 88.398438 324.550781 88.398438 323.199219 87.949219 "/>
<path style="fill:none;stroke-width:9.75;stroke-linecap:round;stroke-linejoin:bevel;stroke:rgb(0%,0%,0%);stroke-opacity:1;stroke-miterlimit:6;" d="M 3182.5 782.5 C 3182.5 794.921875 3172.421875 805 3160 805 C 3147.578125 805 3137.5 794.921875 3137.5 782.5 C 3137.5 770.078125 3147.578125 760 3160 760 C 3172.421875 760 3182.5 770.078125 3182.5 782.5 " transform="matrix(0.1,0,0,-0.1,0,168)"/>
<path style="fill:none;stroke-width:9.75;stroke-linecap:round;stroke-linejoin:bevel;stroke:rgb(0%,0%,0%);stroke-opacity:1;stroke-miterlimit:6;" d="M 3137.5 782.5 L 3100 782.5 " transform="matrix(0.1,0,0,-0.1,0,168)"/>
<path style="fill:none;stroke-width:9.75;stroke-linecap:round;stroke-linejoin:bevel;stroke:rgb(0%,0%,0%);stroke-opacity:1;stroke-miterlimit:6;" d="M 2980 1382.5 L 2980 1502.5 " transform="matrix(0.1,0,0,-0.1,0,168)"/>
<path style="fill:none;stroke-width:9.75;stroke-linecap:round;stroke-linejoin:bevel;stroke:rgb(0%,0%,0%);stroke-opacity:1;stroke-miterlimit:6;" d="M 3100 1502.5 L 2980 1502.5 " transform="matrix(0.1,0,0,-0.1,0,168)"/>
<path style="fill:none;stroke-width:9.75;stroke-linecap:round;stroke-linejoin:bevel;stroke:rgb(0%,0%,0%);stroke-opacity:1;stroke-miterlimit:6;" d="M 2980 662.5 L 2980 902.5 " transform="matrix(0.1,0,0,-0.1,0,168)"/>
<path style="fill:none;stroke-width:9.75;stroke-linecap:round;stroke-linejoin:bevel;stroke:rgb(0%,0%,0%);stroke-opacity:1;stroke-miterlimit:6;" d="M 2980 62.5 L 2980 242.5 " transform="matrix(0.1,0,0,-0.1,0,168)"/>
<path style="fill:none;stroke-width:9.75;stroke-linecap:round;stroke-linejoin:bevel;stroke:rgb(0%,0%,0%);stroke-opacity:1;stroke-miterlimit:6;" d="M 3100 782.5 L 2980 782.5 " transform="matrix(0.1,0,0,-0.1,0,168)"/>
<path style=" stroke:none;fill-rule:evenodd;fill:rgb(0%,0%,0%);fill-opacity:1;" d="M 300.25 89.75 C 300.25 88.507812 299.242188 87.5 298 87.5 C 296.757812 87.5 295.75 88.507812 295.75 89.75 C 295.75 90.992188 296.757812 92 298 92 C 299.242188 92 300.25 90.992188 300.25 89.75 "/>
<path style="fill:none;stroke-width:9.75;stroke-linecap:round;stroke-linejoin:bevel;stroke:rgb(0%,0%,0%);stroke-opacity:1;stroke-miterlimit:6;" d="M 3520 782.5 L 3700 782.5 L 3700 1502.5 L 3520 1502.5 " transform="matrix(0.1,0,0,-0.1,0,168)"/>
<path style=" stroke:none;fill-rule:evenodd;fill:rgb(0%,0%,0%);fill-opacity:1;" d="M 300.25 17.75 C 300.25 16.507812 299.242188 15.5 298 15.5 C 296.757812 15.5 295.75 16.507812 295.75 17.75 C 295.75 18.992188 296.757812 20 298 20 C 299.242188 20 300.25 18.992188 300.25 17.75 "/>
<path style=" stroke:none;fill-rule:evenodd;fill:rgb(0%,0%,0%);fill-opacity:1;" d="M 300.25 161.75 C 300.25 160.507812 299.242188 159.5 298 159.5 C 296.757812 159.5 295.75 160.507812 295.75 161.75 C 295.75 162.992188 296.757812 164 298 164 C 299.242188 164 300.25 162.992188 300.25 161.75 "/>
<path style=" stroke:none;fill-rule:evenodd;fill:rgb(0%,0%,0%);fill-opacity:1;" d="M 372.25 17.75 C 372.25 16.507812 371.242188 15.5 370 15.5 C 368.757812 15.5 367.75 16.507812 367.75 17.75 C 367.75 18.992188 368.757812 20 370 20 C 371.242188 20 372.25 18.992188 372.25 17.75 "/>
<g style="fill:rgb(17.993164%,54.492188%,34.104919%);fill-opacity:1;">
  <use xlink:href="#glyph1-1" x="333.838" y="106.25"/>
</g>
<path style="fill:none;stroke-width:9.75;stroke-linecap:round;stroke-linejoin:bevel;stroke:rgb(17.993164%,54.492188%,34.104919%);stroke-opacity:1;stroke-miterlimit:6;" d="M 3460 662.5 C 3460 703.90625 3426.40625 737.5 3385 737.5 C 3343.59375 737.5 3310 703.90625 3310 662.5 C 3310 621.09375 3343.59375 587.5 3385 587.5 C 3426.40625 587.5 3460 621.09375 3460 662.5 " transform="matrix(0.1,0,0,-0.1,0,168)"/>
<path style="fill:none;stroke-width:9.75;stroke-linecap:round;stroke-linejoin:bevel;stroke:rgb(62.693787%,12.5%,94.139099%);stroke-opacity:1;stroke-miterlimit:6;" d="M 2950 422.5 C 2950 463.90625 2916.40625 497.5 2875 497.5 C 2833.59375 497.5 2800 463.90625 2800 422.5 C 2800 381.09375 2833.59375 347.5 2875 347.5 C 2916.40625 347.5 2950 381.09375 2950 422.5 " transform="matrix(0.1,0,0,-0.1,0,168)"/>
<g style="fill:rgb(62.693787%,12.5%,94.139099%);fill-opacity:1;">
  <use xlink:href="#glyph1-2" x="282.55" y="130.25"/>
</g>
<path style="fill:none;stroke-width:9.75;stroke-linecap:round;stroke-linejoin:bevel;stroke:rgb(62.693787%,12.5%,94.139099%);stroke-opacity:1;stroke-miterlimit:6;" d="M 3430 1382.5 C 3430 1423.90625 3396.40625 1457.5 3355 1457.5 C 3313.59375 1457.5 3280 1423.90625 3280 1382.5 C 3280 1341.09375 3313.59375 1307.5 3355 1307.5 C 3396.40625 1307.5 3430 1341.09375 3430 1382.5 " transform="matrix(0.1,0,0,-0.1,0,168)"/>
<g style="fill:rgb(62.693787%,12.5%,94.139099%);fill-opacity:1;">
  <use xlink:href="#glyph1-2" x="330.55" y="34.25"/>
</g>
<path style="fill:none;stroke-width:9.75;stroke-linecap:round;stroke-linejoin:bevel;stroke:rgb(0%,0%,0%);stroke-opacity:1;stroke-miterlimit:6;" d="M 3940 1502.5 L 3700 1502.5 " transform="matrix(0.1,0,0,-0.1,0,168)"/>
<path style="fill:none;stroke-width:9.75;stroke-linecap:round;stroke-linejoin:bevel;stroke:rgb(0%,0%,0%);stroke-opacity:1;stroke-miterlimit:6;" d="M 2020 62.5 L 1060 62.5 " transform="matrix(0.1,0,0,-0.1,0,168)"/>
<path style="fill:none;stroke-width:9.75;stroke-linecap:round;stroke-linejoin:bevel;stroke:rgb(0%,0%,0%);stroke-opacity:1;stroke-miterlimit:6;" d="M 2980 62.5 L 2020 62.5 " transform="matrix(0.1,0,0,-0.1,0,168)"/>
<path style="fill:none;stroke-width:9.75;stroke-linecap:round;stroke-linejoin:bevel;stroke:rgb(17.993164%,54.492188%,34.104919%);stroke-opacity:1;stroke-miterlimit:6;" d="M 760 1382.5 C 760 1423.90625 726.40625 1457.5 685 1457.5 C 643.59375 1457.5 610 1423.90625 610 1382.5 C 610 1341.09375 643.59375 1307.5 685 1307.5 C 726.40625 1307.5 760 1341.09375 760 1382.5 " transform="matrix(0.1,0,0,-0.1,0,168)"/>
<g style="fill:rgb(17.993164%,54.492188%,34.104919%);fill-opacity:1;">
  <use xlink:href="#glyph1-1" x="63.8375" y="34.25"/>
</g>
<path style="fill:none;stroke-width:9.75;stroke-linecap:round;stroke-linejoin:bevel;stroke:rgb(0%,0%,0%);stroke-opacity:1;stroke-miterlimit:6;" d="M 460 1502.5 L 340 1502.5 L 340 1022.5 " transform="matrix(0.1,0,0,-0.1,0,168)"/>
<path style="fill:none;stroke-width:9.75;stroke-linecap:round;stroke-linejoin:bevel;stroke:rgb(0%,0%,0%);stroke-opacity:1;stroke-miterlimit:6;" d="M 1060 1502.5 L 880 1502.5 " transform="matrix(0.1,0,0,-0.1,0,168)"/>
<path style="fill:none;stroke-width:9.75;stroke-linecap:round;stroke-linejoin:bevel;stroke:rgb(0%,0%,0%);stroke-opacity:1;stroke-miterlimit:6;" d="M 1060 62.5 L 340 62.5 L 340 542.5 " transform="matrix(0.1,0,0,-0.1,0,168)"/>
<path style="fill:none;stroke-width:9.75;stroke-linecap:round;stroke-linejoin:bevel;stroke:rgb(0%,0%,0%);stroke-opacity:1;stroke-miterlimit:6;" d="M 4180 760 L 4180 542.5 " transform="matrix(0.1,0,0,-0.1,0,168)"/>
<path style="fill:none;stroke-width:9.75;stroke-linecap:round;stroke-linejoin:bevel;stroke:rgb(0%,0%,0%);stroke-opacity:1;stroke-miterlimit:6;" d="M 4180 805 L 4180 1022.5 " transform="matrix(0.1,0,0,-0.1,0,168)"/>
<path style="fill:none;stroke-width:9.75;stroke-linecap:round;stroke-linejoin:bevel;stroke:rgb(0%,0%,0%);stroke-opacity:1;stroke-miterlimit:6;" d="M 4300 805 L 4060 805 " transform="matrix(0.1,0,0,-0.1,0,168)"/>
<path style="fill:none;stroke-width:9.75;stroke-linecap:round;stroke-linejoin:bevel;stroke:rgb(0%,0%,0%);stroke-opacity:1;stroke-miterlimit:6;" d="M 4300 760 L 4060 760 " transform="matrix(0.1,0,0,-0.1,0,168)"/>
<path style="fill:none;stroke-width:9.75;stroke-linecap:round;stroke-linejoin:bevel;stroke:rgb(0%,0%,0%);stroke-opacity:1;stroke-miterlimit:6;" d="M 4180 962.5 L 4180 1502.5 L 3940 1502.5 " transform="matrix(0.1,0,0,-0.1,0,168)"/>
<path style="fill:none;stroke-width:9.75;stroke-linecap:round;stroke-linejoin:bevel;stroke:rgb(0%,0%,0%);stroke-opacity:1;stroke-miterlimit:6;" d="M 4180 542.5 L 4180 62.5 L 2980 62.5 " transform="matrix(0.1,0,0,-0.1,0,168)"/>
<g style="fill:rgb(0%,0%,0%);fill-opacity:1;">
  <use xlink:href="#glyph1-3" x="117.581" y="65.75"/>
</g>
<g style="fill:rgb(0%,0%,0%);fill-opacity:1;">
  <use xlink:href="#glyph2-1" x="127.5861" y="69.06641"/>
</g>
<g style="fill:rgb(0%,0%,0%);fill-opacity:1;">
  <use xlink:href="#glyph1-3" x="213.581" y="65.75"/>
</g>
<g style="fill:rgb(0%,0%,0%);fill-opacity:1;">
  <use xlink:href="#glyph2-2" x="223.5861" y="69.06641"/>
</g>
<g style="fill:rgb(0%,0%,0%);fill-opacity:1;">
  <use xlink:href="#glyph1-3" x="309.581" y="65.75"/>
</g>
<g style="fill:rgb(0%,0%,0%);fill-opacity:1;">
  <use xlink:href="#glyph2-3" x="319.5861" y="69.06641"/>
</g>
<g style="fill:rgb(0%,0%,0%);fill-opacity:1;">
  <use xlink:href="#glyph1-3" x="399.581" y="107.75001"/>
</g>
<g style="fill:rgb(0%,0%,0%);fill-opacity:1;">
  <use xlink:href="#glyph2-4" x="409.5861" y="111.06642"/>
</g>
<path style="fill:none;stroke-width:9.75;stroke-linecap:round;stroke-linejoin:bevel;stroke:rgb(0%,0%,0%);stroke-opacity:1;stroke-miterlimit:6;" d="M 4660 917.5 L 4660 1022.5 " transform="matrix(0.1,0,0,-0.1,0,168)"/>
<path style="fill:none;stroke-width:9.75;stroke-linecap:round;stroke-linejoin:bevel;stroke:rgb(0%,0%,0%);stroke-opacity:1;stroke-miterlimit:6;" d="M 4660 647.5 L 4660 542.5 " transform="matrix(0.1,0,0,-0.1,0,168)"/>
<path style="fill:none;stroke-width:9.75;stroke-linecap:round;stroke-linejoin:bevel;stroke:rgb(0%,0%,0%);stroke-opacity:1;stroke-miterlimit:6;" d="M 4660 917.5 L 4607.5 895 L 4712.5 850 L 4607.5 805 L 4712.5 760 L 4607.5 715 L 4712.5 670 L 4660 647.5 " transform="matrix(0.1,0,0,-0.1,0,168)"/>
<path style="fill:none;stroke-width:9.75;stroke-linecap:round;stroke-linejoin:bevel;stroke:rgb(0%,0%,0%);stroke-opacity:1;stroke-miterlimit:6;" d="M 4660 1022.5 L 4660 1502.5 L 4180 1502.5 " transform="matrix(0.1,0,0,-0.1,0,168)"/>
<path style="fill:none;stroke-width:9.75;stroke-linecap:round;stroke-linejoin:bevel;stroke:rgb(0%,0%,0%);stroke-opacity:1;stroke-miterlimit:6;" d="M 4660 542.5 L 4660 62.5 L 4180 62.5 " transform="matrix(0.1,0,0,-0.1,0,168)"/>
<g style="fill:rgb(0%,0%,0%);fill-opacity:1;">
  <use xlink:href="#glyph1-4" x="441.745" y="95.75"/>
</g>
<g style="fill:rgb(0%,0%,0%);fill-opacity:1;">
  <use xlink:href="#glyph1-5" x="3.761" y="95.75"/>
</g>
<g style="fill:rgb(0%,0%,0%);fill-opacity:1;">
  <use xlink:href="#glyph2-5" x="14.5911" y="99.06641"/>
</g>
<path style=" stroke:none;fill-rule:evenodd;fill:rgb(0%,0%,0%);fill-opacity:1;" d="M 420.25 17.75 C 420.25 16.507812 419.242188 15.5 418 15.5 C 416.757812 15.5 415.75 16.507812 415.75 17.75 C 415.75 18.992188 416.757812 20 418 20 C 419.242188 20 420.25 18.992188 420.25 17.75 "/>
<path style=" stroke:none;fill-rule:evenodd;fill:rgb(0%,0%,0%);fill-opacity:1;" d="M 420.25 161.75 C 420.25 160.507812 419.242188 159.5 418 159.5 C 416.757812 159.5 415.75 160.507812 415.75 161.75 C 415.75 162.992188 416.757812 164 418 164 C 419.242188 164 420.25 162.992188 420.25 161.75 "/>
<g style="fill:rgb(80.46875%,0%,0%);fill-opacity:1;">
  <use xlink:href="#glyph1-5" x="477.761" y="95.75"/>
</g>
<g style="fill:rgb(80.46875%,0%,0%);fill-opacity:1;">
  <use xlink:href="#glyph2-4" x="488.5911" y="99.06641"/>
</g>
<g style="fill:rgb(80.46875%,0%,0%);fill-opacity:1;">
  <use xlink:href="#glyph1-6" x="483.55008" y="71.75001"/>
</g>
<g style="fill:rgb(80.46875%,0%,0%);fill-opacity:1;">
  <use xlink:href="#glyph1-7" x="483.415705" y="131.75001"/>
</g>
<path style="fill:none;stroke-width:9.75;stroke-linecap:round;stroke-linejoin:bevel;stroke:rgb(62.693787%,12.5%,94.139099%);stroke-opacity:1;stroke-miterlimit:6;" d="M 1930 422.5 C 1930 463.90625 1896.40625 497.5 1855 497.5 C 1813.59375 497.5 1780 463.90625 1780 422.5 C 1780 381.09375 1813.59375 347.5 1855 347.5 C 1896.40625 347.5 1930 381.09375 1930 422.5 " transform="matrix(0.1,0,0,-0.1,0,168)"/>
<g style="fill:rgb(62.693787%,12.5%,94.139099%);fill-opacity:1;">
  <use xlink:href="#glyph1-2" x="180.55" y="130.25"/>
</g>
<g style="fill:rgb(17.993164%,54.492188%,34.104919%);fill-opacity:1;">
  <use xlink:href="#glyph1-1" x="231.838" y="106.25"/>
</g>
<path style="fill:none;stroke-width:9.75;stroke-linecap:round;stroke-linejoin:bevel;stroke:rgb(17.993164%,54.492188%,34.104919%);stroke-opacity:1;stroke-miterlimit:6;" d="M 2440 662.5 C 2440 703.90625 2406.40625 737.5 2365 737.5 C 2323.59375 737.5 2290 703.90625 2290 662.5 C 2290 621.09375 2323.59375 587.5 2365 587.5 C 2406.40625 587.5 2440 621.09375 2440 662.5 " transform="matrix(0.1,0,0,-0.1,0,168)"/>
<path style="fill:none;stroke-width:9.75;stroke-linecap:round;stroke-linejoin:bevel;stroke:rgb(62.693787%,12.5%,94.139099%);stroke-opacity:1;stroke-miterlimit:6;" d="M 2470 1382.5 C 2470 1423.90625 2436.40625 1457.5 2395 1457.5 C 2353.59375 1457.5 2320 1423.90625 2320 1382.5 C 2320 1341.09375 2353.59375 1307.5 2395 1307.5 C 2436.40625 1307.5 2470 1341.09375 2470 1382.5 " transform="matrix(0.1,0,0,-0.1,0,168)"/>
<g style="fill:rgb(62.693787%,12.5%,94.139099%);fill-opacity:1;">
  <use xlink:href="#glyph1-2" x="234.55" y="34.25"/>
</g>
</g>
</svg>
