<?xml version="1.0" encoding="UTF-8"?>
<svg xmlns="http://www.w3.org/2000/svg" xmlns:xlink="http://www.w3.org/1999/xlink" width="282pt" height="153pt" viewBox="0 0 282 153" version="1.1">
<defs>
<g>
<symbol overflow="visible" id="glyph0-0">
<path style="stroke:none;" d=""/>
</symbol>
<symbol overflow="visible" id="glyph0-1">
<path style="stroke:none;" d="M 2 -1.03125 C 1.78125 -0.734375 1.71875 -0.671875 1.625 -0.5625 C 1.46875 -0.40625 1.34375 -0.328125 1.265625 -0.328125 C 1.1875 -0.328125 1.109375 -0.390625 1.109375 -0.453125 C 1.109375 -0.546875 1.140625 -0.6875 1.203125 -0.859375 C 1.203125 -0.875 1.234375 -0.9375 1.25 -1.015625 L 1.25 -1.03125 L 1.265625 -1.046875 L 2.046875 -3.953125 L 2.03125 -3.96875 C 1.109375 -3.796875 0.9375 -3.765625 0.578125 -3.75 L 0.578125 -3.59375 C 1.0625 -3.59375 1.15625 -3.5625 1.15625 -3.390625 C 1.15625 -3.3125 1.125 -3.171875 1.078125 -2.984375 L 0.640625 -1.390625 C 0.5 -0.875 0.4375 -0.59375 0.4375 -0.40625 C 0.4375 -0.078125 0.578125 0.09375 0.859375 0.09375 C 1.265625 0.09375 1.609375 -0.171875 2.109375 -0.921875 Z M 1.921875 -5.890625 C 1.6875 -5.890625 1.5 -5.671875 1.5 -5.40625 C 1.5 -5.125 1.671875 -4.9375 1.9375 -4.9375 C 2.171875 -4.9375 2.375 -5.140625 2.375 -5.390625 C 2.375 -5.65625 2.171875 -5.890625 1.921875 -5.890625 Z M 1.921875 -5.890625 "/>
</symbol>
<symbol overflow="visible" id="glyph0-2">
<path style="stroke:none;" d="M 1.4375 1.578125 C 1.109375 0.671875 1 0.09375 1 -0.765625 C 1 -1.84375 1.265625 -3.140625 1.671875 -4.140625 C 1.96875 -4.84375 2.25 -5.28125 2.828125 -5.890625 L 2.71875 -6.015625 C 1.546875 -4.953125 1.09375 -4.359375 0.71875 -3.421875 C 0.484375 -2.859375 0.375 -2.296875 0.375 -1.625 C 0.375 -0.921875 0.484375 -0.25 0.6875 0.375 C 0.8125 0.75 0.9375 1.03125 1.265625 1.625 Z M 1.4375 1.578125 "/>
</symbol>
<symbol overflow="visible" id="glyph0-3">
<path style="stroke:none;" d="M 2.65625 -3.859375 L 1.9375 -3.859375 L 2.203125 -4.78125 C 2.203125 -4.796875 2.203125 -4.8125 2.203125 -4.828125 C 2.203125 -4.890625 2.171875 -4.90625 2.140625 -4.90625 C 2.078125 -4.90625 2.046875 -4.90625 2 -4.828125 C 1.640625 -4.375 1.09375 -3.921875 0.796875 -3.84375 C 0.578125 -3.765625 0.515625 -3.71875 0.515625 -3.625 C 0.515625 -3.609375 0.515625 -3.59375 0.515625 -3.5625 L 1.1875 -3.5625 L 0.546875 -1.09375 C 0.515625 -1.015625 0.515625 -0.984375 0.484375 -0.90625 C 0.40625 -0.625 0.328125 -0.3125 0.328125 -0.25 C 0.328125 -0.046875 0.515625 0.09375 0.765625 0.09375 C 1.171875 0.09375 1.46875 -0.15625 2.046875 -0.984375 L 1.921875 -1.046875 C 1.484375 -0.484375 1.34375 -0.34375 1.203125 -0.34375 C 1.109375 -0.34375 1.0625 -0.40625 1.0625 -0.515625 C 1.0625 -0.53125 1.0625 -0.546875 1.078125 -0.5625 L 1.859375 -3.5625 L 2.625 -3.5625 Z M 2.65625 -3.859375 "/>
</symbol>
<symbol overflow="visible" id="glyph0-4">
<path style="stroke:none;" d="M 0.265625 1.625 C 1.375 0.640625 1.84375 0.078125 2.234375 -0.90625 C 2.5 -1.5 2.59375 -2.0625 2.59375 -2.734375 C 2.59375 -3.25 2.53125 -3.828125 2.40625 -4.359375 C 2.25 -4.984375 2.109375 -5.296875 1.703125 -6.015625 L 1.53125 -5.96875 C 1.84375 -5.25 1.984375 -4.515625 1.984375 -3.625 C 1.984375 -2.46875 1.671875 -1.015625 1.21875 -0.046875 C 0.96875 0.53125 0.6875 0.90625 0.140625 1.484375 Z M 0.265625 1.625 "/>
</symbol>
<symbol overflow="visible" id="glyph1-0">
<path style="stroke:none;" d=""/>
</symbol>
<symbol overflow="visible" id="glyph1-1">
<path style="stroke:none;" d="M 2.4375 -3.9375 L 0.78125 -3.9375 L 0.78125 -3.84375 C 1.15625 -3.8125 1.25 -3.75 1.25 -3.578125 C 1.25 -3.5 1.21875 -3.359375 1.1875 -3.203125 L 0.4375 -0.546875 C 0.328125 -0.1875 0.296875 -0.15625 -0.046875 -0.09375 L -0.046875 0 L 3.015625 0 L 3.375 -1.078125 L 3.25 -1.109375 C 3.046875 -0.6875 2.875 -0.484375 2.609375 -0.359375 C 2.40625 -0.25 2.15625 -0.21875 1.625 -0.21875 C 1.171875 -0.21875 1.015625 -0.265625 1.015625 -0.421875 C 1.015625 -0.46875 1.046875 -0.609375 1.078125 -0.71875 L 1.828125 -3.390625 C 1.90625 -3.703125 2.0625 -3.8125 2.4375 -3.84375 Z M 2.4375 -3.9375 "/>
</symbol>
<symbol overflow="visible" id="glyph2-0">
<path style="stroke:none;" d=""/>
</symbol>
<symbol overflow="visible" id="glyph2-1">
<path style="stroke:none;" d="M 3.0625 -5.40625 L 1.84375 -5.40625 L 1.84375 -6.796875 C 1.84375 -6.90625 1.84375 -6.953125 1.765625 -6.953125 C 1.6875 -6.84375 1.609375 -6.734375 1.53125 -6.609375 C 1.0625 -5.953125 0.546875 -5.375 0.359375 -5.328125 C 0.234375 -5.25 0.15625 -5.15625 0.15625 -5.09375 C 0.15625 -5.0625 0.171875 -5.046875 0.203125 -5.015625 L 0.84375 -5.015625 L 0.84375 -1.40625 C 0.84375 -0.390625 1.203125 0.125 1.90625 0.125 C 2.5 0.125 2.953125 -0.171875 3.34375 -0.796875 L 3.1875 -0.921875 C 2.9375 -0.625 2.734375 -0.5 2.46875 -0.5 C 2.03125 -0.5 1.84375 -0.828125 1.84375 -1.578125 L 1.84375 -5.015625 L 3.0625 -5.015625 Z M 3.0625 -5.40625 "/>
</symbol>
<symbol overflow="visible" id="glyph3-0">
<path style="stroke:none;" d=""/>
</symbol>
<symbol overflow="visible" id="glyph3-1">
<path style="stroke:none;" d="M 0.9375 -0.984375 C 0.9375 -0.328125 0.828125 -0.21875 0.140625 -0.171875 L 0.140625 0 L 2.703125 0 C 3.75 0 4.6875 -0.296875 5.25 -0.796875 C 5.828125 -1.328125 6.171875 -2.140625 6.171875 -3 C 6.171875 -3.8125 5.890625 -4.515625 5.40625 -5.015625 C 4.78125 -5.640625 3.8125 -5.953125 2.578125 -5.953125 L 0.140625 -5.953125 L 0.140625 -5.78125 C 0.859375 -5.71875 0.9375 -5.640625 0.9375 -4.984375 Z M 1.859375 -5.28125 C 1.859375 -5.546875 1.953125 -5.625 2.328125 -5.625 C 3.09375 -5.625 3.6875 -5.484375 4.109375 -5.171875 C 4.8125 -4.6875 5.1875 -3.921875 5.1875 -2.9375 C 5.1875 -1.875 4.8125 -1.125 4.09375 -0.703125 C 3.625 -0.4375 3.109375 -0.328125 2.328125 -0.328125 C 1.96875 -0.328125 1.859375 -0.40625 1.859375 -0.703125 Z M 1.859375 -5.28125 "/>
</symbol>
<symbol overflow="visible" id="glyph3-2">
<path style="stroke:none;" d="M 2.28125 -5.578125 L 2.28125 -1.078125 C 2.28125 -0.3125 2.1875 -0.21875 1.4375 -0.171875 L 1.4375 0 L 4.0625 0 L 4.0625 -0.171875 C 3.328125 -0.203125 3.203125 -0.328125 3.203125 -0.984375 L 3.203125 -5.578125 L 3.6875 -5.578125 C 4.71875 -5.578125 4.90625 -5.421875 5.125 -4.421875 L 5.34375 -4.421875 L 5.28125 -5.953125 L 0.203125 -5.953125 L 0.15625 -4.421875 L 0.375 -4.421875 C 0.578125 -5.40625 0.796875 -5.578125 1.796875 -5.578125 Z M 2.28125 -5.578125 "/>
</symbol>
<symbol overflow="visible" id="glyph3-3">
<path style="stroke:none;" d="M 2.234375 -2.578125 L 0.265625 -2.578125 L 0.265625 -1.984375 L 2.234375 -1.984375 L 2.234375 0 L 2.828125 0 L 2.828125 -1.984375 L 4.8125 -1.984375 L 4.8125 -2.578125 L 2.828125 -2.578125 L 2.828125 -4.546875 L 2.234375 -4.546875 Z M 2.234375 -2.578125 "/>
</symbol>
<symbol overflow="visible" id="glyph3-4">
<path style="stroke:none;" d="M 4.28125 -1.234375 L 4.15625 -1.28125 C 3.828125 -0.765625 3.703125 -0.6875 3.296875 -0.6875 L 1.15625 -0.6875 L 2.65625 -2.265625 C 3.46875 -3.109375 3.8125 -3.78125 3.8125 -4.484375 C 3.8125 -5.390625 3.09375 -6.078125 2.15625 -6.078125 C 1.65625 -6.078125 1.1875 -5.890625 0.859375 -5.53125 C 0.5625 -5.21875 0.4375 -4.9375 0.28125 -4.296875 L 0.46875 -4.25 C 0.828125 -5.125 1.15625 -5.421875 1.765625 -5.421875 C 2.53125 -5.421875 3.046875 -4.90625 3.046875 -4.15625 C 3.046875 -3.453125 2.625 -2.609375 1.875 -1.8125 L 0.265625 -0.109375 L 0.265625 0 L 3.78125 0 Z M 4.28125 -1.234375 "/>
</symbol>
<symbol overflow="visible" id="glyph3-5">
<path style="stroke:none;" d="M 1.578125 -4.140625 L 0.1875 -3.640625 L 0.1875 -3.515625 L 0.25 -3.515625 C 0.359375 -3.53125 0.484375 -3.546875 0.5625 -3.546875 C 0.78125 -3.546875 0.859375 -3.40625 0.859375 -3 L 0.859375 -0.921875 C 0.859375 -0.265625 0.765625 -0.171875 0.140625 -0.140625 L 0.140625 0 L 2.28125 0 L 2.28125 -0.140625 C 1.6875 -0.1875 1.609375 -0.265625 1.609375 -0.921875 L 1.609375 -4.109375 Z M 1.15625 -6.140625 C 0.90625 -6.140625 0.703125 -5.9375 0.703125 -5.6875 C 0.703125 -5.4375 0.90625 -5.234375 1.15625 -5.234375 C 1.40625 -5.234375 1.625 -5.421875 1.625 -5.6875 C 1.625 -5.9375 1.40625 -6.140625 1.15625 -6.140625 Z M 1.15625 -6.140625 "/>
</symbol>
<symbol overflow="visible" id="glyph3-6">
<path style="stroke:none;" d="M 1.03125 -0.984375 C 1.03125 -0.3125 0.921875 -0.203125 0.15625 -0.171875 L 0.15625 0 L 2.828125 0 L 2.828125 -0.171875 C 2.09375 -0.203125 1.953125 -0.328125 1.953125 -0.984375 L 1.953125 -4.984375 C 1.953125 -5.640625 2.078125 -5.75 2.828125 -5.78125 L 2.828125 -5.953125 L 0.15625 -5.953125 L 0.15625 -5.78125 C 0.921875 -5.734375 1.03125 -5.640625 1.03125 -4.984375 Z M 1.03125 -0.984375 "/>
</symbol>
<symbol overflow="visible" id="glyph3-7">
<path style="stroke:none;" d="M 6.265625 -5.953125 L 4.421875 -5.953125 L 4.421875 -5.78125 C 4.921875 -5.765625 5.078125 -5.65625 5.078125 -5.40625 C 5.078125 -5.265625 5.015625 -5.015625 4.90625 -4.75 L 3.59375 -1.453125 L 2.234375 -4.484375 C 1.9375 -5.140625 1.859375 -5.359375 1.859375 -5.484375 C 1.859375 -5.65625 1.984375 -5.75 2.28125 -5.765625 C 2.3125 -5.765625 2.40625 -5.78125 2.53125 -5.78125 L 2.53125 -5.953125 L 0.140625 -5.953125 L 0.140625 -5.78125 C 0.578125 -5.765625 0.71875 -5.640625 1.09375 -4.84375 L 3.3125 0.09375 L 3.453125 0.09375 L 5.4375 -4.953125 C 5.734375 -5.65625 5.84375 -5.765625 6.265625 -5.78125 Z M 6.265625 -5.953125 "/>
</symbol>
<symbol overflow="visible" id="glyph3-8">
<path style="stroke:none;" d="M 5.15625 -1.5625 C 5 -1.21875 4.875 -1.015625 4.75 -0.859375 C 4.421875 -0.515625 3.9375 -0.34375 3.1875 -0.34375 L 2.578125 -0.34375 C 1.921875 -0.34375 1.8125 -0.40625 1.8125 -0.71875 L 1.8125 -4.984375 C 1.8125 -5.609375 1.9375 -5.734375 2.640625 -5.78125 L 2.640625 -5.953125 L 0.109375 -5.953125 L 0.109375 -5.78125 C 0.78125 -5.734375 0.890625 -5.609375 0.890625 -4.984375 L 0.890625 -0.984375 C 0.890625 -0.34375 0.765625 -0.21875 0.109375 -0.171875 L 0.109375 0 L 4.953125 0 L 5.375 -1.5625 Z M 5.15625 -1.5625 "/>
</symbol>
<symbol overflow="visible" id="glyph3-9">
<path style="stroke:none;" d="M 4.015625 -6.078125 L 3.828125 -6.078125 C 3.796875 -5.875 3.703125 -5.78125 3.546875 -5.78125 C 3.453125 -5.78125 3.296875 -5.8125 3.15625 -5.890625 C 2.8125 -6.015625 2.484375 -6.078125 2.203125 -6.078125 C 1.8125 -6.078125 1.40625 -5.9375 1.109375 -5.671875 C 0.796875 -5.390625 0.640625 -5.015625 0.640625 -4.546875 C 0.640625 -3.828125 1.03125 -3.328125 2.046875 -2.796875 C 2.6875 -2.453125 3.15625 -2.078125 3.390625 -1.734375 C 3.46875 -1.625 3.515625 -1.4375 3.515625 -1.21875 C 3.515625 -0.609375 3.0625 -0.203125 2.40625 -0.203125 C 1.609375 -0.203125 1.03125 -0.6875 0.578125 -1.796875 L 0.375 -1.796875 L 0.640625 0.109375 L 0.84375 0.109375 C 0.859375 -0.046875 0.96875 -0.1875 1.09375 -0.1875 C 1.203125 -0.1875 1.34375 -0.140625 1.515625 -0.078125 C 1.859375 0.046875 2.21875 0.125 2.578125 0.125 C 3.625 0.125 4.421875 -0.578125 4.421875 -1.515625 C 4.421875 -2.25 3.921875 -2.828125 2.734375 -3.46875 C 1.796875 -4 1.40625 -4.390625 1.40625 -4.875 C 1.40625 -5.375 1.796875 -5.71875 2.34375 -5.71875 C 2.75 -5.71875 3.125 -5.546875 3.453125 -5.21875 C 3.71875 -4.9375 3.859375 -4.703125 4 -4.171875 L 4.21875 -4.171875 Z M 4.015625 -6.078125 "/>
</symbol>
<symbol overflow="visible" id="glyph3-10">
<path style="stroke:none;" d="M 0.171875 -5.609375 L 0.21875 -5.609375 C 0.328125 -5.609375 0.4375 -5.625 0.5 -5.625 C 0.796875 -5.625 0.875 -5.5 0.875 -5.078125 L 0.875 -0.78125 C 0.875 -0.296875 0.75 -0.1875 0.1875 -0.140625 L 0.1875 0 L 2.3125 0 L 2.3125 -0.140625 C 1.75 -0.171875 1.640625 -0.265625 1.640625 -0.75 L 1.640625 -6.125 L 1.609375 -6.140625 C 1.140625 -6 0.796875 -5.90625 0.171875 -5.75 Z M 0.171875 -5.609375 "/>
</symbol>
<symbol overflow="visible" id="glyph3-11">
<path style="stroke:none;" d="M 2.25 -4.140625 C 1.078125 -4.140625 0.265625 -3.28125 0.265625 -2.03125 C 0.265625 -0.8125 1.09375 0.09375 2.234375 0.09375 C 3.359375 0.09375 4.234375 -0.859375 4.234375 -2.109375 C 4.234375 -3.28125 3.40625 -4.140625 2.25 -4.140625 Z M 2.140625 -3.890625 C 2.890625 -3.890625 3.421875 -3.03125 3.421875 -1.796875 C 3.421875 -0.78125 3.015625 -0.15625 2.34375 -0.15625 C 1.984375 -0.15625 1.65625 -0.375 1.46875 -0.734375 C 1.21875 -1.203125 1.078125 -1.84375 1.078125 -2.46875 C 1.078125 -3.328125 1.5 -3.890625 2.140625 -3.890625 Z M 2.140625 -3.890625 "/>
</symbol>
<symbol overflow="visible" id="glyph3-12">
<path style="stroke:none;" d="M 0.078125 -3.53125 C 0.15625 -3.546875 0.21875 -3.546875 0.3125 -3.546875 C 0.609375 -3.546875 0.671875 -3.453125 0.671875 -3.03125 L 0.671875 1.171875 C 0.671875 1.640625 0.578125 1.75 0.046875 1.796875 L 0.046875 1.953125 L 2.21875 1.953125 L 2.21875 1.796875 C 1.546875 1.78125 1.4375 1.6875 1.4375 1.109375 L 1.4375 -0.296875 C 1.75 0 1.96875 0.09375 2.34375 0.09375 C 3.40625 0.09375 4.234375 -0.921875 4.234375 -2.21875 C 4.234375 -3.34375 3.59375 -4.140625 2.734375 -4.140625 C 2.21875 -4.140625 1.828125 -3.921875 1.4375 -3.421875 L 1.4375 -4.125 L 1.375 -4.140625 C 0.890625 -3.953125 0.578125 -3.828125 0.078125 -3.6875 Z M 1.4375 -3 C 1.4375 -3.28125 1.9375 -3.59375 2.34375 -3.59375 C 3.015625 -3.59375 3.453125 -2.921875 3.453125 -1.875 C 3.453125 -0.875 3.015625 -0.203125 2.359375 -0.203125 C 1.9375 -0.203125 1.4375 -0.515625 1.4375 -0.796875 Z M 1.4375 -3 "/>
</symbol>
<symbol overflow="visible" id="glyph3-13">
<path style="stroke:none;" d="M 3.671875 -1.46875 C 3.234375 -0.796875 2.859375 -0.53125 2.28125 -0.53125 C 1.765625 -0.53125 1.375 -0.796875 1.109375 -1.3125 C 0.953125 -1.640625 0.890625 -1.9375 0.875 -2.5 L 3.640625 -2.5 C 3.578125 -3.078125 3.484375 -3.34375 3.265625 -3.625 C 2.984375 -3.953125 2.578125 -4.140625 2.109375 -4.140625 C 1.65625 -4.140625 1.234375 -3.984375 0.890625 -3.671875 C 0.46875 -3.296875 0.21875 -2.65625 0.21875 -1.921875 C 0.21875 -0.6875 0.875 0.09375 1.90625 0.09375 C 2.765625 0.09375 3.4375 -0.4375 3.8125 -1.40625 Z M 0.890625 -2.78125 C 0.984375 -3.484375 1.296875 -3.8125 1.84375 -3.8125 C 2.390625 -3.8125 2.609375 -3.5625 2.734375 -2.78125 Z M 0.890625 -2.78125 "/>
</symbol>
<symbol overflow="visible" id="glyph3-14">
<path style="stroke:none;" d="M 1.21875 -4.125 C 0.953125 -4.125 0.734375 -3.890625 0.734375 -3.625 C 0.734375 -3.359375 0.953125 -3.125 1.21875 -3.125 C 1.5 -3.125 1.734375 -3.359375 1.734375 -3.625 C 1.734375 -3.890625 1.5 -4.125 1.21875 -4.125 Z M 1.21875 -0.90625 C 0.953125 -0.90625 0.734375 -0.671875 0.734375 -0.390625 C 0.734375 -0.125 0.953125 0.09375 1.21875 0.09375 C 1.5 0.09375 1.734375 -0.125 1.734375 -0.390625 C 1.734375 -0.671875 1.5 -0.90625 1.21875 -0.90625 Z M 1.21875 -0.90625 "/>
</symbol>
<symbol overflow="visible" id="glyph3-15">
<path style="stroke:none;" d=""/>
</symbol>
<symbol overflow="visible" id="glyph3-16">
<path style="stroke:none;" d="M 0.34375 -2.3125 L 0.34375 -1.75 L 2.5625 -1.75 L 2.5625 -2.3125 Z M 0.34375 -2.3125 "/>
</symbol>
<symbol overflow="visible" id="glyph3-17">
<path style="stroke:none;" d="M 5.9375 -0.171875 C 5.59375 -0.203125 5.40625 -0.28125 5.140625 -0.59375 L 3.296875 -2.875 C 3.890625 -2.984375 4.171875 -3.09375 4.46875 -3.34375 C 4.75 -3.578125 4.921875 -3.953125 4.921875 -4.375 C 4.921875 -4.765625 4.8125 -5.09375 4.578125 -5.359375 C 4.234375 -5.71875 3.484375 -5.953125 2.640625 -5.953125 L 0.15625 -5.953125 L 0.15625 -5.78125 C 0.828125 -5.71875 0.921875 -5.609375 0.921875 -4.984375 L 0.921875 -1.078125 C 0.921875 -0.328125 0.828125 -0.21875 0.15625 -0.171875 L 0.15625 0 L 2.640625 0 L 2.640625 -0.171875 C 1.953125 -0.21875 1.84375 -0.328125 1.84375 -0.984375 L 1.84375 -2.75 L 2.34375 -2.765625 L 4.484375 0 L 5.9375 0 Z M 1.84375 -5.296875 C 1.84375 -5.546875 1.9375 -5.625 2.296875 -5.625 C 3.421875 -5.625 3.9375 -5.234375 3.9375 -4.390625 C 3.9375 -3.9375 3.75 -3.5625 3.421875 -3.390625 C 3.015625 -3.15625 2.703125 -3.109375 1.84375 -3.09375 Z M 1.84375 -5.296875 "/>
</symbol>
<symbol overflow="visible" id="glyph4-0">
<path style="stroke:none;" d=""/>
</symbol>
<symbol overflow="visible" id="glyph4-1">
<path style="stroke:none;" d="M 0.046875 0 L 5.46875 0 L 2.9375 -6.1875 Z M 0.6875 -0.453125 L 2.609375 -4.578125 L 4.3125 -0.453125 Z M 0.6875 -0.453125 "/>
</symbol>
<symbol overflow="visible" id="glyph5-0">
<path style="stroke:none;" d=""/>
</symbol>
<symbol overflow="visible" id="glyph5-1">
<path style="stroke:none;" d="M 3.453125 -1.046875 C 3.359375 -0.8125 3.265625 -0.6875 3.171875 -0.578125 C 2.96875 -0.34375 2.640625 -0.234375 2.140625 -0.234375 L 1.734375 -0.234375 C 1.296875 -0.234375 1.21875 -0.265625 1.21875 -0.484375 L 1.21875 -3.328125 C 1.21875 -3.765625 1.296875 -3.84375 1.765625 -3.875 L 1.765625 -4 L 0.078125 -4 L 0.078125 -3.875 C 0.515625 -3.84375 0.59375 -3.75 0.59375 -3.328125 L 0.59375 -0.65625 C 0.59375 -0.234375 0.515625 -0.140625 0.078125 -0.109375 L 0.078125 0 L 3.3125 0 L 3.609375 -1.046875 Z M 3.453125 -1.046875 "/>
</symbol>
<symbol overflow="visible" id="glyph5-2">
<path style="stroke:none;" d="M 1.0625 -2.78125 L 0.125 -2.4375 L 0.125 -2.359375 L 0.171875 -2.359375 C 0.234375 -2.375 0.3125 -2.375 0.375 -2.375 C 0.515625 -2.375 0.578125 -2.28125 0.578125 -2.015625 L 0.578125 -0.609375 C 0.578125 -0.1875 0.515625 -0.109375 0.09375 -0.09375 L 0.09375 0 L 1.53125 0 L 1.53125 -0.09375 C 1.125 -0.125 1.078125 -0.1875 1.078125 -0.609375 L 1.078125 -2.75 Z M 0.765625 -4.125 C 0.609375 -4.125 0.46875 -3.984375 0.46875 -3.8125 C 0.46875 -3.640625 0.609375 -3.5 0.765625 -3.5 C 0.953125 -3.5 1.078125 -3.640625 1.078125 -3.8125 C 1.078125 -3.984375 0.953125 -4.125 0.765625 -4.125 Z M 0.765625 -4.125 "/>
</symbol>
<symbol overflow="visible" id="glyph5-3">
<path style="stroke:none;" d="M 1.53125 -4.078125 C 1.203125 -4.078125 0.953125 -3.96875 0.71875 -3.765625 C 0.375 -3.421875 0.140625 -2.734375 0.140625 -2.03125 C 0.140625 -1.375 0.34375 -0.65625 0.625 -0.328125 C 0.84375 -0.0625 1.15625 0.078125 1.515625 0.078125 C 1.8125 0.078125 2.078125 -0.015625 2.296875 -0.234375 C 2.640625 -0.5625 2.875 -1.265625 2.875 -1.984375 C 2.875 -3.234375 2.328125 -4.078125 1.53125 -4.078125 Z M 1.515625 -3.921875 C 2.015625 -3.921875 2.296875 -3.234375 2.296875 -1.984375 C 2.296875 -0.71875 2.03125 -0.078125 1.515625 -0.078125 C 0.984375 -0.078125 0.71875 -0.71875 0.71875 -1.96875 C 0.71875 -3.25 1 -3.921875 1.515625 -3.921875 Z M 1.515625 -3.921875 "/>
</symbol>
<symbol overflow="visible" id="glyph5-4">
<path style="stroke:none;" d="M 0.5 0.84375 C 0.90625 0.65625 1.171875 0.28125 1.171875 -0.078125 C 1.171875 -0.375 0.96875 -0.609375 0.6875 -0.609375 C 0.484375 -0.609375 0.34375 -0.46875 0.34375 -0.265625 C 0.34375 -0.078125 0.46875 0.03125 0.6875 0.03125 C 0.734375 0.03125 0.765625 0.03125 0.8125 0.03125 C 0.84375 0.015625 0.84375 0.015625 0.859375 0.015625 C 0.90625 0.015625 0.9375 0.046875 0.9375 0.09375 C 0.9375 0.296875 0.765625 0.515625 0.453125 0.734375 Z M 0.5 0.84375 "/>
</symbol>
<symbol overflow="visible" id="glyph5-5">
<path style="stroke:none;" d="M 2.40625 -0.9375 C 2.109375 -0.515625 1.890625 -0.375 1.546875 -0.375 C 1 -0.375 0.609375 -0.859375 0.609375 -1.546875 C 0.609375 -2.171875 0.953125 -2.59375 1.4375 -2.59375 C 1.65625 -2.59375 1.734375 -2.53125 1.796875 -2.3125 L 1.828125 -2.171875 C 1.875 -2.015625 1.984375 -1.90625 2.109375 -1.90625 C 2.265625 -1.90625 2.40625 -2.015625 2.40625 -2.15625 C 2.40625 -2.484375 1.984375 -2.78125 1.46875 -2.78125 C 1.171875 -2.78125 0.875 -2.65625 0.625 -2.4375 C 0.3125 -2.171875 0.15625 -1.765625 0.15625 -1.28125 C 0.15625 -0.5 0.625 0.0625 1.296875 0.0625 C 1.5625 0.0625 1.8125 -0.03125 2.03125 -0.21875 C 2.1875 -0.375 2.296875 -0.53125 2.484375 -0.890625 Z M 2.40625 -0.9375 "/>
</symbol>
<symbol overflow="visible" id="glyph5-6">
<path style="stroke:none;" d="M 0.046875 -2.359375 C 0.125 -2.375 0.1875 -2.375 0.25 -2.375 C 0.40625 -2.375 0.453125 -2.28125 0.453125 -2.015625 L 0.453125 -0.5 C 0.453125 -0.203125 0.421875 -0.15625 0.03125 -0.09375 L 0.03125 0 L 1.484375 0 L 1.484375 -0.09375 C 1.0625 -0.109375 0.96875 -0.203125 0.96875 -0.546875 L 0.96875 -1.90625 C 0.96875 -2.09375 1.21875 -2.390625 1.390625 -2.390625 C 1.421875 -2.390625 1.484375 -2.359375 1.546875 -2.296875 C 1.640625 -2.21875 1.703125 -2.1875 1.78125 -2.1875 C 1.9375 -2.1875 2.015625 -2.28125 2.015625 -2.453125 C 2.015625 -2.65625 1.890625 -2.78125 1.6875 -2.78125 C 1.4375 -2.78125 1.265625 -2.640625 0.96875 -2.203125 L 0.96875 -2.765625 L 0.9375 -2.78125 C 0.609375 -2.640625 0.390625 -2.5625 0.046875 -2.453125 Z M 0.046875 -2.359375 "/>
</symbol>
<symbol overflow="visible" id="glyph5-7">
<path style="stroke:none;" d="M 1.53125 -2.71875 L 0.921875 -2.71875 L 0.921875 -3.40625 C 0.921875 -3.46875 0.921875 -3.484375 0.890625 -3.484375 C 0.84375 -3.4375 0.8125 -3.390625 0.765625 -3.328125 C 0.53125 -2.984375 0.28125 -2.703125 0.1875 -2.671875 C 0.109375 -2.640625 0.078125 -2.59375 0.078125 -2.5625 C 0.078125 -2.546875 0.078125 -2.53125 0.109375 -2.515625 L 0.421875 -2.515625 L 0.421875 -0.703125 C 0.421875 -0.203125 0.609375 0.0625 0.953125 0.0625 C 1.25 0.0625 1.484375 -0.078125 1.6875 -0.390625 L 1.609375 -0.46875 C 1.484375 -0.3125 1.375 -0.25 1.25 -0.25 C 1.015625 -0.25 0.921875 -0.421875 0.921875 -0.796875 L 0.921875 -2.515625 L 1.53125 -2.515625 Z M 1.53125 -2.71875 "/>
</symbol>
<symbol overflow="visible" id="glyph5-8">
<path style="stroke:none;" d="M 2.671875 -0.390625 C 2.5625 -0.3125 2.484375 -0.28125 2.40625 -0.28125 C 2.265625 -0.28125 2.21875 -0.375 2.21875 -0.640625 L 2.21875 -1.8125 C 2.21875 -2.125 2.1875 -2.296875 2.09375 -2.4375 C 1.96875 -2.65625 1.703125 -2.78125 1.34375 -2.78125 C 0.78125 -2.78125 0.34375 -2.484375 0.34375 -2.09375 C 0.34375 -1.953125 0.453125 -1.84375 0.59375 -1.84375 C 0.734375 -1.84375 0.875 -1.953125 0.875 -2.09375 C 0.875 -2.109375 0.859375 -2.140625 0.859375 -2.1875 C 0.84375 -2.25 0.84375 -2.296875 0.84375 -2.328125 C 0.84375 -2.5 1.03125 -2.625 1.265625 -2.625 C 1.5625 -2.625 1.734375 -2.453125 1.734375 -2.125 L 1.734375 -1.765625 C 0.796875 -1.390625 0.703125 -1.34375 0.4375 -1.109375 C 0.3125 -0.984375 0.21875 -0.78125 0.21875 -0.578125 C 0.21875 -0.203125 0.484375 0.0625 0.859375 0.0625 C 1.125 0.0625 1.375 -0.0625 1.734375 -0.375 C 1.765625 -0.0625 1.875 0.0625 2.125 0.0625 C 2.328125 0.0625 2.453125 -0.015625 2.671875 -0.234375 Z M 1.734375 -0.734375 C 1.734375 -0.5625 1.703125 -0.5 1.578125 -0.421875 C 1.421875 -0.34375 1.265625 -0.296875 1.140625 -0.296875 C 0.921875 -0.296875 0.75 -0.5 0.75 -0.75 L 0.75 -0.78125 C 0.75 -1.140625 1 -1.34375 1.734375 -1.609375 Z M 1.734375 -0.734375 "/>
</symbol>
<symbol overflow="visible" id="glyph5-9">
<path style="stroke:none;" d="M 0.109375 -3.75 L 0.15625 -3.75 C 0.21875 -3.765625 0.296875 -3.765625 0.34375 -3.765625 C 0.53125 -3.765625 0.59375 -3.6875 0.59375 -3.40625 L 0.59375 -0.53125 C 0.59375 -0.203125 0.5 -0.125 0.125 -0.09375 L 0.125 0 L 1.546875 0 L 1.546875 -0.09375 C 1.171875 -0.109375 1.09375 -0.171875 1.09375 -0.5 L 1.09375 -4.109375 L 1.078125 -4.125 C 0.765625 -4.015625 0.53125 -3.953125 0.109375 -3.859375 Z M 0.109375 -3.75 "/>
</symbol>
<symbol overflow="visible" id="glyph6-0">
<path style="stroke:none;" d=""/>
</symbol>
<symbol overflow="visible" id="glyph6-1">
<path style="stroke:none;" d="M 3.78125 -4.46875 C 3.296875 -4.75 2.984375 -4.84375 2.578125 -4.84375 C 1.265625 -4.84375 0.25 -3.671875 0.25 -2.15625 C 0.25 -0.828125 0.9375 0.109375 1.9375 0.109375 C 2.546875 0.109375 3.125 -0.171875 3.578125 -0.671875 L 3.578125 1.296875 C 3.578125 1.890625 3.390625 2.046875 2.640625 2.09375 L 2.640625 2.28125 L 5.125 2.28125 L 5.125 2.125 C 4.546875 2 4.46875 1.921875 4.46875 1.484375 L 4.46875 -4.796875 L 4.34375 -4.796875 Z M 3.578125 -1.328125 C 3.578125 -1.078125 3.53125 -0.9375 3.4375 -0.859375 C 3.203125 -0.65625 2.859375 -0.53125 2.53125 -0.53125 C 2.203125 -0.53125 1.921875 -0.640625 1.71875 -0.84375 C 1.375 -1.15625 1.15625 -1.84375 1.15625 -2.53125 C 1.15625 -3.765625 1.71875 -4.546875 2.609375 -4.546875 C 3.25 -4.546875 3.578125 -4.203125 3.578125 -3.5 Z M 3.578125 -1.328125 "/>
</symbol>
<symbol overflow="visible" id="glyph6-2">
<path style="stroke:none;" d="M 3.09375 -7.09375 C 2.328125 -6.59375 2 -6.328125 1.609375 -5.84375 C 0.875 -4.921875 0.5 -3.875 0.5 -2.640625 C 0.5 -1.3125 0.890625 -0.28125 1.8125 0.78125 C 2.25 1.296875 2.515625 1.515625 3.0625 1.859375 L 3.1875 1.6875 C 2.359375 1.03125 2.0625 0.65625 1.78125 -0.125 C 1.515625 -0.828125 1.40625 -1.625 1.40625 -2.671875 C 1.40625 -3.78125 1.546875 -4.640625 1.828125 -5.296875 C 2.125 -5.9375 2.4375 -6.328125 3.1875 -6.9375 Z M 3.09375 -7.09375 "/>
</symbol>
<symbol overflow="visible" id="glyph6-3">
<path style="stroke:none;" d="M 2.671875 -4.71875 L 1.609375 -4.71875 L 1.609375 -5.9375 C 1.609375 -6.046875 1.609375 -6.078125 1.546875 -6.078125 C 1.46875 -5.984375 1.40625 -5.890625 1.328125 -5.78125 C 0.9375 -5.203125 0.484375 -4.703125 0.3125 -4.65625 C 0.203125 -4.59375 0.140625 -4.515625 0.140625 -4.46875 C 0.140625 -4.4375 0.140625 -4.40625 0.171875 -4.390625 L 0.734375 -4.390625 L 0.734375 -1.234375 C 0.734375 -0.34375 1.046875 0.109375 1.671875 0.109375 C 2.1875 0.109375 2.578125 -0.140625 2.921875 -0.6875 L 2.796875 -0.8125 C 2.578125 -0.546875 2.390625 -0.4375 2.15625 -0.4375 C 1.78125 -0.4375 1.609375 -0.71875 1.609375 -1.390625 L 1.609375 -4.390625 L 2.671875 -4.390625 Z M 2.671875 -4.71875 "/>
</symbol>
<symbol overflow="visible" id="glyph6-4">
<path style="stroke:none;" d="M 0.40625 1.859375 C 1.171875 1.359375 1.484375 1.078125 1.875 0.59375 C 2.625 -0.3125 3 -1.359375 3 -2.59375 C 3 -3.9375 2.609375 -4.953125 1.6875 -6.03125 C 1.25 -6.53125 0.96875 -6.765625 0.4375 -7.09375 L 0.296875 -6.9375 C 1.140625 -6.265625 1.421875 -5.90625 1.71875 -5.109375 C 1.96875 -4.40625 2.09375 -3.609375 2.09375 -2.5625 C 2.09375 -1.46875 1.953125 -0.59375 1.671875 0.046875 C 1.375 0.703125 1.0625 1.078125 0.296875 1.6875 Z M 0.40625 1.859375 "/>
</symbol>
<symbol overflow="visible" id="glyph6-5">
<path style="stroke:none;" d="M 5.609375 -4.046875 L 0.3125 -4.046875 L 0.3125 -3.359375 L 5.609375 -3.359375 Z M 5.609375 -1.953125 L 0.3125 -1.953125 L 0.3125 -1.265625 L 5.609375 -1.265625 Z M 5.609375 -1.953125 "/>
</symbol>
<symbol overflow="visible" id="glyph6-6">
<path style="stroke:none;" d="M 3.0625 -7.09375 L 1.171875 -6.140625 L 1.171875 -6 C 1.296875 -6.046875 1.40625 -6.09375 1.453125 -6.109375 C 1.640625 -6.1875 1.8125 -6.21875 1.921875 -6.21875 C 2.140625 -6.21875 2.234375 -6.0625 2.234375 -5.734375 L 2.234375 -0.96875 C 2.234375 -0.625 2.15625 -0.390625 1.984375 -0.296875 C 1.828125 -0.203125 1.6875 -0.171875 1.234375 -0.15625 L 1.234375 0 L 4.140625 0 L 4.140625 -0.15625 C 3.3125 -0.171875 3.140625 -0.265625 3.140625 -0.78125 L 3.140625 -7.078125 Z M 3.0625 -7.09375 "/>
</symbol>
<symbol overflow="visible" id="glyph6-7">
<path style="stroke:none;" d="M 2.671875 -7.09375 C 2.09375 -7.09375 1.65625 -6.921875 1.265625 -6.546875 C 0.65625 -5.96875 0.25 -4.75 0.25 -3.53125 C 0.25 -2.390625 0.59375 -1.15625 1.09375 -0.5625 C 1.484375 -0.109375 2.015625 0.140625 2.625 0.140625 C 3.15625 0.140625 3.609375 -0.03125 3.984375 -0.40625 C 4.59375 -0.96875 5 -2.1875 5 -3.46875 C 5 -5.625 4.046875 -7.09375 2.671875 -7.09375 Z M 2.640625 -6.828125 C 3.515625 -6.828125 3.984375 -5.640625 3.984375 -3.4375 C 3.984375 -1.25 3.53125 -0.125 2.625 -0.125 C 1.71875 -0.125 1.265625 -1.25 1.265625 -3.4375 C 1.265625 -5.65625 1.734375 -6.828125 2.640625 -6.828125 Z M 2.640625 -6.828125 "/>
</symbol>
<symbol overflow="visible" id="glyph7-0">
<path style="stroke:none;" d=""/>
</symbol>
<symbol overflow="visible" id="glyph7-1">
<path style="stroke:none;" d="M 1.734375 -7.328125 L 0.796875 -7.328125 L 0.796875 0 L 5.359375 0 L 5.359375 -0.828125 L 1.734375 -0.828125 Z M 1.734375 -7.328125 "/>
</symbol>
<symbol overflow="visible" id="glyph8-0">
<path style="stroke:none;" d=""/>
</symbol>
<symbol overflow="visible" id="glyph8-1">
<path style="stroke:none;" d="M 8.015625 -5.296875 L 0.75 -5.296875 L 0.75 -4.25 L 8.015625 -4.25 Z M 8.015625 -2.71875 L 0.75 -2.71875 L 0.75 -1.671875 L 8.015625 -1.671875 Z M 8.015625 -2.71875 "/>
</symbol>
<symbol overflow="visible" id="glyph8-2">
<path style="stroke:none;" d="M 3.890625 -7.578125 L 3.890625 0 L 5.203125 0 L 5.203125 -10.640625 L 4.328125 -10.640625 C 3.875 -9 3.5625 -8.78125 1.53125 -8.515625 L 1.53125 -7.578125 Z M 3.890625 -7.578125 "/>
</symbol>
</g>
</defs>
<g id="surface1">
<path style=" stroke:none;fill-rule:evenodd;fill:rgb(80.076599%,80.076599%,80.076599%);fill-opacity:1;" d="M 40 27.5 C 38.125 23.75 38.125 22.625 37 17 C 35.875 22.625 35.875 23.75 34 27.5 C 36.25 26.75 37.75 26.75 40 27.5 "/>
<path style=" stroke:none;fill-rule:evenodd;fill:rgb(80.076599%,80.076599%,80.076599%);fill-opacity:1;" d="M 230.5 131 C 234.25 129.125 235.375 129.125 241 128 C 235.375 126.875 234.25 126.875 230.5 125 C 231.25 127.25 231.25 128.75 230.5 131 "/>
<path style="fill:none;stroke-width:9.75;stroke-linecap:round;stroke-linejoin:bevel;stroke:rgb(80.076599%,80.076599%,80.076599%);stroke-opacity:1;stroke-miterlimit:6;" d="M 370 730 L 370 1270 " transform="matrix(0.1,0,0,-0.1,0,153)"/>
<path style="fill:none;stroke-width:9.75;stroke-linecap:round;stroke-linejoin:bevel;stroke:rgb(80.076599%,80.076599%,80.076599%);stroke-opacity:1;stroke-miterlimit:6;" d="M 2320 250 L 310 250 " transform="matrix(0.1,0,0,-0.1,0,153)"/>
<path style="fill:none;stroke-width:9.75;stroke-linecap:round;stroke-linejoin:bevel;stroke:rgb(80.076599%,80.076599%,80.076599%);stroke-opacity:1;stroke-miterlimit:6;" d="M 730 220 L 730 280 " transform="matrix(0.1,0,0,-0.1,0,153)"/>
<path style="fill:none;stroke-width:9.75;stroke-linecap:round;stroke-linejoin:bevel;stroke:rgb(80.076599%,80.076599%,80.076599%);stroke-opacity:1;stroke-miterlimit:6;" d="M 1330 220 L 1330 280 " transform="matrix(0.1,0,0,-0.1,0,153)"/>
<g style="fill:rgb(62.693787%,12.5%,94.139099%);fill-opacity:1;">
  <use xlink:href="#glyph0-1" x="39.5578" y="32"/>
</g>
<g style="fill:rgb(62.693787%,12.5%,94.139099%);fill-opacity:1;">
  <use xlink:href="#glyph1-1" x="42.05975" y="33.98984"/>
</g>
<g style="fill:rgb(62.693787%,12.5%,94.139099%);fill-opacity:1;">
  <use xlink:href="#glyph0-2" x="45.41248" y="32"/>
  <use xlink:href="#glyph0-3" x="48.40948" y="32"/>
  <use xlink:href="#glyph0-4" x="50.91148" y="32"/>
</g>
<path style="fill:none;stroke-width:9.75;stroke-linecap:round;stroke-linejoin:bevel;stroke:rgb(80.076599%,80.076599%,80.076599%);stroke-opacity:1;stroke-miterlimit:6;" d="M 2290 220 L 2290 280 " transform="matrix(0.1,0,0,-0.1,0,153)"/>
<g style="fill:rgb(80.076599%,80.076599%,80.076599%);fill-opacity:1;">
  <use xlink:href="#glyph2-1" x="240.845" y="128"/>
</g>
<g style="fill:rgb(0%,0%,0%);fill-opacity:1;">
  <use xlink:href="#glyph3-1" x="60.8563" y="135.5"/>
  <use xlink:href="#glyph3-2" x="67.3543" y="135.5"/>
</g>
<g style="fill:rgb(0%,0%,0%);fill-opacity:1;">
  <use xlink:href="#glyph3-2" x="126.84691" y="135.5"/>
</g>
<g style="fill:rgb(0%,0%,0%);fill-opacity:1;">
  <use xlink:href="#glyph3-2" x="159.8469" y="138.5"/>
  <use xlink:href="#glyph3-3" x="165.3459" y="138.5"/>
  <use xlink:href="#glyph3-1" x="170.4219" y="138.5"/>
  <use xlink:href="#glyph3-2" x="176.9199" y="138.5"/>
</g>
<g style="fill:rgb(0%,0%,0%);fill-opacity:1;">
  <use xlink:href="#glyph3-4" x="222.72972" y="138.5"/>
  <use xlink:href="#glyph3-2" x="227.22972" y="138.5"/>
</g>
<g style="fill:rgb(62.693787%,12.5%,94.139099%);fill-opacity:1;">
  <use xlink:href="#glyph4-1" x="9.94531" y="59"/>
</g>
<g style="fill:rgb(62.693787%,12.5%,94.139099%);fill-opacity:1;">
  <use xlink:href="#glyph3-5" x="15.45312" y="59"/>
</g>
<g style="fill:rgb(62.693787%,12.5%,94.139099%);fill-opacity:1;">
  <use xlink:href="#glyph5-1" x="17.95507" y="60.98984"/>
</g>
<path style="fill:none;stroke-width:9.75;stroke-linecap:round;stroke-linejoin:bevel;stroke:rgb(80.076599%,80.076599%,80.076599%);stroke-opacity:1;stroke-miterlimit:6;" d="M 400 1150 L 340 1150 " transform="matrix(0.1,0,0,-0.1,0,153)"/>
<path style="fill:none;stroke-width:9.75;stroke-linecap:round;stroke-linejoin:bevel;stroke:rgb(80.076599%,80.076599%,80.076599%);stroke-opacity:1;stroke-miterlimit:6;" d="M 400 250 L 340 250 " transform="matrix(0.1,0,0,-0.1,0,153)"/>
<g style="fill:rgb(80.076599%,80.076599%,80.076599%);fill-opacity:1;">
  <use xlink:href="#glyph6-1" x="36.7469" y="143"/>
  <use xlink:href="#glyph6-2" x="41.9969" y="143"/>
  <use xlink:href="#glyph6-3" x="45.4934" y="143"/>
  <use xlink:href="#glyph6-4" x="48.4124" y="143"/>
  <use xlink:href="#glyph6-5" x="51.9089" y="143"/>
  <use xlink:href="#glyph6-6" x="57.8309" y="143"/>
</g>
<g style="fill:rgb(80.076599%,80.076599%,80.076599%);fill-opacity:1;">
  <use xlink:href="#glyph6-1" x="81.746855" y="143"/>
  <use xlink:href="#glyph6-2" x="86.996855" y="143"/>
  <use xlink:href="#glyph6-3" x="90.493355" y="143"/>
  <use xlink:href="#glyph6-4" x="93.412355" y="143"/>
  <use xlink:href="#glyph6-5" x="96.908855" y="143"/>
  <use xlink:href="#glyph6-7" x="102.830855" y="143"/>
</g>
<path style="fill:none;stroke-width:9.75;stroke-linecap:round;stroke-linejoin:bevel;stroke:rgb(80.076599%,80.076599%,80.076599%);stroke-opacity:1;stroke-dasharray:1.875,39;stroke-miterlimit:6;" d="M 670 70 L 670 190 " transform="matrix(0.1,0,0,-0.1,0,153)"/>
<path style="fill:none;stroke-width:9.75;stroke-linecap:round;stroke-linejoin:bevel;stroke:rgb(80.076599%,80.076599%,80.076599%);stroke-opacity:1;stroke-dasharray:1.875,39;stroke-miterlimit:6;" d="M 1270 40 L 1270 160 " transform="matrix(0.1,0,0,-0.1,0,153)"/>
<path style="fill:none;stroke-width:9.75;stroke-linecap:round;stroke-linejoin:bevel;stroke:rgb(80.076599%,80.076599%,80.076599%);stroke-opacity:1;stroke-dasharray:1.875,39;stroke-miterlimit:6;" d="M 1630 70 L 1630 190 " transform="matrix(0.1,0,0,-0.1,0,153)"/>
<g style="fill:rgb(80.076599%,80.076599%,80.076599%);fill-opacity:1;">
  <use xlink:href="#glyph6-1" x="132.747" y="143"/>
  <use xlink:href="#glyph6-2" x="137.997" y="143"/>
  <use xlink:href="#glyph6-3" x="141.4935" y="143"/>
  <use xlink:href="#glyph6-4" x="144.4125" y="143"/>
  <use xlink:href="#glyph6-5" x="147.909" y="143"/>
  <use xlink:href="#glyph6-6" x="153.831" y="143"/>
</g>
<g style="fill:rgb(80.076599%,80.076599%,80.076599%);fill-opacity:1;">
  <use xlink:href="#glyph6-1" x="180.747015" y="143"/>
  <use xlink:href="#glyph6-2" x="185.997015" y="143"/>
  <use xlink:href="#glyph6-3" x="189.493515" y="143"/>
  <use xlink:href="#glyph6-4" x="192.412515" y="143"/>
  <use xlink:href="#glyph6-5" x="195.909015" y="143"/>
  <use xlink:href="#glyph6-7" x="201.831015" y="143"/>
</g>
<path style="fill:none;stroke-width:29.25;stroke-linecap:round;stroke-linejoin:bevel;stroke:rgb(62.693787%,12.5%,94.139099%);stroke-opacity:1;stroke-miterlimit:6;" d="M 730 1150 L 370 790 " transform="matrix(0.1,0,0,-0.1,0,153)"/>
<path style="fill:none;stroke-width:9.75;stroke-linecap:round;stroke-linejoin:bevel;stroke:rgb(80.076599%,80.076599%,80.076599%);stroke-opacity:1;stroke-miterlimit:6;" d="M 370 190 L 370 640 " transform="matrix(0.1,0,0,-0.1,0,153)"/>
<path style="fill:none;stroke-width:9.75;stroke-linecap:round;stroke-linejoin:bevel;stroke:rgb(80.076599%,80.076599%,80.076599%);stroke-opacity:1;stroke-dasharray:1.875,39;stroke-miterlimit:6;" d="M 370 550 L 370 730 " transform="matrix(0.1,0,0,-0.1,0,153)"/>
<path style="fill:none;stroke-width:29.25;stroke-linecap:round;stroke-linejoin:bevel;stroke:rgb(62.693787%,12.5%,94.139099%);stroke-opacity:1;stroke-miterlimit:6;" d="M 1330 790 L 730 1150 " transform="matrix(0.1,0,0,-0.1,0,153)"/>
<path style="fill:none;stroke-width:29.25;stroke-linecap:round;stroke-linejoin:bevel;stroke:rgb(62.693787%,12.5%,94.139099%);stroke-opacity:1;stroke-miterlimit:6;" d="M 1690 1150 L 1330 790 " transform="matrix(0.1,0,0,-0.1,0,153)"/>
<path style="fill:none;stroke-width:29.25;stroke-linecap:round;stroke-linejoin:bevel;stroke:rgb(62.693787%,12.5%,94.139099%);stroke-opacity:1;stroke-miterlimit:6;" d="M 2290 790 L 1690 1150 " transform="matrix(0.1,0,0,-0.1,0,153)"/>
<path style="fill:none;stroke-width:9.75;stroke-linecap:round;stroke-linejoin:bevel;stroke:rgb(62.693787%,12.5%,94.139099%);stroke-opacity:1;stroke-dasharray:39,39;stroke-miterlimit:6;" d="M 2290 970 L 370 970 " transform="matrix(0.1,0,0,-0.1,0,153)"/>
<g style="fill:rgb(62.693787%,12.5%,94.139099%);fill-opacity:1;">
  <use xlink:href="#glyph3-6" x="228.838" y="59"/>
</g>
<g style="fill:rgb(62.693787%,12.5%,94.139099%);fill-opacity:1;">
  <use xlink:href="#glyph5-1" x="231.83488" y="60.98984"/>
</g>
<path style=" stroke:none;fill-rule:evenodd;fill:rgb(62.693787%,12.5%,94.139099%);fill-opacity:1;" d="M 28 44 L 25 38 L 22 44 "/>
<path style="fill:none;stroke-width:9.75;stroke-linecap:round;stroke-linejoin:bevel;stroke:rgb(62.693787%,12.5%,94.139099%);stroke-opacity:1;stroke-miterlimit:6;" d="M 280 1090 L 250 1150 L 220 1090 Z M 280 1090 " transform="matrix(0.1,0,0,-0.1,0,153)"/>
<path style=" stroke:none;fill-rule:evenodd;fill:rgb(62.693787%,12.5%,94.139099%);fill-opacity:1;" d="M 22 68 L 25 74 L 28 68 "/>
<path style="fill:none;stroke-width:9.75;stroke-linecap:round;stroke-linejoin:bevel;stroke:rgb(62.693787%,12.5%,94.139099%);stroke-opacity:1;stroke-miterlimit:6;" d="M 220 850 L 250 790 L 280 850 Z M 220 850 " transform="matrix(0.1,0,0,-0.1,0,153)"/>
<path style="fill:none;stroke-width:9.75;stroke-linecap:round;stroke-linejoin:bevel;stroke:rgb(62.693787%,12.5%,94.139099%);stroke-opacity:1;stroke-miterlimit:6;" d="M 250 820 L 250 1090 " transform="matrix(0.1,0,0,-0.1,0,153)"/>
<path style="fill:none;stroke-width:9.75;stroke-linecap:round;stroke-linejoin:bevel;stroke:rgb(80.076599%,80.076599%,80.076599%);stroke-opacity:1;stroke-dasharray:1.875,39;stroke-miterlimit:6;" d="M 730 250 L 730 970 " transform="matrix(0.1,0,0,-0.1,0,153)"/>
<g style="fill:rgb(62.693787%,12.5%,94.139099%);fill-opacity:1;">
  <use xlink:href="#glyph3-7" x="74.3563" y="9.5"/>
</g>
<g style="fill:rgb(62.693787%,12.5%,94.139099%);fill-opacity:1;">
  <use xlink:href="#glyph5-2" x="80.85435" y="11.48984"/>
</g>
<path style="fill:none;stroke-width:9.75;stroke-linecap:round;stroke-linejoin:bevel;stroke:rgb(62.693787%,12.5%,94.139099%);stroke-opacity:1;stroke-miterlimit:6;" d="M 895 1390 L 685 1390 " transform="matrix(0.1,0,0,-0.1,0,153)"/>
<g style="fill:rgb(62.693787%,12.5%,94.139099%);fill-opacity:1;">
  <use xlink:href="#glyph3-8" x="74.3922" y="24.5"/>
</g>
<g style="fill:rgb(62.693787%,12.5%,94.139099%);fill-opacity:1;">
  <use xlink:href="#glyph3-9" x="41.1219" y="14"/>
  <use xlink:href="#glyph3-10" x="46.1259" y="14"/>
  <use xlink:href="#glyph3-11" x="48.6279" y="14"/>
  <use xlink:href="#glyph3-12" x="53.1279" y="14"/>
  <use xlink:href="#glyph3-13" x="57.6279" y="14"/>
  <use xlink:href="#glyph3-14" x="61.6239" y="14"/>
</g>
<path style=" stroke:none;fill-rule:evenodd;fill:rgb(62.693787%,12.5%,94.139099%);fill-opacity:1;" d="M 56.5 36.5 C 58.375 40.25 58.375 41.375 59.5 47 C 60.625 41.375 60.625 40.25 62.5 36.5 C 60.25 37.25 58.75 37.25 56.5 36.5 "/>
<path style="fill:none;stroke-width:9.75;stroke-linecap:round;stroke-linejoin:bevel;stroke:rgb(62.693787%,12.5%,94.139099%);stroke-opacity:1;stroke-miterlimit:6;" d="M 595 1135 C 505 1330 640 1180 610 1345 " transform="matrix(0.1,0,0,-0.1,0,153)"/>
<g style="fill:rgb(62.693787%,12.5%,94.139099%);fill-opacity:1;">
  <use xlink:href="#glyph3-15" x="111.106" y="24.5"/>
  <use xlink:href="#glyph3-7" x="113.356" y="24.5"/>
</g>
<g style="fill:rgb(62.693787%,12.5%,94.139099%);fill-opacity:1;">
  <use xlink:href="#glyph5-2" x="119.85405" y="26.48984"/>
</g>
<g style="fill:rgb(62.693787%,12.5%,94.139099%);fill-opacity:1;">
  <use xlink:href="#glyph3-16" x="121.53022" y="24.5"/>
  <use xlink:href="#glyph3-7" x="124.52722" y="24.5"/>
</g>
<g style="fill:rgb(62.693787%,12.5%,94.139099%);fill-opacity:1;">
  <use xlink:href="#glyph5-3" x="131.02514" y="26.48984"/>
</g>
<path style="fill:none;stroke-width:9.75;stroke-linecap:round;stroke-linejoin:bevel;stroke:rgb(62.693787%,12.5%,94.139099%);stroke-opacity:1;stroke-miterlimit:6;" d="M 1375 1240 L 1165 1240 " transform="matrix(0.1,0,0,-0.1,0,153)"/>
<g style="fill:rgb(62.693787%,12.5%,94.139099%);fill-opacity:1;">
  <use xlink:href="#glyph3-8" x="122.392" y="39.5"/>
</g>
<g style="fill:rgb(62.693787%,12.5%,94.139099%);fill-opacity:1;">
  <use xlink:href="#glyph3-9" x="89.1217" y="29"/>
  <use xlink:href="#glyph3-10" x="94.1257" y="29"/>
  <use xlink:href="#glyph3-11" x="96.6277" y="29"/>
  <use xlink:href="#glyph3-12" x="101.1277" y="29"/>
  <use xlink:href="#glyph3-13" x="105.6277" y="29"/>
  <use xlink:href="#glyph3-14" x="109.6237" y="29"/>
</g>
<path style="fill:none;stroke-width:9.75;stroke-linecap:round;stroke-linejoin:bevel;stroke:rgb(62.693787%,12.5%,94.139099%);stroke-opacity:1;stroke-miterlimit:6;" d="M 1420 1240 C 1405 1120 1300 1105 1105 1045 " transform="matrix(0.1,0,0,-0.1,0,153)"/>
<path style=" stroke:none;fill-rule:evenodd;fill:rgb(62.693787%,12.5%,94.139099%);fill-opacity:1;" d="M 109.804688 44.953125 C 108.476562 48.933594 107.683594 49.726562 104.5 54.5 C 109.273438 51.316406 110.066406 50.523438 114.046875 49.195312 C 111.925781 48.136719 110.863281 47.074219 109.804688 44.953125 "/>
<path style="fill:none;stroke-width:9.75;stroke-linecap:round;stroke-linejoin:bevel;stroke:rgb(80.076599%,80.076599%,80.076599%);stroke-opacity:1;stroke-dasharray:1.875,39;stroke-miterlimit:6;" d="M 1330 265 L 1330 985 " transform="matrix(0.1,0,0,-0.1,0,153)"/>
<path style="fill:none;stroke-width:29.25;stroke-linecap:round;stroke-linejoin:bevel;stroke:rgb(62.693787%,12.5%,94.139099%);stroke-opacity:1;stroke-miterlimit:6;" d="M 730 610 L 370 250 " transform="matrix(0.1,0,0,-0.1,0,153)"/>
<path style="fill:none;stroke-width:29.25;stroke-linecap:round;stroke-linejoin:bevel;stroke:rgb(62.693787%,12.5%,94.139099%);stroke-opacity:1;stroke-miterlimit:6;" d="M 1330 250 L 730 610 " transform="matrix(0.1,0,0,-0.1,0,153)"/>
<path style="fill:none;stroke-width:29.25;stroke-linecap:round;stroke-linejoin:bevel;stroke:rgb(62.693787%,12.5%,94.139099%);stroke-opacity:1;stroke-miterlimit:6;" d="M 1690 610 L 1330 250 " transform="matrix(0.1,0,0,-0.1,0,153)"/>
<path style="fill:none;stroke-width:29.25;stroke-linecap:round;stroke-linejoin:bevel;stroke:rgb(62.693787%,12.5%,94.139099%);stroke-opacity:1;stroke-miterlimit:6;" d="M 2290 250 L 1690 610 " transform="matrix(0.1,0,0,-0.1,0,153)"/>
<path style="fill:none;stroke-width:9.75;stroke-linecap:round;stroke-linejoin:bevel;stroke:rgb(62.693787%,12.5%,94.139099%);stroke-opacity:1;stroke-dasharray:39,39;stroke-miterlimit:6;" d="M 2290 430 L 370 430 " transform="matrix(0.1,0,0,-0.1,0,153)"/>
<g style="fill:rgb(62.693787%,12.5%,94.139099%);fill-opacity:1;">
  <use xlink:href="#glyph3-6" x="228.838" y="110"/>
</g>
<g style="fill:rgb(62.693787%,12.5%,94.139099%);fill-opacity:1;">
  <use xlink:href="#glyph5-1" x="231.83488" y="111.98984"/>
  <use xlink:href="#glyph5-4" x="235.51921" y="111.98984"/>
  <use xlink:href="#glyph5-5" x="237.02671" y="111.98984"/>
  <use xlink:href="#glyph5-6" x="239.70403" y="111.98984"/>
  <use xlink:href="#glyph5-2" x="241.71202" y="111.98984"/>
  <use xlink:href="#glyph5-7" x="243.38836" y="111.98984"/>
  <use xlink:href="#glyph5-2" x="245.0647" y="111.98984"/>
  <use xlink:href="#glyph5-5" x="246.74104" y="111.98984"/>
  <use xlink:href="#glyph5-8" x="249.41836" y="111.98984"/>
  <use xlink:href="#glyph5-9" x="252.09568" y="111.98984"/>
</g>
<path style="fill:none;stroke-width:9.75;stroke-linecap:round;stroke-linejoin:bevel;stroke:rgb(39.988708%,39.988708%,39.988708%);stroke-opacity:1;stroke-miterlimit:6;" d="M 2020 460 L 2020 940 " transform="matrix(0.1,0,0,-0.1,0,153)"/>
<path style=" stroke:none;fill-rule:evenodd;fill:rgb(39.988708%,39.988708%,39.988708%);fill-opacity:1;" d="M 199 104 L 202 110 L 205 104 "/>
<path style="fill:none;stroke-width:9.75;stroke-linecap:round;stroke-linejoin:bevel;stroke:rgb(39.988708%,39.988708%,39.988708%);stroke-opacity:1;stroke-miterlimit:6;" d="M 1990 490 L 2020 430 L 2050 490 Z M 1990 490 " transform="matrix(0.1,0,0,-0.1,0,153)"/>
<path style="fill:none;stroke-width:9.75;stroke-linecap:round;stroke-linejoin:bevel;stroke:rgb(39.988708%,39.988708%,39.988708%);stroke-opacity:1;stroke-miterlimit:6;" d="M 1330 310 L 1330 790 " transform="matrix(0.1,0,0,-0.1,0,153)"/>
<path style=" stroke:none;fill-rule:evenodd;fill:rgb(39.988708%,39.988708%,39.988708%);fill-opacity:1;" d="M 130 119 L 133 125 L 136 119 "/>
<path style="fill:none;stroke-width:9.75;stroke-linecap:round;stroke-linejoin:bevel;stroke:rgb(39.988708%,39.988708%,39.988708%);stroke-opacity:1;stroke-miterlimit:6;" d="M 1300 340 L 1330 280 L 1360 340 Z M 1300 340 " transform="matrix(0.1,0,0,-0.1,0,153)"/>
<path style="fill:none;stroke-width:9.75;stroke-linecap:round;stroke-linejoin:bevel;stroke:rgb(39.988708%,39.988708%,39.988708%);stroke-opacity:1;stroke-miterlimit:6;" d="M 730 640 L 730 1090 " transform="matrix(0.1,0,0,-0.1,0,153)"/>
<path style=" stroke:none;fill-rule:evenodd;fill:rgb(39.988708%,39.988708%,39.988708%);fill-opacity:1;" d="M 70 86 L 73 92 L 76 86 "/>
<path style="fill:none;stroke-width:9.75;stroke-linecap:round;stroke-linejoin:bevel;stroke:rgb(39.988708%,39.988708%,39.988708%);stroke-opacity:1;stroke-miterlimit:6;" d="M 700 670 L 730 610 L 760 670 Z M 700 670 " transform="matrix(0.1,0,0,-0.1,0,153)"/>
<path style="fill:none;stroke-width:9.75;stroke-linecap:round;stroke-linejoin:bevel;stroke:rgb(39.988708%,39.988708%,39.988708%);stroke-opacity:1;stroke-miterlimit:6;" d="M 1690 670 L 1690 1120 " transform="matrix(0.1,0,0,-0.1,0,153)"/>
<path style=" stroke:none;fill-rule:evenodd;fill:rgb(39.988708%,39.988708%,39.988708%);fill-opacity:1;" d="M 166 86 L 169 92 L 172 86 "/>
<path style="fill:none;stroke-width:9.75;stroke-linecap:round;stroke-linejoin:bevel;stroke:rgb(39.988708%,39.988708%,39.988708%);stroke-opacity:1;stroke-miterlimit:6;" d="M 1660 670 L 1690 610 L 1720 670 Z M 1660 670 " transform="matrix(0.1,0,0,-0.1,0,153)"/>
<g style="fill:rgb(39.988708%,39.988708%,39.988708%);fill-opacity:1;">
  <use xlink:href="#glyph3-15" x="168.097" y="77"/>
  <use xlink:href="#glyph3-17" x="170.347" y="77"/>
</g>
<path style="fill:none;stroke-width:9.75;stroke-linecap:round;stroke-linejoin:bevel;stroke:rgb(39.988708%,39.988708%,39.988708%);stroke-opacity:1;stroke-miterlimit:6;" d="M 1840 730 L 1840 820 " transform="matrix(0.1,0,0,-0.1,0,153)"/>
<path style=" stroke:none;fill-rule:evenodd;fill:rgb(39.988708%,39.988708%,39.988708%);fill-opacity:1;" d="M 187 71 L 184 65 L 181 71 "/>
<path style="fill:none;stroke-width:9.75;stroke-linecap:round;stroke-linejoin:bevel;stroke:rgb(39.988708%,39.988708%,39.988708%);stroke-opacity:1;stroke-miterlimit:6;" d="M 1870 820 L 1840 880 L 1810 820 Z M 1870 820 " transform="matrix(0.1,0,0,-0.1,0,153)"/>
<path style=" stroke:none;fill-rule:evenodd;fill:rgb(62.693787%,12.5%,94.139099%);fill-opacity:1;" d="M 220.09375 100.652344 C 217.78125 104.152344 216.808594 104.714844 212.5 108.5 C 217.933594 106.660156 218.90625 106.097656 223.09375 105.847656 C 221.320312 104.273438 220.570312 102.976562 220.09375 100.652344 "/>
<path style="fill:none;stroke-width:9.75;stroke-linecap:round;stroke-linejoin:bevel;stroke:rgb(62.693787%,12.5%,94.139099%);stroke-opacity:1;stroke-miterlimit:6;" d="M 2410 610 C 2260 610 2410 550 2200 490 " transform="matrix(0.1,0,0,-0.1,0,153)"/>
<path style="fill:none;stroke-width:9.75;stroke-linecap:round;stroke-linejoin:bevel;stroke:rgb(80.076599%,80.076599%,80.076599%);stroke-opacity:1;stroke-dasharray:39,39;stroke-miterlimit:6;" d="M 2290 610 L 370 610 " transform="matrix(0.1,0,0,-0.1,0,153)"/>
<path style="fill:none;stroke-width:9.75;stroke-linecap:round;stroke-linejoin:bevel;stroke:rgb(80.076599%,80.076599%,80.076599%);stroke-opacity:1;stroke-miterlimit:6;" d="M 400 430 L 340 430 " transform="matrix(0.1,0,0,-0.1,0,153)"/>
<g style="fill:rgb(62.693787%,12.5%,94.139099%);fill-opacity:1;">
  <use xlink:href="#glyph3-4" x="3.72969" y="92"/>
  <use xlink:href="#glyph3-6" x="8.22969" y="92"/>
</g>
<g style="fill:rgb(62.693787%,12.5%,94.139099%);fill-opacity:1;">
  <use xlink:href="#glyph5-1" x="11.22657" y="93.98984"/>
  <use xlink:href="#glyph5-4" x="14.9109" y="93.98984"/>
  <use xlink:href="#glyph5-5" x="16.4184" y="93.98984"/>
  <use xlink:href="#glyph5-6" x="19.09572" y="93.98984"/>
  <use xlink:href="#glyph5-2" x="21.10371" y="93.98984"/>
  <use xlink:href="#glyph5-7" x="22.78005" y="93.98984"/>
  <use xlink:href="#glyph5-2" x="24.45639" y="93.98984"/>
  <use xlink:href="#glyph5-5" x="26.13273" y="93.98984"/>
  <use xlink:href="#glyph5-8" x="28.81005" y="93.98984"/>
  <use xlink:href="#glyph5-9" x="31.48737" y="93.98984"/>
</g>
<path style="fill:none;stroke-width:9.75;stroke-linecap:round;stroke-linejoin:bevel;stroke:rgb(80.076599%,80.076599%,80.076599%);stroke-opacity:1;stroke-miterlimit:6;" d="M 400 610 L 340 610 " transform="matrix(0.1,0,0,-0.1,0,153)"/>
<path style="fill:none;stroke-width:9.75;stroke-linecap:round;stroke-linejoin:bevel;stroke:rgb(62.693787%,12.5%,94.139099%);stroke-opacity:1;stroke-miterlimit:6;" d="M 2440 670 C 2560 550 2380 520 2470 670 " transform="matrix(0.1,0,0,-0.1,0,153)"/>
<path style="fill:none;stroke-width:9.75;stroke-linecap:round;stroke-linejoin:bevel;stroke:rgb(62.693787%,12.5%,94.139099%);stroke-opacity:1;stroke-miterlimit:6;" d="M 2470 670 C 2560 670 2410 580 2560 580 " transform="matrix(0.1,0,0,-0.1,0,153)"/>
<g style="fill:rgb(62.693787%,12.5%,94.139099%);fill-opacity:1;">
  <use xlink:href="#glyph7-1" x="258.194" y="98.3164"/>
</g>
<g style="fill:rgb(62.693787%,12.5%,94.139099%);fill-opacity:1;">
  <use xlink:href="#glyph8-1" x="263.78189" y="94.99999"/>
  <use xlink:href="#glyph8-2" x="272.54189" y="94.99999"/>
</g>
</g>
</svg>
