<?xml version="1.0" encoding="UTF-8"?>
<svg xmlns="http://www.w3.org/2000/svg" xmlns:xlink="http://www.w3.org/1999/xlink" width="378pt" height="116pt" viewBox="0 0 378 116" version="1.1">
<defs>
<g>
<symbol overflow="visible" id="glyph0-0">
<path style="stroke:none;" d=""/>
</symbol>
<symbol overflow="visible" id="glyph0-1">
<path style="stroke:none;" d="M 4.3125 -5.09375 C 3.765625 -5.421875 3.40625 -5.53125 2.9375 -5.53125 C 1.4375 -5.53125 0.28125 -4.1875 0.28125 -2.453125 C 0.28125 -0.953125 1.078125 0.125 2.203125 0.125 C 2.90625 0.125 3.5625 -0.1875 4.09375 -0.765625 L 4.09375 1.484375 C 4.09375 2.15625 3.875 2.34375 3.03125 2.40625 L 3.03125 2.609375 L 5.859375 2.609375 L 5.859375 2.4375 C 5.203125 2.296875 5.09375 2.203125 5.09375 1.6875 L 5.09375 -5.484375 L 4.96875 -5.484375 Z M 4.09375 -1.53125 C 4.09375 -1.234375 4.046875 -1.078125 3.921875 -0.984375 C 3.65625 -0.75 3.265625 -0.609375 2.890625 -0.609375 C 2.515625 -0.609375 2.203125 -0.734375 1.953125 -0.96875 C 1.578125 -1.3125 1.3125 -2.09375 1.3125 -2.890625 C 1.3125 -4.3125 1.953125 -5.203125 2.96875 -5.203125 C 3.71875 -5.203125 4.09375 -4.796875 4.09375 -4 Z M 4.09375 -1.53125 "/>
</symbol>
<symbol overflow="visible" id="glyph0-2">
<path style="stroke:none;" d="M 3.546875 -8.109375 C 2.65625 -7.53125 2.296875 -7.21875 1.84375 -6.671875 C 1 -5.625 0.578125 -4.421875 0.578125 -3.03125 C 0.578125 -1.5 1.015625 -0.328125 2.078125 0.90625 C 2.5625 1.46875 2.875 1.734375 3.5 2.125 L 3.640625 1.9375 C 2.6875 1.171875 2.359375 0.75 2.03125 -0.140625 C 1.734375 -0.953125 1.609375 -1.859375 1.609375 -3.0625 C 1.609375 -4.3125 1.765625 -5.296875 2.09375 -6.046875 C 2.421875 -6.796875 2.78125 -7.21875 3.640625 -7.921875 Z M 3.546875 -8.109375 "/>
</symbol>
<symbol overflow="visible" id="glyph0-3">
<path style="stroke:none;" d="M 3.0625 -5.40625 L 1.84375 -5.40625 L 1.84375 -6.796875 C 1.84375 -6.90625 1.84375 -6.953125 1.765625 -6.953125 C 1.6875 -6.84375 1.609375 -6.734375 1.53125 -6.609375 C 1.0625 -5.953125 0.546875 -5.375 0.359375 -5.328125 C 0.234375 -5.25 0.15625 -5.15625 0.15625 -5.09375 C 0.15625 -5.0625 0.171875 -5.046875 0.203125 -5.015625 L 0.84375 -5.015625 L 0.84375 -1.40625 C 0.84375 -0.390625 1.203125 0.125 1.90625 0.125 C 2.5 0.125 2.953125 -0.171875 3.34375 -0.796875 L 3.1875 -0.921875 C 2.9375 -0.625 2.734375 -0.5 2.46875 -0.5 C 2.03125 -0.5 1.84375 -0.828125 1.84375 -1.578125 L 1.84375 -5.015625 L 3.0625 -5.015625 Z M 3.0625 -5.40625 "/>
</symbol>
<symbol overflow="visible" id="glyph0-4">
<path style="stroke:none;" d="M 0.453125 2.125 C 1.34375 1.546875 1.703125 1.234375 2.140625 0.6875 C 3 -0.359375 3.421875 -1.5625 3.421875 -2.96875 C 3.421875 -4.5 2.96875 -5.65625 1.921875 -6.890625 C 1.421875 -7.46875 1.109375 -7.734375 0.484375 -8.109375 L 0.34375 -7.921875 C 1.3125 -7.15625 1.625 -6.75 1.96875 -5.84375 C 2.25 -5.046875 2.390625 -4.125 2.390625 -2.921875 C 2.390625 -1.6875 2.234375 -0.6875 1.90625 0.046875 C 1.578125 0.796875 1.21875 1.234375 0.34375 1.9375 Z M 0.453125 2.125 "/>
</symbol>
<symbol overflow="visible" id="glyph1-0">
<path style="stroke:none;" d=""/>
</symbol>
<symbol overflow="visible" id="glyph1-1">
<path style="stroke:none;" d="M 0.25 -4.84375 C 0.390625 -4.84375 0.484375 -4.84375 0.609375 -4.84375 C 1.078125 -4.84375 1.203125 -4.640625 1.375 -3.546875 C 1.484375 -2.71875 1.625 -0.90625 1.625 -0.203125 C 1.625 0.125 1.65625 0.21875 1.734375 0.21875 C 2.046875 0.21875 3.15625 -1.0625 4.375 -2.765625 C 4.796875 -3.359375 5.109375 -4.140625 5.109375 -4.578125 C 5.109375 -4.96875 4.796875 -5.296875 4.4375 -5.296875 C 4.171875 -5.296875 4 -5.140625 4 -4.890625 C 4 -4.6875 4.0625 -4.546875 4.28125 -4.359375 C 4.4375 -4.21875 4.5 -4.109375 4.5 -4 C 4.5 -3.4375 3.703125 -2.109375 2.859375 -1.21875 L 2.484375 -0.84375 C 2.40625 -2.53125 2.328125 -3.15625 2.171875 -4.046875 C 1.9375 -5.265625 1.9375 -5.296875 1.828125 -5.296875 C 1.765625 -5.296875 1.6875 -5.28125 1.578125 -5.25 C 1.375 -5.1875 0.703125 -5.0625 0.25 -4.984375 Z M 0.25 -4.84375 "/>
</symbol>
<symbol overflow="visible" id="glyph1-2">
<path style="stroke:none;" d="M 1.90625 2.09375 C 1.46875 0.890625 1.328125 0.125 1.328125 -1.015625 C 1.328125 -2.453125 1.6875 -4.1875 2.234375 -5.515625 C 2.609375 -6.46875 3 -7.03125 3.78125 -7.84375 L 3.625 -8.03125 C 2.0625 -6.609375 1.453125 -5.8125 0.953125 -4.578125 C 0.640625 -3.8125 0.5 -3.078125 0.5 -2.15625 C 0.5 -1.234375 0.640625 -0.34375 0.90625 0.484375 C 1.078125 1.015625 1.265625 1.375 1.6875 2.171875 Z M 1.90625 2.09375 "/>
</symbol>
<symbol overflow="visible" id="glyph1-3">
<path style="stroke:none;" d="M 3.546875 -5.140625 L 2.59375 -5.140625 L 2.921875 -6.375 C 2.9375 -6.390625 2.9375 -6.421875 2.9375 -6.4375 C 2.9375 -6.515625 2.90625 -6.546875 2.84375 -6.546875 C 2.765625 -6.546875 2.734375 -6.546875 2.65625 -6.4375 C 2.203125 -5.828125 1.453125 -5.234375 1.0625 -5.125 C 0.765625 -5.03125 0.6875 -4.953125 0.6875 -4.828125 C 0.6875 -4.8125 0.6875 -4.78125 0.703125 -4.75 L 1.578125 -4.75 L 0.71875 -1.453125 C 0.703125 -1.34375 0.6875 -1.3125 0.640625 -1.203125 C 0.546875 -0.84375 0.4375 -0.421875 0.4375 -0.328125 C 0.4375 -0.0625 0.703125 0.125 1.015625 0.125 C 1.578125 0.125 1.96875 -0.203125 2.71875 -1.3125 L 2.5625 -1.40625 C 1.984375 -0.640625 1.78125 -0.453125 1.59375 -0.453125 C 1.484375 -0.453125 1.421875 -0.546875 1.421875 -0.703125 C 1.421875 -0.703125 1.421875 -0.71875 1.421875 -0.75 L 2.484375 -4.75 L 3.484375 -4.75 Z M 3.546875 -5.140625 "/>
</symbol>
<symbol overflow="visible" id="glyph1-4">
<path style="stroke:none;" d="M 0.34375 2.15625 C 1.84375 0.859375 2.453125 0.09375 2.984375 -1.21875 C 3.328125 -2 3.46875 -2.765625 3.46875 -3.640625 C 3.46875 -4.328125 3.375 -5.09375 3.203125 -5.8125 C 3 -6.640625 2.8125 -7.0625 2.28125 -8.03125 L 2.046875 -7.96875 C 2.453125 -7 2.640625 -6.03125 2.640625 -4.828125 C 2.640625 -3.296875 2.234375 -1.359375 1.625 -0.078125 C 1.28125 0.703125 0.921875 1.21875 0.1875 1.984375 Z M 0.34375 2.15625 "/>
</symbol>
<symbol overflow="visible" id="glyph1-5">
<path style="stroke:none;" d="M 2.65625 -1.375 C 2.375 -0.984375 2.296875 -0.890625 2.171875 -0.75 C 1.96875 -0.546875 1.78125 -0.4375 1.6875 -0.4375 C 1.578125 -0.4375 1.484375 -0.53125 1.484375 -0.609375 C 1.484375 -0.734375 1.53125 -0.90625 1.609375 -1.140625 C 1.609375 -1.171875 1.640625 -1.265625 1.671875 -1.359375 L 1.671875 -1.375 L 1.6875 -1.40625 L 2.734375 -5.265625 L 2.703125 -5.296875 C 1.484375 -5.0625 1.25 -5.03125 0.78125 -4.984375 L 0.78125 -4.796875 C 1.421875 -4.78125 1.53125 -4.75 1.53125 -4.515625 C 1.53125 -4.421875 1.5 -4.21875 1.421875 -3.984375 L 0.859375 -1.859375 C 0.65625 -1.15625 0.59375 -0.796875 0.59375 -0.546875 C 0.59375 -0.109375 0.78125 0.125 1.140625 0.125 C 1.6875 0.125 2.140625 -0.234375 2.8125 -1.234375 Z M 2.5625 -7.84375 C 2.25 -7.84375 2 -7.578125 2 -7.21875 C 2 -6.828125 2.234375 -6.578125 2.578125 -6.578125 C 2.890625 -6.578125 3.171875 -6.859375 3.171875 -7.1875 C 3.171875 -7.53125 2.890625 -7.84375 2.5625 -7.84375 Z M 2.5625 -7.84375 "/>
</symbol>
<symbol overflow="visible" id="glyph2-0">
<path style="stroke:none;" d=""/>
</symbol>
<symbol overflow="visible" id="glyph2-1">
<path style="stroke:none;" d="M 2.609375 -3.546875 C 1.40625 -3.546875 0.21875 -2.296875 0.21875 -1.03125 C 0.21875 -0.34375 0.671875 0.09375 1.40625 0.09375 C 1.9375 0.09375 2.453125 -0.15625 2.90625 -0.609375 C 3.4375 -1.140625 3.765625 -1.8125 3.765625 -2.421875 C 3.765625 -3.09375 3.296875 -3.546875 2.609375 -3.546875 Z M 2.515625 -3.375 C 2.859375 -3.375 3.09375 -3.078125 3.09375 -2.625 C 3.09375 -2.03125 2.828125 -1.234375 2.46875 -0.703125 C 2.171875 -0.28125 1.859375 -0.078125 1.515625 -0.078125 C 1.140625 -0.078125 0.890625 -0.375 0.890625 -0.8125 C 0.890625 -1.40625 1.125 -2.109375 1.515625 -2.6875 C 1.828125 -3.140625 2.171875 -3.375 2.515625 -3.375 Z M 2.515625 -3.375 "/>
</symbol>
<symbol overflow="visible" id="glyph2-2">
<path style="stroke:none;" d="M 3.25 -5.25 L 1.046875 -5.25 L 1.046875 -5.125 C 1.546875 -5.078125 1.671875 -5.015625 1.671875 -4.78125 C 1.671875 -4.671875 1.640625 -4.484375 1.578125 -4.28125 L 0.59375 -0.71875 C 0.4375 -0.25 0.390625 -0.203125 -0.0625 -0.125 L -0.0625 0 L 4.03125 0 L 4.5 -1.4375 L 4.34375 -1.484375 C 4.0625 -0.90625 3.84375 -0.65625 3.484375 -0.46875 C 3.203125 -0.34375 2.875 -0.296875 2.171875 -0.296875 C 1.5625 -0.296875 1.359375 -0.359375 1.359375 -0.5625 C 1.359375 -0.625 1.40625 -0.8125 1.4375 -0.96875 L 2.4375 -4.53125 C 2.546875 -4.9375 2.765625 -5.09375 3.25 -5.125 Z M 3.25 -5.25 "/>
</symbol>
<symbol overflow="visible" id="glyph2-3">
<path style="stroke:none;" d="M 0.390625 0 L 2.640625 0 L 2.640625 -0.125 L 2.515625 -0.125 C 2.109375 -0.125 1.953125 -0.203125 1.953125 -0.375 C 1.953125 -0.453125 1.984375 -0.59375 2.046875 -0.796875 C 2.0625 -0.859375 2.078125 -0.90625 2.078125 -0.9375 L 2.09375 -0.96875 L 3.25 -5.15625 C 3.28125 -5.265625 3.296875 -5.34375 3.296875 -5.390625 C 3.296875 -5.421875 3.28125 -5.4375 3.25 -5.4375 C 3.25 -5.4375 3.234375 -5.4375 3.234375 -5.4375 L 2.59375 -5.3125 L 1.859375 -5.171875 C 1.84375 -5.171875 1.78125 -5.15625 1.703125 -5.140625 L 1.703125 -5.015625 L 2.15625 -5.03125 C 2.34375 -5.03125 2.46875 -4.9375 2.46875 -4.78125 C 2.46875 -4.734375 2.453125 -4.65625 2.40625 -4.5 L 1.296875 -0.546875 C 1.203125 -0.25 1.03125 -0.171875 0.390625 -0.109375 Z M 0.390625 0 "/>
</symbol>
<symbol overflow="visible" id="glyph2-4">
<path style="stroke:none;" d="M 3.21875 -1.125 C 3.03125 -0.71875 2.859375 -0.609375 2.421875 -0.609375 L 0.890625 -0.609375 L 0.890625 -0.65625 L 2.4375 -2.203125 C 3.375 -3.140625 3.640625 -3.546875 3.640625 -4.078125 C 3.640625 -4.84375 3.0625 -5.4375 2.328125 -5.4375 C 2.046875 -5.4375 1.75 -5.359375 1.5 -5.234375 C 1.09375 -5 0.875 -4.734375 0.640625 -4.15625 L 0.8125 -4.09375 C 1.109375 -4.625 1.453125 -4.859375 1.9375 -4.859375 C 2.515625 -4.859375 2.9375 -4.4375 2.9375 -3.875 C 2.9375 -3.703125 2.921875 -3.546875 2.875 -3.4375 C 2.671875 -3.015625 2.3125 -2.5 1.78125 -1.9375 L 0.09375 -0.140625 L 0.09375 0 L 2.953125 0 L 3.359375 -1.0625 Z M 3.21875 -1.125 "/>
</symbol>
<symbol overflow="visible" id="glyph3-0">
<path style="stroke:none;" d=""/>
</symbol>
<symbol overflow="visible" id="glyph3-1">
<path style="stroke:none;" d="M 3.734375 -4.296875 L 0.453125 -4.296875 L 0.453125 -3.296875 L 3.734375 -3.296875 L 3.734375 0 L 4.71875 0 L 4.71875 -3.296875 L 8.015625 -3.296875 L 8.015625 -4.296875 L 4.71875 -4.296875 L 4.71875 -7.59375 L 3.734375 -7.59375 Z M 3.734375 -4.296875 "/>
</symbol>
<symbol overflow="visible" id="glyph3-2">
<path style="stroke:none;" d="M 0.578125 -3.859375 L 0.578125 -2.90625 L 4.28125 -2.90625 L 4.28125 -3.859375 Z M 0.578125 -3.859375 "/>
</symbol>
<symbol overflow="visible" id="glyph3-3">
<path style="stroke:none;" d="M 9.890625 -0.28125 C 9.3125 -0.328125 9.015625 -0.484375 8.578125 -0.984375 L 5.484375 -4.78125 C 6.5 -4.984375 6.9375 -5.15625 7.4375 -5.5625 C 7.921875 -5.953125 8.203125 -6.578125 8.203125 -7.296875 C 8.203125 -7.9375 8.015625 -8.484375 7.625 -8.921875 C 7.046875 -9.546875 5.8125 -9.9375 4.390625 -9.9375 L 0.25 -9.9375 L 0.25 -9.640625 C 1.375 -9.53125 1.53125 -9.359375 1.53125 -8.296875 L 1.53125 -1.796875 C 1.53125 -0.5625 1.375 -0.375 0.25 -0.28125 L 0.25 0 L 4.40625 0 L 4.40625 -0.28125 C 3.25 -0.359375 3.0625 -0.5625 3.0625 -1.640625 L 3.0625 -4.59375 L 3.90625 -4.625 L 7.46875 0 L 9.890625 0 Z M 3.0625 -8.828125 C 3.0625 -9.25 3.21875 -9.375 3.828125 -9.375 C 5.703125 -9.375 6.5625 -8.734375 6.5625 -7.3125 C 6.5625 -6.5625 6.25 -5.9375 5.71875 -5.65625 C 5.03125 -5.265625 4.5 -5.171875 3.0625 -5.140625 Z M 3.0625 -8.828125 "/>
</symbol>
<symbol overflow="visible" id="glyph3-4">
<path style="stroke:none;" d="M 8.59375 -2.609375 C 8.34375 -2.046875 8.125 -1.6875 7.90625 -1.4375 C 7.375 -0.859375 6.5625 -0.578125 5.3125 -0.578125 L 4.3125 -0.578125 C 3.203125 -0.578125 3.015625 -0.671875 3.015625 -1.203125 L 3.015625 -8.296875 C 3.015625 -9.359375 3.21875 -9.5625 4.40625 -9.640625 L 4.40625 -9.9375 L 0.1875 -9.9375 L 0.1875 -9.640625 C 1.296875 -9.5625 1.484375 -9.34375 1.484375 -8.296875 L 1.484375 -1.640625 C 1.484375 -0.578125 1.28125 -0.359375 0.1875 -0.28125 L 0.1875 0 L 8.25 0 L 8.96875 -2.609375 Z M 8.59375 -2.609375 "/>
</symbol>
<symbol overflow="visible" id="glyph3-5">
<path style="stroke:none;" d="M 9.296875 -6.75 L 9.171875 -10.140625 L 8.84375 -10.140625 C 8.765625 -9.828125 8.515625 -9.640625 8.21875 -9.640625 C 8.078125 -9.640625 7.859375 -9.6875 7.640625 -9.78125 C 6.90625 -10.015625 6.15625 -10.140625 5.4375 -10.140625 C 4.21875 -10.140625 2.96875 -9.671875 2.046875 -8.84375 C 0.984375 -7.921875 0.421875 -6.53125 0.421875 -4.875 C 0.421875 -3.484375 0.875 -2.1875 1.640625 -1.328125 C 2.53125 -0.359375 3.921875 0.203125 5.40625 0.203125 C 7.09375 0.203125 8.578125 -0.484375 9.5 -1.6875 L 9.21875 -1.96875 C 8.109375 -0.90625 7.125 -0.453125 5.875 -0.453125 C 4.9375 -0.453125 4.09375 -0.75 3.453125 -1.3125 C 2.625 -2.0625 2.15625 -3.40625 2.15625 -5.0625 C 2.15625 -7.78125 3.5625 -9.546875 5.734375 -9.546875 C 6.578125 -9.546875 7.359375 -9.21875 7.96875 -8.625 C 8.4375 -8.140625 8.671875 -7.71875 8.953125 -6.75 Z M 9.296875 -6.75 "/>
</symbol>
<symbol overflow="visible" id="glyph4-0">
<path style="stroke:none;" d=""/>
</symbol>
<symbol overflow="visible" id="glyph4-1">
<path style="stroke:none;" d="M 4.53125 -8 L 3.703125 -8 L 3.703125 -4.40625 L 0.15625 -4.40625 L 0.15625 -3.578125 L 3.703125 -3.578125 L 3.703125 0 L 4.53125 0 L 4.53125 -3.578125 L 8.078125 -3.578125 L 8.078125 -4.40625 L 4.53125 -4.40625 Z M 4.53125 -8 "/>
</symbol>
<symbol overflow="visible" id="glyph4-2">
<path style="stroke:none;" d="M 0.171875 -4.40625 L 0.171875 -3.578125 L 8.03125 -3.578125 L 8.03125 -4.40625 Z M 0.171875 -4.40625 "/>
</symbol>
<symbol overflow="visible" id="glyph5-0">
<path style="stroke:none;" d=""/>
</symbol>
<symbol overflow="visible" id="glyph5-1">
<path style="stroke:none;" d="M 0.3125 -6.046875 C 0.484375 -6.0625 0.59375 -6.0625 0.765625 -6.0625 C 1.34375 -6.0625 1.5 -5.8125 1.703125 -4.421875 C 1.859375 -3.390625 2.046875 -1.125 2.046875 -0.25 C 2.046875 0.171875 2.0625 0.265625 2.171875 0.265625 C 2.546875 0.265625 3.9375 -1.3125 5.46875 -3.453125 C 6 -4.203125 6.390625 -5.171875 6.390625 -5.734375 C 6.390625 -6.203125 6 -6.609375 5.546875 -6.609375 C 5.21875 -6.609375 5 -6.421875 5 -6.109375 C 5 -5.859375 5.078125 -5.6875 5.359375 -5.4375 C 5.546875 -5.265625 5.625 -5.140625 5.625 -5 C 5.625 -4.3125 4.640625 -2.640625 3.5625 -1.53125 L 3.109375 -1.046875 C 3 -3.171875 2.90625 -3.9375 2.71875 -5.0625 C 2.421875 -6.578125 2.421875 -6.609375 2.28125 -6.609375 C 2.203125 -6.609375 2.09375 -6.59375 1.984375 -6.5625 C 1.703125 -6.484375 0.890625 -6.328125 0.3125 -6.234375 Z M 0.3125 -6.046875 "/>
</symbol>
<symbol overflow="visible" id="glyph5-2">
<path style="stroke:none;" d="M 2.390625 2.625 C 1.84375 1.109375 1.671875 0.171875 1.671875 -1.28125 C 1.671875 -3.078125 2.09375 -5.234375 2.796875 -6.90625 C 3.265625 -8.078125 3.75 -8.796875 4.71875 -9.8125 L 4.53125 -10.03125 C 2.578125 -8.265625 1.8125 -7.28125 1.1875 -5.71875 C 0.796875 -4.765625 0.625 -3.84375 0.625 -2.703125 C 0.625 -1.546875 0.8125 -0.421875 1.140625 0.609375 C 1.34375 1.265625 1.578125 1.71875 2.109375 2.71875 Z M 2.390625 2.625 "/>
</symbol>
<symbol overflow="visible" id="glyph5-3">
<path style="stroke:none;" d="M 4.4375 -6.421875 L 3.234375 -6.421875 L 3.65625 -7.96875 C 3.671875 -8 3.671875 -8.03125 3.671875 -8.046875 C 3.671875 -8.140625 3.625 -8.1875 3.5625 -8.1875 C 3.46875 -8.1875 3.421875 -8.171875 3.328125 -8.0625 C 2.75 -7.296875 1.8125 -6.546875 1.328125 -6.40625 C 0.953125 -6.28125 0.859375 -6.1875 0.859375 -6.03125 C 0.859375 -6.015625 0.859375 -5.984375 0.875 -5.9375 L 1.984375 -5.9375 L 0.90625 -1.8125 C 0.875 -1.6875 0.859375 -1.640625 0.8125 -1.5 C 0.671875 -1.046875 0.5625 -0.53125 0.5625 -0.40625 C 0.5625 -0.078125 0.875 0.171875 1.28125 0.171875 C 1.96875 0.171875 2.453125 -0.25 3.40625 -1.65625 L 3.203125 -1.75 C 2.46875 -0.8125 2.234375 -0.5625 2 -0.5625 C 1.859375 -0.5625 1.765625 -0.6875 1.765625 -0.875 C 1.765625 -0.890625 1.765625 -0.90625 1.78125 -0.9375 L 3.109375 -5.9375 L 4.359375 -5.9375 Z M 4.4375 -6.421875 "/>
</symbol>
<symbol overflow="visible" id="glyph5-4">
<path style="stroke:none;" d="M 0.4375 2.703125 C 2.296875 1.078125 3.0625 0.125 3.734375 -1.515625 C 4.15625 -2.5 4.328125 -3.453125 4.328125 -4.5625 C 4.328125 -5.421875 4.21875 -6.375 4 -7.28125 C 3.75 -8.296875 3.53125 -8.828125 2.84375 -10.03125 L 2.5625 -9.953125 C 3.078125 -8.75 3.296875 -7.53125 3.296875 -6.03125 C 3.296875 -4.125 2.796875 -1.6875 2.046875 -0.09375 C 1.609375 0.890625 1.15625 1.515625 0.234375 2.46875 Z M 0.4375 2.703125 "/>
</symbol>
<symbol overflow="visible" id="glyph6-0">
<path style="stroke:none;" d=""/>
</symbol>
<symbol overflow="visible" id="glyph6-1">
<path style="stroke:none;" d="M 2.234375 -1.140625 C 1.984375 -0.828125 1.921875 -0.75 1.8125 -0.640625 C 1.640625 -0.46875 1.5 -0.359375 1.40625 -0.359375 C 1.328125 -0.359375 1.25 -0.4375 1.25 -0.515625 C 1.25 -0.609375 1.28125 -0.765625 1.34375 -0.953125 C 1.34375 -0.984375 1.375 -1.0625 1.390625 -1.140625 L 1.390625 -1.15625 L 1.40625 -1.171875 L 2.296875 -4.40625 L 2.265625 -4.4375 C 1.25 -4.234375 1.046875 -4.203125 0.65625 -4.171875 L 0.65625 -4.015625 C 1.1875 -4.015625 1.28125 -3.984375 1.28125 -3.78125 C 1.28125 -3.703125 1.25 -3.53125 1.203125 -3.328125 L 0.71875 -1.5625 C 0.546875 -0.96875 0.5 -0.65625 0.5 -0.46875 C 0.5 -0.09375 0.65625 0.109375 0.953125 0.109375 C 1.421875 0.109375 1.78125 -0.1875 2.359375 -1.03125 Z M 2.15625 -6.578125 C 1.875 -6.578125 1.671875 -6.34375 1.671875 -6.03125 C 1.671875 -5.71875 1.875 -5.5 2.15625 -5.5 C 2.421875 -5.5 2.65625 -5.734375 2.65625 -6.015625 C 2.65625 -6.3125 2.421875 -6.578125 2.15625 -6.578125 Z M 2.15625 -6.578125 "/>
</symbol>
<symbol overflow="visible" id="glyph7-0">
<path style="stroke:none;" d=""/>
</symbol>
<symbol overflow="visible" id="glyph7-1">
<path style="stroke:none;" d="M 2.109375 1.03125 L 2.015625 1.03125 C 1.828125 1.03125 1.703125 0.984375 1.71875 0.875 C 1.71875 0.859375 1.71875 0.84375 1.71875 0.8125 L 2.609375 -2.296875 L 2.21875 -2.296875 L 2.140625 -2.046875 C 2.046875 -2.296875 1.9375 -2.390625 1.71875 -2.390625 C 1 -2.390625 0.140625 -1.390625 0.140625 -0.5625 C 0.140625 -0.1875 0.34375 0.0625 0.6875 0.0625 C 1.078125 0.0625 1.3125 -0.140625 1.796875 -0.828125 L 1.3125 0.75 C 1.25 0.96875 1.15625 1.015625 0.8125 1.046875 L 0.8125 1.125 L 2.109375 1.125 Z M 1.734375 -2.265625 C 1.90625 -2.265625 2.046875 -2.125 2.046875 -1.9375 C 2.046875 -1.484375 1.6875 -0.71875 1.3125 -0.40625 C 1.171875 -0.296875 1.03125 -0.234375 0.90625 -0.234375 C 0.71875 -0.234375 0.59375 -0.390625 0.59375 -0.640625 C 0.59375 -1.046875 0.875 -1.640625 1.234375 -2 C 1.40625 -2.171875 1.578125 -2.265625 1.734375 -2.265625 Z M 1.734375 -2.265625 "/>
</symbol>
<symbol overflow="visible" id="glyph7-2">
<path style="stroke:none;" d="M 0.859375 0.953125 C 0.671875 0.40625 0.59375 0.0625 0.59375 -0.453125 C 0.59375 -1.109375 0.75 -1.890625 1 -2.484375 C 1.171875 -2.90625 1.34375 -3.171875 1.703125 -3.53125 L 1.625 -3.609375 C 0.9375 -2.984375 0.65625 -2.625 0.421875 -2.0625 C 0.28125 -1.71875 0.234375 -1.390625 0.234375 -0.96875 C 0.234375 -0.5625 0.296875 -0.15625 0.40625 0.21875 C 0.484375 0.453125 0.5625 0.625 0.765625 0.984375 Z M 0.859375 0.953125 "/>
</symbol>
<symbol overflow="visible" id="glyph7-3">
<path style="stroke:none;" d="M 1.59375 -2.3125 L 1.171875 -2.3125 L 1.3125 -2.875 C 1.328125 -2.875 1.328125 -2.890625 1.328125 -2.890625 C 1.328125 -2.9375 1.3125 -2.953125 1.28125 -2.953125 C 1.25 -2.953125 1.234375 -2.953125 1.203125 -2.90625 C 0.984375 -2.625 0.65625 -2.359375 0.484375 -2.3125 C 0.34375 -2.265625 0.3125 -2.234375 0.3125 -2.171875 C 0.3125 -2.171875 0.3125 -2.15625 0.3125 -2.140625 L 0.71875 -2.140625 L 0.328125 -0.65625 C 0.3125 -0.609375 0.3125 -0.59375 0.296875 -0.546875 C 0.25 -0.375 0.203125 -0.1875 0.203125 -0.140625 C 0.203125 -0.03125 0.3125 0.0625 0.453125 0.0625 C 0.703125 0.0625 0.890625 -0.09375 1.234375 -0.59375 L 1.15625 -0.625 C 0.890625 -0.296875 0.8125 -0.203125 0.71875 -0.203125 C 0.671875 -0.203125 0.640625 -0.25 0.640625 -0.3125 C 0.640625 -0.3125 0.640625 -0.328125 0.640625 -0.34375 L 1.125 -2.140625 L 1.578125 -2.140625 Z M 1.59375 -2.3125 "/>
</symbol>
<symbol overflow="visible" id="glyph7-4">
<path style="stroke:none;" d="M 0.15625 0.96875 C 0.828125 0.390625 1.109375 0.046875 1.34375 -0.546875 C 1.5 -0.90625 1.5625 -1.25 1.5625 -1.640625 C 1.5625 -1.953125 1.515625 -2.296875 1.4375 -2.625 C 1.34375 -2.984375 1.265625 -3.1875 1.03125 -3.609375 L 0.921875 -3.59375 C 1.109375 -3.15625 1.1875 -2.71875 1.1875 -2.171875 C 1.1875 -1.484375 1 -0.609375 0.734375 -0.03125 C 0.578125 0.3125 0.421875 0.546875 0.09375 0.890625 Z M 0.15625 0.96875 "/>
</symbol>
<symbol overflow="visible" id="glyph7-5">
<path style="stroke:none;" d="M 2.5 -0.59375 C 2.21875 -0.265625 2.15625 -0.21875 2.0625 -0.21875 C 2 -0.21875 1.96875 -0.265625 1.96875 -0.328125 C 1.96875 -0.40625 2.140625 -1.0625 2.3125 -1.65625 C 2.453125 -2.15625 2.578125 -2.578125 2.84375 -3.671875 L 2.828125 -3.6875 C 2.53125 -3.640625 2.34375 -3.59375 2 -3.5625 L 2 -3.46875 C 2.296875 -3.46875 2.328125 -3.453125 2.328125 -3.328125 C 2.328125 -3.265625 2.328125 -3.234375 2.25 -2.953125 L 2.015625 -2.078125 C 1.96875 -2.296875 1.875 -2.390625 1.65625 -2.390625 C 0.953125 -2.390625 0.078125 -1.375 0.078125 -0.5625 C 0.078125 -0.171875 0.296875 0.0625 0.65625 0.0625 C 1.015625 0.0625 1.25 -0.109375 1.625 -0.65625 C 1.5625 -0.375 1.546875 -0.296875 1.546875 -0.171875 C 1.546875 -0.03125 1.640625 0.0625 1.78125 0.0625 C 2 0.0625 2.28125 -0.15625 2.5625 -0.546875 Z M 1.6875 -2.265625 C 1.84375 -2.25 1.921875 -2.140625 1.921875 -1.953125 C 1.921875 -1.125 1.359375 -0.203125 0.859375 -0.203125 C 0.6875 -0.203125 0.546875 -0.34375 0.546875 -0.5625 C 0.546875 -1 0.828125 -1.625 1.171875 -2.015625 C 1.328125 -2.171875 1.53125 -2.265625 1.6875 -2.265625 Z M 1.6875 -2.265625 "/>
</symbol>
<symbol overflow="visible" id="glyph7-6">
<path style="stroke:none;" d="M 3.421875 -3.53125 L 0.546875 -3.53125 L 0.3125 -2.703125 L 0.421875 -2.671875 C 0.703125 -3.265625 0.875 -3.359375 1.703125 -3.34375 L 0.921875 -0.484375 C 0.84375 -0.203125 0.703125 -0.109375 0.34375 -0.09375 L 0.34375 0 L 1.921875 0 L 1.921875 -0.09375 C 1.828125 -0.09375 1.75 -0.109375 1.71875 -0.109375 C 1.5 -0.125 1.4375 -0.171875 1.4375 -0.328125 C 1.4375 -0.40625 1.453125 -0.46875 1.5 -0.65625 L 2.25 -3.34375 L 2.546875 -3.34375 C 2.9375 -3.34375 3.109375 -3.203125 3.109375 -2.90625 C 3.109375 -2.828125 3.109375 -2.75 3.09375 -2.65625 L 3.1875 -2.65625 Z M 3.421875 -3.53125 "/>
</symbol>
<symbol overflow="visible" id="glyph8-0">
<path style="stroke:none;" d=""/>
</symbol>
<symbol overflow="visible" id="glyph8-1">
<path style="stroke:none;" d="M 1.84375 -3.234375 L 1.109375 -3.234375 L 1.109375 -4.078125 C 1.109375 -4.15625 1.109375 -4.171875 1.0625 -4.171875 C 1.015625 -4.109375 0.96875 -4.046875 0.921875 -3.96875 C 0.640625 -3.578125 0.328125 -3.234375 0.21875 -3.203125 C 0.140625 -3.140625 0.09375 -3.09375 0.09375 -3.0625 C 0.09375 -3.046875 0.09375 -3.03125 0.125 -3.015625 L 0.5 -3.015625 L 0.5 -0.84375 C 0.5 -0.234375 0.71875 0.078125 1.140625 0.078125 C 1.5 0.078125 1.765625 -0.09375 2.015625 -0.46875 L 1.921875 -0.546875 C 1.765625 -0.375 1.640625 -0.296875 1.484375 -0.296875 C 1.21875 -0.296875 1.109375 -0.5 1.109375 -0.953125 L 1.109375 -3.015625 L 1.84375 -3.015625 Z M 1.84375 -3.234375 "/>
</symbol>
<symbol overflow="visible" id="glyph9-0">
<path style="stroke:none;" d=""/>
</symbol>
<symbol overflow="visible" id="glyph9-1">
<path style="stroke:none;" d="M 1.375 -3.65625 C 1.078125 -3.65625 0.84375 -3.5625 0.65625 -3.375 C 0.328125 -3.078125 0.125 -2.453125 0.125 -1.8125 C 0.125 -1.234375 0.3125 -0.59375 0.5625 -0.296875 C 0.765625 -0.046875 1.03125 0.078125 1.34375 0.078125 C 1.625 0.078125 1.859375 -0.015625 2.046875 -0.203125 C 2.375 -0.5 2.578125 -1.125 2.578125 -1.78125 C 2.578125 -2.890625 2.078125 -3.65625 1.375 -3.65625 Z M 1.359375 -3.515625 C 1.8125 -3.515625 2.046875 -2.90625 2.046875 -1.765625 C 2.046875 -0.640625 1.8125 -0.0625 1.34375 -0.0625 C 0.890625 -0.0625 0.65625 -0.640625 0.65625 -1.765625 C 0.65625 -2.90625 0.890625 -3.515625 1.359375 -3.515625 Z M 1.359375 -3.515625 "/>
</symbol>
<symbol overflow="visible" id="glyph9-2">
<path style="stroke:none;" d="M 1.578125 -3.65625 L 0.59375 -3.15625 L 0.59375 -3.09375 C 0.671875 -3.109375 0.71875 -3.140625 0.75 -3.140625 C 0.84375 -3.1875 0.9375 -3.203125 0.984375 -3.203125 C 1.109375 -3.203125 1.15625 -3.125 1.15625 -2.953125 L 1.15625 -0.5 C 1.15625 -0.328125 1.109375 -0.203125 1.015625 -0.15625 C 0.9375 -0.109375 0.859375 -0.09375 0.640625 -0.078125 L 0.640625 0 L 2.125 0 L 2.125 -0.078125 C 1.703125 -0.09375 1.609375 -0.140625 1.609375 -0.40625 L 1.609375 -3.640625 Z M 1.578125 -3.65625 "/>
</symbol>
<symbol overflow="visible" id="glyph10-0">
<path style="stroke:none;" d=""/>
</symbol>
<symbol overflow="visible" id="glyph10-1">
<path style="stroke:none;" d="M 0.171875 0 L 1.1875 0 L 1.1875 -0.046875 L 1.125 -0.046875 C 0.953125 -0.046875 0.875 -0.09375 0.875 -0.171875 C 0.875 -0.203125 0.890625 -0.265625 0.921875 -0.359375 C 0.921875 -0.390625 0.9375 -0.40625 0.9375 -0.421875 L 0.9375 -0.4375 L 1.453125 -2.3125 C 1.46875 -2.375 1.484375 -2.40625 1.484375 -2.421875 C 1.484375 -2.4375 1.46875 -2.453125 1.46875 -2.453125 C 1.46875 -2.453125 1.453125 -2.453125 1.453125 -2.453125 L 1.171875 -2.390625 L 0.84375 -2.328125 C 0.828125 -2.328125 0.8125 -2.3125 0.765625 -2.3125 L 0.765625 -2.265625 L 0.96875 -2.265625 C 1.0625 -2.265625 1.109375 -2.21875 1.109375 -2.15625 C 1.109375 -2.125 1.109375 -2.09375 1.078125 -2.03125 L 0.578125 -0.25 C 0.546875 -0.109375 0.46875 -0.078125 0.171875 -0.046875 Z M 0.171875 0 "/>
</symbol>
<symbol overflow="visible" id="glyph11-0">
<path style="stroke:none;" d=""/>
</symbol>
<symbol overflow="visible" id="glyph11-1">
<path style="stroke:none;" d="M 11 0.015625 L 9.578125 -1.140625 C 10.625 -2.28125 11.125 -3.6875 11.125 -5.421875 C 11.125 -8.8125 9 -11.109375 5.84375 -11.109375 C 2.703125 -11.109375 0.5625 -8.8125 0.5625 -5.390625 C 0.5625 -1.96875 2.703125 0.34375 5.84375 0.34375 C 6.9375 0.34375 7.828125 0.109375 8.71875 -0.421875 L 10.296875 0.890625 Z M 7.21875 -3.078125 L 6.53125 -2.234375 L 7.640625 -1.3125 C 6.984375 -1 6.5 -0.890625 5.828125 -0.890625 C 3.515625 -0.890625 1.96875 -2.6875 1.96875 -5.390625 C 1.96875 -8.078125 3.53125 -9.890625 5.84375 -9.890625 C 8.171875 -9.890625 9.734375 -8.078125 9.734375 -5.40625 C 9.734375 -3.984375 9.359375 -2.890625 8.546875 -1.984375 Z M 7.21875 -3.078125 "/>
</symbol>
<symbol overflow="visible" id="glyph11-2">
<path style="stroke:none;" d="M 1.328125 0 L 5.546875 0 C 8.3125 0 10 -2.0625 10 -5.46875 C 10 -8.859375 8.328125 -10.9375 5.546875 -10.9375 L 1.328125 -10.9375 Z M 2.734375 -1.234375 L 2.734375 -9.703125 L 5.3125 -9.703125 C 7.46875 -9.703125 8.609375 -8.25 8.609375 -5.453125 C 8.609375 -2.703125 7.46875 -1.234375 5.3125 -1.234375 Z M 2.734375 -1.234375 "/>
</symbol>
<symbol overflow="visible" id="glyph12-0">
<path style="stroke:none;" d=""/>
</symbol>
<symbol overflow="visible" id="glyph12-1">
<path style="stroke:none;" d="M 0.265625 0 L 1.765625 0 L 1.765625 -0.078125 L 1.6875 -0.078125 C 1.421875 -0.078125 1.296875 -0.140625 1.296875 -0.25 C 1.296875 -0.296875 1.328125 -0.40625 1.375 -0.53125 C 1.375 -0.578125 1.390625 -0.609375 1.390625 -0.625 L 1.40625 -0.65625 L 2.171875 -3.453125 C 2.1875 -3.53125 2.203125 -3.578125 2.203125 -3.609375 C 2.203125 -3.625 2.1875 -3.640625 2.171875 -3.640625 C 2.171875 -3.640625 2.171875 -3.640625 2.15625 -3.640625 L 1.734375 -3.5625 L 1.25 -3.453125 C 1.234375 -3.453125 1.203125 -3.453125 1.140625 -3.4375 L 1.140625 -3.359375 L 1.4375 -3.375 C 1.5625 -3.375 1.65625 -3.3125 1.65625 -3.203125 C 1.65625 -3.171875 1.640625 -3.109375 1.609375 -3.015625 L 0.875 -0.359375 C 0.796875 -0.171875 0.6875 -0.109375 0.265625 -0.078125 Z M 0.265625 0 "/>
</symbol>
</g>
</defs>
<g id="surface1">
<path style="fill:none;stroke-width:9.75;stroke-linecap:round;stroke-linejoin:bevel;stroke:rgb(0%,0%,0%);stroke-opacity:1;stroke-miterlimit:6;" d="M 3448.75 760 L 3448.75 880 L 3028.75 880 " transform="matrix(0.1,0,0,-0.1,0,116)"/>
<path style=" stroke:none;fill-rule:evenodd;fill:rgb(0%,0%,0%);fill-opacity:1;" d="M 209.125 100 C 209.125 98.757812 208.117188 97.75 206.875 97.75 C 205.632812 97.75 204.625 98.757812 204.625 100 C 204.625 101.242188 205.632812 102.25 206.875 102.25 C 208.117188 102.25 209.125 101.242188 209.125 100 "/>
<g style="fill:rgb(36.108398%,67.576599%,93.359375%);fill-opacity:1;">
  <use xlink:href="#glyph0-1" x="167.589" y="79"/>
  <use xlink:href="#glyph0-2" x="173.589" y="79"/>
  <use xlink:href="#glyph0-3" x="177.585" y="79"/>
  <use xlink:href="#glyph0-4" x="180.921" y="79"/>
</g>
<g style="fill:rgb(93.359375%,60.351562%,0%);fill-opacity:1;">
  <use xlink:href="#glyph1-1" x="353.625" y="67"/>
</g>
<g style="fill:rgb(93.359375%,60.351562%,0%);fill-opacity:1;">
  <use xlink:href="#glyph2-1" x="358.95313" y="69.65313"/>
</g>
<g style="fill:rgb(93.359375%,60.351562%,0%);fill-opacity:1;">
  <use xlink:href="#glyph1-2" x="362.97305" y="67"/>
  <use xlink:href="#glyph1-3" x="366.96905" y="67"/>
  <use xlink:href="#glyph1-4" x="370.30505" y="67"/>
</g>
<g style="fill:rgb(93.359375%,60.351562%,0%);fill-opacity:1;">
  <use xlink:href="#glyph3-1" x="359.425" y="49"/>
</g>
<g style="fill:rgb(93.359375%,60.351562%,0%);fill-opacity:1;">
  <use xlink:href="#glyph3-2" x="359.290625" y="85"/>
</g>
<path style="fill:none;stroke-width:9.75;stroke-linecap:round;stroke-linejoin:bevel;stroke:rgb(0%,0%,0%);stroke-opacity:1;stroke-miterlimit:6;" d="M 868.75 520 C 868.75 586.289062 815.039062 640 748.75 640 C 682.460938 640 628.75 586.289062 628.75 520 C 628.75 453.710938 682.460938 400 748.75 400 C 815.039062 400 868.75 453.710938 868.75 520 " transform="matrix(0.1,0,0,-0.1,0,116)"/>
<path style="fill:none;stroke-width:9.75;stroke-linecap:round;stroke-linejoin:bevel;stroke:rgb(0%,0%,0%);stroke-opacity:1;stroke-miterlimit:6;" d="M 748.75 760 L 748.75 640 " transform="matrix(0.1,0,0,-0.1,0,116)"/>
<path style="fill:none;stroke-width:9.75;stroke-linecap:round;stroke-linejoin:bevel;stroke:rgb(0%,0%,0%);stroke-opacity:1;stroke-miterlimit:6;" d="M 748.75 280 L 748.75 400 " transform="matrix(0.1,0,0,-0.1,0,116)"/>
<g style="fill:rgb(0%,0%,0%);fill-opacity:1;">
  <use xlink:href="#glyph4-1" x="70.9141" y="62.7414"/>
</g>
<g style="fill:rgb(0%,0%,0%);fill-opacity:1;">
  <use xlink:href="#glyph4-2" x="70.950819" y="74.4516"/>
</g>
<g style="fill:rgb(0%,0%,0%);fill-opacity:1;">
  <use xlink:href="#glyph5-1" x="32.561019" y="70.00004"/>
</g>
<g style="fill:rgb(0%,0%,0%);fill-opacity:1;">
  <use xlink:href="#glyph6-1" x="39.221179" y="73.31645"/>
</g>
<g style="fill:rgb(0%,0%,0%);fill-opacity:1;">
  <use xlink:href="#glyph5-2" x="42.014929" y="70.00004"/>
  <use xlink:href="#glyph5-3" x="47.009929" y="70.00004"/>
  <use xlink:href="#glyph5-4" x="51.179929" y="70.00004"/>
</g>
<path style="fill:none;stroke-width:9.75;stroke-linecap:round;stroke-linejoin:bevel;stroke:rgb(0%,0%,0%);stroke-opacity:1;stroke-miterlimit:6;" d="M 3448.75 655 L 3448.75 760 " transform="matrix(0.1,0,0,-0.1,0,116)"/>
<path style="fill:none;stroke-width:9.75;stroke-linecap:round;stroke-linejoin:bevel;stroke:rgb(0%,0%,0%);stroke-opacity:1;stroke-miterlimit:6;" d="M 3448.75 385 L 3448.75 280 " transform="matrix(0.1,0,0,-0.1,0,116)"/>
<path style="fill:none;stroke-width:9.75;stroke-linecap:round;stroke-linejoin:bevel;stroke:rgb(0%,0%,0%);stroke-opacity:1;stroke-miterlimit:6;" d="M 3448.75 655 L 3396.25 632.5 L 3501.25 587.5 L 3396.25 542.5 L 3501.25 497.5 L 3396.25 452.5 L 3501.25 407.5 L 3448.75 385 " transform="matrix(0.1,0,0,-0.1,0,116)"/>
<g style="fill:rgb(0%,0%,0%);fill-opacity:1;">
  <use xlink:href="#glyph3-3" x="326.62" y="70"/>
</g>
<path style="fill:none;stroke-width:9.75;stroke-linecap:round;stroke-linejoin:bevel;stroke:rgb(0%,0%,0%);stroke-opacity:1;stroke-miterlimit:6;" d="M 1708.75 160 L 748.75 160 L 748.75 310 " transform="matrix(0.1,0,0,-0.1,0,116)"/>
<path style="fill:none;stroke-width:9.75;stroke-linecap:round;stroke-linejoin:bevel;stroke:rgb(0%,0%,0%);stroke-opacity:1;stroke-miterlimit:6;" d="M 1176.25 880 C 1191.25 955 1251.25 955 1266.25 880 " transform="matrix(0.1,0,0,-0.1,0,116)"/>
<path style="fill:none;stroke-width:9.75;stroke-linecap:round;stroke-linejoin:bevel;stroke:rgb(0%,0%,0%);stroke-opacity:1;stroke-miterlimit:6;" d="M 1176.25 880 C 1161.25 805 1206.25 805 1191.25 880 " transform="matrix(0.1,0,0,-0.1,0,116)"/>
<path style="fill:none;stroke-width:9.75;stroke-linecap:round;stroke-linejoin:bevel;stroke:rgb(0%,0%,0%);stroke-opacity:1;stroke-miterlimit:6;" d="M 951.25 880 C 966.25 955 1026.25 955 1041.25 880 " transform="matrix(0.1,0,0,-0.1,0,116)"/>
<path style="fill:none;stroke-width:9.75;stroke-linecap:round;stroke-linejoin:bevel;stroke:rgb(0%,0%,0%);stroke-opacity:1;stroke-miterlimit:6;" d="M 1026.25 880 C 1041.25 955 1101.25 955 1116.25 880 " transform="matrix(0.1,0,0,-0.1,0,116)"/>
<path style="fill:none;stroke-width:9.75;stroke-linecap:round;stroke-linejoin:bevel;stroke:rgb(0%,0%,0%);stroke-opacity:1;stroke-miterlimit:6;" d="M 1101.25 880 C 1116.25 955 1176.25 955 1191.25 880 " transform="matrix(0.1,0,0,-0.1,0,116)"/>
<path style="fill:none;stroke-width:9.75;stroke-linecap:round;stroke-linejoin:bevel;stroke:rgb(0%,0%,0%);stroke-opacity:1;stroke-miterlimit:6;" d="M 1026.25 880 C 1011.25 805 1056.25 805 1041.25 880 " transform="matrix(0.1,0,0,-0.1,0,116)"/>
<path style="fill:none;stroke-width:9.75;stroke-linecap:round;stroke-linejoin:bevel;stroke:rgb(0%,0%,0%);stroke-opacity:1;stroke-miterlimit:6;" d="M 1101.25 880 C 1086.25 805 1131.25 805 1116.25 880 " transform="matrix(0.1,0,0,-0.1,0,116)"/>
<path style="fill:none;stroke-width:9.75;stroke-linecap:round;stroke-linejoin:bevel;stroke:rgb(0%,0%,0%);stroke-opacity:1;stroke-miterlimit:6;" d="M 1348.75 880 L 1266.25 880 " transform="matrix(0.1,0,0,-0.1,0,116)"/>
<path style="fill:none;stroke-width:9.75;stroke-linecap:round;stroke-linejoin:bevel;stroke:rgb(0%,0%,0%);stroke-opacity:1;stroke-miterlimit:6;" d="M 868.75 880 L 951.25 880 " transform="matrix(0.1,0,0,-0.1,0,116)"/>
<path style="fill:none;stroke-width:9.75;stroke-linecap:round;stroke-linejoin:bevel;stroke:rgb(0%,0%,0%);stroke-opacity:1;stroke-miterlimit:6;" d="M 3028.75 760 L 3028.75 880 L 2908.75 880 " transform="matrix(0.1,0,0,-0.1,0,116)"/>
<path style="fill:none;stroke-width:9.75;stroke-linecap:round;stroke-linejoin:bevel;stroke:rgb(0%,0%,0%);stroke-opacity:1;stroke-miterlimit:6;" d="M 3028.75 160 L 3028.75 280 " transform="matrix(0.1,0,0,-0.1,0,116)"/>
<path style=" stroke:none;fill-rule:evenodd;fill:rgb(0%,0%,0%);fill-opacity:1;" d="M 305.125 100 C 305.125 98.757812 304.117188 97.75 302.875 97.75 C 301.632812 97.75 300.625 98.757812 300.625 100 C 300.625 101.242188 301.632812 102.25 302.875 102.25 C 304.117188 102.25 305.125 101.242188 305.125 100 "/>
<g style="fill:rgb(0%,0%,0%);fill-opacity:1;">
  <use xlink:href="#glyph3-4" x="107.695" y="49"/>
</g>
<g style="fill:rgb(0%,0%,0%);fill-opacity:1;">
  <use xlink:href="#glyph3-5" x="305.456" y="82"/>
</g>
<path style=" stroke:none;fill-rule:evenodd;fill:rgb(0%,0%,0%);fill-opacity:1;" d="M 305.125 28 C 305.125 26.757812 304.117188 25.75 302.875 25.75 C 301.632812 25.75 300.625 26.757812 300.625 28 C 300.625 29.242188 301.632812 30.25 302.875 30.25 C 304.117188 30.25 305.125 29.242188 305.125 28 "/>
<g style="fill:rgb(100%,0%,0%);fill-opacity:1;">
  <use xlink:href="#glyph1-1" x="98.625" y="13"/>
</g>
<g style="fill:rgb(100%,0%,0%);fill-opacity:1;">
  <use xlink:href="#glyph2-2" x="103.95313" y="15.65313"/>
</g>
<g style="fill:rgb(100%,0%,0%);fill-opacity:1;">
  <use xlink:href="#glyph1-2" x="108.42344" y="13"/>
  <use xlink:href="#glyph1-3" x="112.41944" y="13"/>
  <use xlink:href="#glyph1-4" x="115.75544" y="13"/>
</g>
<g style="fill:rgb(100%,0%,0%);fill-opacity:1;">
  <use xlink:href="#glyph3-1" x="89.42504" y="16"/>
</g>
<g style="fill:rgb(100%,0%,0%);fill-opacity:1;">
  <use xlink:href="#glyph3-2" x="125.29064" y="16"/>
</g>
<path style=" stroke:none;fill-rule:evenodd;fill:rgb(62.693787%,12.5%,94.139099%);fill-opacity:1;" d="M 149.875 31 L 155.875 28 L 149.875 25 "/>
<path style="fill:none;stroke-width:9.75;stroke-linecap:round;stroke-linejoin:bevel;stroke:rgb(62.693787%,12.5%,94.139099%);stroke-opacity:1;stroke-miterlimit:6;" d="M 1498.75 850 L 1558.75 880 L 1498.75 910 Z M 1498.75 850 " transform="matrix(0.1,0,0,-0.1,0,116)"/>
<g style="fill:rgb(62.693787%,12.5%,94.139099%);fill-opacity:1;">
  <use xlink:href="#glyph1-5" x="143.291" y="19"/>
</g>
<g style="fill:rgb(62.693787%,12.5%,94.139099%);fill-opacity:1;">
  <use xlink:href="#glyph2-3" x="146.62694" y="21.65313"/>
</g>
<g style="fill:rgb(62.693787%,12.5%,94.139099%);fill-opacity:1;">
  <use xlink:href="#glyph1-2" x="150.64686" y="19"/>
  <use xlink:href="#glyph1-3" x="154.64286" y="19"/>
  <use xlink:href="#glyph1-4" x="157.97886" y="19"/>
</g>
<path style=" stroke:none;fill-rule:evenodd;fill:rgb(80.076599%,80.076599%,80.076599%);fill-opacity:1;" d="M 13.074219 22.898438 C 11.949219 20.648438 11.949219 19.976562 11.273438 16.601562 C 10.601562 19.976562 10.601562 20.648438 9.476562 22.898438 C 10.824219 22.449219 11.726562 22.449219 13.074219 22.898438 "/>
<path style=" stroke:none;fill-rule:evenodd;fill:rgb(80.076599%,80.076599%,80.076599%);fill-opacity:1;" d="M 60.773438 40 C 63.023438 38.875 63.699219 38.875 67.074219 38.199219 C 63.699219 37.523438 63.023438 37.523438 60.773438 36.398438 C 61.226562 37.75 61.226562 38.648438 60.773438 40 "/>
<path style="fill:none;stroke-width:9.75;stroke-linecap:round;stroke-linejoin:bevel;stroke:rgb(80.076599%,80.076599%,80.076599%);stroke-opacity:1;stroke-miterlimit:6;" d="M 112.734375 760 L 112.734375 976.015625 " transform="matrix(0.1,0,0,-0.1,0,116)"/>
<path style="fill:none;stroke-width:9.75;stroke-linecap:round;stroke-linejoin:bevel;stroke:rgb(80.076599%,80.076599%,80.076599%);stroke-opacity:1;stroke-miterlimit:6;" d="M 616.757812 778.007812 L 76.757812 778.007812 " transform="matrix(0.1,0,0,-0.1,0,116)"/>
<path style="fill:none;stroke-width:29.25;stroke-linecap:round;stroke-linejoin:bevel;stroke:rgb(36.108398%,67.576599%,93.359375%);stroke-opacity:1;stroke-miterlimit:6;" d="M 598.75 778.007812 L 328.75 778.007812 L 328.75 921.992188 L 112.734375 921.992188 L 112.734375 778.007812 " transform="matrix(0.1,0,0,-0.1,0,116)"/>
<path style="fill:none;stroke-width:9.75;stroke-linecap:round;stroke-linejoin:bevel;stroke:rgb(80.076599%,80.076599%,80.076599%);stroke-opacity:1;stroke-miterlimit:6;" d="M 328.75 760 L 328.75 796.015625 " transform="matrix(0.1,0,0,-0.1,0,116)"/>
<g style="fill:rgb(36.108398%,67.576599%,93.359375%);fill-opacity:1;">
  <use xlink:href="#glyph7-1" x="12.9406" y="20.2"/>
  <use xlink:href="#glyph7-2" x="15.6406" y="20.2"/>
  <use xlink:href="#glyph7-3" x="17.4388" y="20.2"/>
  <use xlink:href="#glyph7-4" x="18.94" y="20.2"/>
</g>
<g style="fill:rgb(80.076599%,80.076599%,80.076599%);fill-opacity:1;">
  <use xlink:href="#glyph8-1" x="66.9813" y="38.2"/>
</g>
<g style="fill:rgb(36.108398%,67.576599%,93.359375%);fill-opacity:1;">
  <use xlink:href="#glyph9-1" x="3.94688" y="41.8"/>
</g>
<g style="fill:rgb(36.108398%,67.576599%,93.359375%);fill-opacity:1;">
  <use xlink:href="#glyph9-2" x="5.28126" y="23.8"/>
</g>
<g style="fill:rgb(36.108398%,67.576599%,93.359375%);fill-opacity:1;">
  <use xlink:href="#glyph7-5" x="27.39536" y="45.4"/>
</g>
<g style="fill:rgb(36.108398%,67.576599%,93.359375%);fill-opacity:1;">
  <use xlink:href="#glyph10-1" x="30.09536" y="46.59375"/>
</g>
<g style="fill:rgb(36.108398%,67.576599%,93.359375%);fill-opacity:1;">
  <use xlink:href="#glyph7-2" x="31.90434" y="45.4"/>
  <use xlink:href="#glyph7-3" x="33.70254" y="45.4"/>
  <use xlink:href="#glyph7-4" x="35.20374" y="45.4"/>
  <use xlink:href="#glyph7-6" x="37.00194" y="45.4"/>
</g>
<g style="fill:rgb(36.108398%,67.576599%,93.359375%);fill-opacity:1;">
  <use xlink:href="#glyph7-6" x="57.759432" y="45.4"/>
</g>
<path style="fill:none;stroke-width:9.75;stroke-linecap:round;stroke-linejoin:bevel;stroke:rgb(80.076599%,80.076599%,80.076599%);stroke-opacity:1;stroke-miterlimit:6;" d="M 598.75 760 L 598.75 796.015625 " transform="matrix(0.1,0,0,-0.1,0,116)"/>
<path style="fill:none;stroke-width:9.75;stroke-linecap:round;stroke-linejoin:bevel;stroke:rgb(0%,0%,0%);stroke-opacity:1;stroke-miterlimit:6;" d="M 2068.75 880 L 1648.75 880 " transform="matrix(0.1,0,0,-0.1,0,116)"/>
<path style="fill:none;stroke-width:9.75;stroke-linecap:round;stroke-linejoin:bevel;stroke:rgb(0%,0%,0%);stroke-opacity:1;stroke-miterlimit:6;" d="M 748.75 880 L 928.75 880 " transform="matrix(0.1,0,0,-0.1,0,116)"/>
<path style="fill:none;stroke-width:9.75;stroke-linecap:round;stroke-linejoin:bevel;stroke:rgb(0%,0%,0%);stroke-opacity:1;stroke-miterlimit:6;" d="M 748.75 880 L 748.75 760 " transform="matrix(0.1,0,0,-0.1,0,116)"/>
<path style="fill:none;stroke-width:9.75;stroke-linecap:round;stroke-linejoin:bevel;stroke:rgb(0%,0%,0%);stroke-opacity:1;stroke-miterlimit:6;" d="M 2068.75 760 L 2068.75 625 L 1948.75 625 L 1948.75 415 L 2068.75 415 L 2068.75 280 " transform="matrix(0.1,0,0,-0.1,0,116)"/>
<path style="fill:none;stroke-width:9.75;stroke-linecap:round;stroke-linejoin:bevel;stroke:rgb(0%,0%,0%);stroke-opacity:1;stroke-miterlimit:6;" d="M 1903.75 625 L 1903.75 415 " transform="matrix(0.1,0,0,-0.1,0,116)"/>
<path style="fill:none;stroke-width:9.75;stroke-linecap:round;stroke-linejoin:bevel;stroke:rgb(0%,0%,0%);stroke-opacity:1;stroke-miterlimit:6;" d="M 1828.75 520 L 1903.75 520 " transform="matrix(0.1,0,0,-0.1,0,116)"/>
<path style="fill:none;stroke-width:9.75;stroke-linecap:round;stroke-linejoin:bevel;stroke:rgb(0%,0%,0%);stroke-opacity:1;stroke-miterlimit:6;" d="M 1956.25 520 L 2068.75 520 L 2068.75 415 " transform="matrix(0.1,0,0,-0.1,0,116)"/>
<path style=" stroke:none;fill-rule:evenodd;fill:rgb(0%,0%,0%);fill-opacity:1;" d="M 200.875 67 L 194.875 64 L 200.875 61 "/>
<path style="fill:none;stroke-width:9.75;stroke-linecap:round;stroke-linejoin:bevel;stroke:rgb(0%,0%,0%);stroke-opacity:1;stroke-miterlimit:6;" d="M 2008.75 490 L 1948.75 520 L 2008.75 550 Z M 2008.75 490 " transform="matrix(0.1,0,0,-0.1,0,116)"/>
<path style=" stroke:none;fill-rule:evenodd;fill:rgb(0%,0%,0%);fill-opacity:1;" d="M 231.625 70 L 224.875 58 L 218.125 70 "/>
<path style="fill:none;stroke-width:9.75;stroke-linecap:round;stroke-linejoin:bevel;stroke:rgb(0%,0%,0%);stroke-opacity:1;stroke-miterlimit:6;" d="M 2248.75 460 L 2248.75 340 " transform="matrix(0.1,0,0,-0.1,0,116)"/>
<path style="fill:none;stroke-width:9.75;stroke-linecap:round;stroke-linejoin:bevel;stroke:rgb(0%,0%,0%);stroke-opacity:1;stroke-miterlimit:6;" d="M 2248.75 580 L 2248.75 700 " transform="matrix(0.1,0,0,-0.1,0,116)"/>
<path style="fill:none;stroke-width:9.75;stroke-linecap:round;stroke-linejoin:bevel;stroke:rgb(0%,0%,0%);stroke-opacity:1;stroke-miterlimit:6;" d="M 2316.25 580 L 2181.25 580 " transform="matrix(0.1,0,0,-0.1,0,116)"/>
<path style="fill:none;stroke-width:9.75;stroke-linecap:round;stroke-linejoin:bevel;stroke:rgb(0%,0%,0%);stroke-opacity:1;stroke-miterlimit:6;" d="M 2068.75 700 L 2248.75 700 " transform="matrix(0.1,0,0,-0.1,0,116)"/>
<path style="fill:none;stroke-width:9.75;stroke-linecap:round;stroke-linejoin:bevel;stroke:rgb(0%,0%,0%);stroke-opacity:1;stroke-miterlimit:6;" d="M 2068.75 340 L 2248.75 340 " transform="matrix(0.1,0,0,-0.1,0,116)"/>
<path style=" stroke:none;fill-rule:evenodd;fill:rgb(0%,0%,0%);fill-opacity:1;" d="M 209.125 82 C 209.125 80.757812 208.117188 79.75 206.875 79.75 C 205.632812 79.75 204.625 80.757812 204.625 82 C 204.625 83.242188 205.632812 84.25 206.875 84.25 C 208.117188 84.25 209.125 83.242188 209.125 82 "/>
<path style=" stroke:none;fill-rule:evenodd;fill:rgb(0%,0%,0%);fill-opacity:1;" d="M 209.125 46 C 209.125 44.757812 208.117188 43.75 206.875 43.75 C 205.632812 43.75 204.625 44.757812 204.625 46 C 204.625 47.242188 205.632812 48.25 206.875 48.25 C 208.117188 48.25 209.125 47.242188 209.125 46 "/>
<path style=" stroke:none;fill-rule:evenodd;fill:rgb(0%,0%,0%);fill-opacity:1;" d="M 230.875 34.75 L 242.875 28 L 230.875 21.25 "/>
<path style="fill:none;stroke-width:9.75;stroke-linecap:round;stroke-linejoin:bevel;stroke:rgb(0%,0%,0%);stroke-opacity:1;stroke-miterlimit:6;" d="M 2308.75 880 L 2188.75 880 " transform="matrix(0.1,0,0,-0.1,0,116)"/>
<path style="fill:none;stroke-width:9.75;stroke-linecap:round;stroke-linejoin:bevel;stroke:rgb(0%,0%,0%);stroke-opacity:1;stroke-miterlimit:6;" d="M 2428.75 880 L 2548.75 880 " transform="matrix(0.1,0,0,-0.1,0,116)"/>
<path style="fill:none;stroke-width:9.75;stroke-linecap:round;stroke-linejoin:bevel;stroke:rgb(0%,0%,0%);stroke-opacity:1;stroke-miterlimit:6;" d="M 2428.75 812.5 L 2428.75 947.5 " transform="matrix(0.1,0,0,-0.1,0,116)"/>
<path style="fill:none;stroke-width:9.75;stroke-linecap:round;stroke-linejoin:bevel;stroke:rgb(0%,0%,0%);stroke-opacity:1;stroke-miterlimit:6;" d="M 2068.75 880 L 2068.75 760 " transform="matrix(0.1,0,0,-0.1,0,116)"/>
<path style=" stroke:none;fill-rule:evenodd;fill:rgb(0%,0%,0%);fill-opacity:1;" d="M 209.125 28 C 209.125 26.757812 208.117188 25.75 206.875 25.75 C 205.632812 25.75 204.625 26.757812 204.625 28 C 204.625 29.242188 205.632812 30.25 206.875 30.25 C 208.117188 30.25 209.125 29.242188 209.125 28 "/>
<path style="fill:none;stroke-width:9.75;stroke-linecap:round;stroke-linejoin:bevel;stroke:rgb(0%,0%,0%);stroke-opacity:1;stroke-miterlimit:6;" d="M 2068.75 160 L 2068.75 280 " transform="matrix(0.1,0,0,-0.1,0,116)"/>
<path style="fill:none;stroke-width:9.75;stroke-linecap:round;stroke-linejoin:bevel;stroke:rgb(0%,0%,0%);stroke-opacity:1;stroke-miterlimit:6;" d="M 1746.25 520 C 1746.25 532.421875 1756.328125 542.5 1768.75 542.5 C 1781.171875 542.5 1791.25 532.421875 1791.25 520 C 1791.25 507.578125 1781.171875 497.5 1768.75 497.5 C 1756.328125 497.5 1746.25 507.578125 1746.25 520 " transform="matrix(0.1,0,0,-0.1,0,116)"/>
<path style="fill:none;stroke-width:9.75;stroke-linecap:round;stroke-linejoin:bevel;stroke:rgb(0%,0%,0%);stroke-opacity:1;stroke-miterlimit:6;" d="M 1791.25 520 L 1828.75 520 " transform="matrix(0.1,0,0,-0.1,0,116)"/>
<path style="fill:none;stroke-width:9.75;stroke-linecap:round;stroke-linejoin:bevel;stroke:rgb(0%,0%,0%);stroke-opacity:1;stroke-miterlimit:6;" d="M 2218.75 880 L 2068.75 880 " transform="matrix(0.1,0,0,-0.1,0,116)"/>
<g style="fill:rgb(0%,0%,0%);fill-opacity:1;">
  <use xlink:href="#glyph11-1" x="188.306" y="88"/>
</g>
<g style="fill:rgb(0%,0%,0%);fill-opacity:1;">
  <use xlink:href="#glyph11-2" x="217.5419" y="40"/>
</g>
<g style="fill:rgb(0%,0%,100%);fill-opacity:1;">
  <use xlink:href="#glyph1-1" x="137.625" y="67"/>
</g>
<g style="fill:rgb(0%,0%,100%);fill-opacity:1;">
  <use xlink:href="#glyph12-1" x="142.95313" y="71.43086"/>
</g>
<g style="fill:rgb(0%,0%,100%);fill-opacity:1;">
  <use xlink:href="#glyph1-2" x="145.64649" y="67"/>
  <use xlink:href="#glyph1-3" x="149.64249" y="67"/>
  <use xlink:href="#glyph1-4" x="152.97849" y="67"/>
</g>
<g style="fill:rgb(0%,0%,100%);fill-opacity:1;">
  <use xlink:href="#glyph3-1" x="146.425006" y="52"/>
</g>
<g style="fill:rgb(0%,0%,100%);fill-opacity:1;">
  <use xlink:href="#glyph3-2" x="143.290636" y="85"/>
</g>
<path style="fill:none;stroke-width:9.75;stroke-linecap:round;stroke-linejoin:bevel;stroke:rgb(0%,0%,0%);stroke-opacity:1;stroke-miterlimit:6;" d="M 1648.75 160 L 2608.75 160 " transform="matrix(0.1,0,0,-0.1,0,116)"/>
<path style=" stroke:none;fill-rule:evenodd;fill:rgb(64.646912%,16.50238%,16.50238%);fill-opacity:1;" d="M 275.875 31 L 281.875 28 L 275.875 25 "/>
<path style="fill:none;stroke-width:9.75;stroke-linecap:round;stroke-linejoin:bevel;stroke:rgb(64.646912%,16.50238%,16.50238%);stroke-opacity:1;stroke-miterlimit:6;" d="M 2758.75 850 L 2818.75 880 L 2758.75 910 Z M 2758.75 850 " transform="matrix(0.1,0,0,-0.1,0,116)"/>
<g style="fill:rgb(64.646912%,16.50238%,16.50238%);fill-opacity:1;">
  <use xlink:href="#glyph1-5" x="269.291" y="19"/>
</g>
<g style="fill:rgb(64.646912%,16.50238%,16.50238%);fill-opacity:1;">
  <use xlink:href="#glyph2-4" x="272.62694" y="21.65313"/>
</g>
<g style="fill:rgb(64.646912%,16.50238%,16.50238%);fill-opacity:1;">
  <use xlink:href="#glyph1-2" x="276.64686" y="19"/>
  <use xlink:href="#glyph1-3" x="280.64286" y="19"/>
  <use xlink:href="#glyph1-4" x="283.97886" y="19"/>
</g>
<g style="fill:rgb(82.421875%,3.900146%,86.326599%);fill-opacity:1;">
  <use xlink:href="#glyph1-1" x="263.625" y="67"/>
</g>
<g style="fill:rgb(82.421875%,3.900146%,86.326599%);fill-opacity:1;">
  <use xlink:href="#glyph2-4" x="268.95313" y="69.65313"/>
</g>
<g style="fill:rgb(82.421875%,3.900146%,86.326599%);fill-opacity:1;">
  <use xlink:href="#glyph1-2" x="272.97305" y="67"/>
  <use xlink:href="#glyph1-3" x="276.96905" y="67"/>
  <use xlink:href="#glyph1-4" x="280.30505" y="67"/>
</g>
<g style="fill:rgb(82.421875%,3.900146%,86.326599%);fill-opacity:1;">
  <use xlink:href="#glyph3-1" x="272.425003" y="52"/>
</g>
<g style="fill:rgb(82.421875%,3.900146%,86.326599%);fill-opacity:1;">
  <use xlink:href="#glyph3-2" x="269.290633" y="85"/>
</g>
<path style="fill:none;stroke-width:29.25;stroke-linecap:round;stroke-linejoin:bevel;stroke:rgb(0%,0%,0%);stroke-opacity:1;stroke-dasharray:1.875,117;stroke-miterlimit:6;" d="M 1648.75 40 L 2608.75 40 L 2608.75 1120 L 1648.75 1120 Z M 1648.75 40 " transform="matrix(0.1,0,0,-0.1,0,116)"/>
<path style="fill:none;stroke-width:9.75;stroke-linecap:round;stroke-linejoin:bevel;stroke:rgb(0%,0%,0%);stroke-opacity:1;stroke-miterlimit:6;" d="M 2608.75 880 L 2518.75 880 " transform="matrix(0.1,0,0,-0.1,0,116)"/>
<path style="fill:none;stroke-width:9.75;stroke-linecap:round;stroke-linejoin:bevel;stroke:rgb(0%,0%,0%);stroke-opacity:1;stroke-miterlimit:6;" d="M 1678.75 880 L 1318.75 880 " transform="matrix(0.1,0,0,-0.1,0,116)"/>
<path style="fill:none;stroke-width:9.75;stroke-linecap:round;stroke-linejoin:bevel;stroke:rgb(0%,0%,0%);stroke-opacity:1;stroke-miterlimit:6;" d="M 2908.75 880 L 2578.75 880 " transform="matrix(0.1,0,0,-0.1,0,116)"/>
<path style="fill:none;stroke-width:9.75;stroke-linecap:round;stroke-linejoin:bevel;stroke:rgb(0%,0%,0%);stroke-opacity:1;stroke-miterlimit:6;" d="M 3448.75 280 L 3448.75 160 L 2608.75 160 " transform="matrix(0.1,0,0,-0.1,0,116)"/>
<path style="fill:none;stroke-width:9.75;stroke-linecap:round;stroke-linejoin:bevel;stroke:rgb(0%,0%,0%);stroke-opacity:1;stroke-miterlimit:6;" d="M 3028.75 497.5 L 3028.75 280 " transform="matrix(0.1,0,0,-0.1,0,116)"/>
<path style="fill:none;stroke-width:9.75;stroke-linecap:round;stroke-linejoin:bevel;stroke:rgb(0%,0%,0%);stroke-opacity:1;stroke-miterlimit:6;" d="M 3028.75 542.5 L 3028.75 760 " transform="matrix(0.1,0,0,-0.1,0,116)"/>
<path style="fill:none;stroke-width:9.75;stroke-linecap:round;stroke-linejoin:bevel;stroke:rgb(0%,0%,0%);stroke-opacity:1;stroke-miterlimit:6;" d="M 3148.75 542.5 L 2908.75 542.5 " transform="matrix(0.1,0,0,-0.1,0,116)"/>
<path style="fill:none;stroke-width:9.75;stroke-linecap:round;stroke-linejoin:bevel;stroke:rgb(0%,0%,0%);stroke-opacity:1;stroke-miterlimit:6;" d="M 3148.75 497.5 L 2908.75 497.5 " transform="matrix(0.1,0,0,-0.1,0,116)"/>
</g>
</svg>
