<?xml version="1.0" encoding="UTF-8"?>
<svg xmlns="http://www.w3.org/2000/svg" xmlns:xlink="http://www.w3.org/1999/xlink" width="538pt" height="317pt" viewBox="0 0 538 317" version="1.1">
<defs>
<g>
<symbol overflow="visible" id="glyph0-0">
<path style="stroke:none;" d=""/>
</symbol>
<symbol overflow="visible" id="glyph0-1">
<path style="stroke:none;" d="M 9.296875 -6.75 L 9.171875 -10.140625 L 8.84375 -10.140625 C 8.765625 -9.828125 8.515625 -9.640625 8.21875 -9.640625 C 8.078125 -9.640625 7.859375 -9.6875 7.640625 -9.78125 C 6.90625 -10.015625 6.15625 -10.140625 5.4375 -10.140625 C 4.21875 -10.140625 2.96875 -9.671875 2.046875 -8.84375 C 0.984375 -7.921875 0.421875 -6.53125 0.421875 -4.875 C 0.421875 -3.484375 0.875 -2.1875 1.640625 -1.328125 C 2.53125 -0.359375 3.921875 0.203125 5.40625 0.203125 C 7.09375 0.203125 8.578125 -0.484375 9.5 -1.6875 L 9.21875 -1.96875 C 8.109375 -0.90625 7.125 -0.453125 5.875 -0.453125 C 4.9375 -0.453125 4.09375 -0.75 3.453125 -1.3125 C 2.625 -2.0625 2.15625 -3.40625 2.15625 -5.0625 C 2.15625 -7.78125 3.5625 -9.546875 5.734375 -9.546875 C 6.578125 -9.546875 7.359375 -9.21875 7.96875 -8.625 C 8.4375 -8.140625 8.671875 -7.71875 8.953125 -6.75 Z M 9.296875 -6.75 "/>
</symbol>
<symbol overflow="visible" id="glyph0-2">
<path style="stroke:none;" d="M 9.890625 -0.28125 C 9.3125 -0.328125 9.015625 -0.484375 8.578125 -0.984375 L 5.484375 -4.78125 C 6.5 -4.984375 6.9375 -5.15625 7.4375 -5.5625 C 7.921875 -5.953125 8.203125 -6.578125 8.203125 -7.296875 C 8.203125 -7.9375 8.015625 -8.484375 7.625 -8.921875 C 7.046875 -9.546875 5.8125 -9.9375 4.390625 -9.9375 L 0.25 -9.9375 L 0.25 -9.640625 C 1.375 -9.53125 1.53125 -9.359375 1.53125 -8.296875 L 1.53125 -1.796875 C 1.53125 -0.5625 1.375 -0.375 0.25 -0.28125 L 0.25 0 L 4.40625 0 L 4.40625 -0.28125 C 3.25 -0.359375 3.0625 -0.5625 3.0625 -1.640625 L 3.0625 -4.59375 L 3.90625 -4.625 L 7.46875 0 L 9.890625 0 Z M 3.0625 -8.828125 C 3.0625 -9.25 3.21875 -9.375 3.828125 -9.375 C 5.703125 -9.375 6.5625 -8.734375 6.5625 -7.3125 C 6.5625 -6.5625 6.25 -5.9375 5.71875 -5.65625 C 5.03125 -5.265625 4.5 -5.171875 3.0625 -5.140625 Z M 3.0625 -8.828125 "/>
</symbol>
<symbol overflow="visible" id="glyph0-3">
<path style="stroke:none;" d="M 10.453125 -9.9375 L 7.375 -9.9375 L 7.375 -9.640625 C 8.203125 -9.59375 8.46875 -9.4375 8.46875 -9.015625 C 8.46875 -8.78125 8.375 -8.375 8.1875 -7.921875 L 5.984375 -2.421875 L 3.71875 -7.484375 C 3.21875 -8.578125 3.109375 -8.921875 3.109375 -9.15625 C 3.109375 -9.4375 3.3125 -9.578125 3.796875 -9.609375 C 3.859375 -9.609375 4.015625 -9.625 4.234375 -9.640625 L 4.234375 -9.9375 L 0.234375 -9.9375 L 0.234375 -9.640625 C 0.96875 -9.609375 1.1875 -9.40625 1.828125 -8.0625 L 5.515625 0.171875 L 5.75 0.171875 L 9.078125 -8.25 C 9.5625 -9.4375 9.734375 -9.59375 10.453125 -9.640625 Z M 10.453125 -9.9375 "/>
</symbol>
<symbol overflow="visible" id="glyph0-4">
<path style="stroke:none;" d="M 10.515625 2.390625 C 8.8125 2.34375 7.609375 1.6875 6.390625 0.109375 C 7.40625 -0.09375 7.953125 -0.34375 8.640625 -0.9375 C 9.75 -1.9375 10.3125 -3.296875 10.3125 -4.96875 C 10.3125 -7.984375 8.28125 -10.140625 5.421875 -10.140625 C 2.546875 -10.140625 0.515625 -7.984375 0.515625 -4.9375 C 0.515625 -3.46875 0.953125 -2.234375 1.84375 -1.28125 C 2.4375 -0.640625 2.90625 -0.34375 3.96875 0.015625 L 4.6875 0.84375 C 5.703125 2.03125 7.515625 2.671875 9.90625 2.671875 C 10.125 2.671875 10.265625 2.671875 10.421875 2.65625 L 10.515625 2.65625 Z M 5.453125 -9.59375 C 6.109375 -9.59375 6.796875 -9.3125 7.3125 -8.84375 C 8.125 -8.125 8.609375 -6.6875 8.609375 -5 C 8.609375 -3.515625 8.171875 -1.984375 7.578125 -1.296875 C 7.015625 -0.671875 6.234375 -0.328125 5.421875 -0.328125 C 4.6875 -0.328125 4.03125 -0.578125 3.5 -1.0625 C 2.703125 -1.765625 2.21875 -3.265625 2.21875 -5.03125 C 2.21875 -6.46875 2.65625 -7.9375 3.265625 -8.625 C 3.890625 -9.28125 4.59375 -9.59375 5.453125 -9.59375 Z M 5.453125 -9.59375 "/>
</symbol>
<symbol overflow="visible" id="glyph0-5">
<path style="stroke:none;" d="M 1.5625 -1.640625 C 1.5625 -0.5625 1.375 -0.359375 0.234375 -0.28125 L 0.234375 0 L 4.5 0 C 6.234375 0 7.8125 -0.5 8.75 -1.328125 C 9.71875 -2.21875 10.28125 -3.5625 10.28125 -5.015625 C 10.28125 -6.359375 9.828125 -7.53125 9 -8.359375 C 7.984375 -9.390625 6.34375 -9.9375 4.296875 -9.9375 L 0.234375 -9.9375 L 0.234375 -9.640625 C 1.421875 -9.546875 1.5625 -9.40625 1.5625 -8.296875 Z M 3.09375 -8.796875 C 3.09375 -9.25 3.25 -9.375 3.875 -9.375 C 5.15625 -9.375 6.140625 -9.140625 6.859375 -8.625 C 8.03125 -7.8125 8.640625 -6.53125 8.640625 -4.90625 C 8.640625 -3.140625 8.03125 -1.875 6.8125 -1.171875 C 6.046875 -0.734375 5.171875 -0.5625 3.875 -0.5625 C 3.265625 -0.5625 3.09375 -0.6875 3.09375 -1.171875 Z M 3.09375 -8.796875 "/>
</symbol>
<symbol overflow="visible" id="glyph1-0">
<path style="stroke:none;" d=""/>
</symbol>
<symbol overflow="visible" id="glyph1-1">
<path style="stroke:none;" d="M 2.921875 -6.796875 L 1.109375 -5.875 L 1.109375 -5.734375 C 1.234375 -5.78125 1.34375 -5.828125 1.390625 -5.84375 C 1.5625 -5.921875 1.734375 -5.953125 1.84375 -5.953125 C 2.046875 -5.953125 2.140625 -5.8125 2.140625 -5.484375 L 2.140625 -0.9375 C 2.140625 -0.609375 2.0625 -0.375 1.90625 -0.28125 C 1.75 -0.1875 1.609375 -0.15625 1.1875 -0.15625 L 1.1875 0 L 3.953125 0 L 3.953125 -0.15625 C 3.171875 -0.15625 3 -0.265625 3 -0.75 L 3 -6.765625 Z M 2.921875 -6.796875 "/>
</symbol>
<symbol overflow="visible" id="glyph1-2">
<path style="stroke:none;" d="M 4.765625 -1.375 L 4.640625 -1.421875 C 4.265625 -0.859375 4.140625 -0.765625 3.6875 -0.765625 L 1.28125 -0.765625 L 2.96875 -2.53125 C 3.875 -3.46875 4.265625 -4.234375 4.265625 -5.015625 C 4.265625 -6.015625 3.453125 -6.796875 2.40625 -6.796875 C 1.84375 -6.796875 1.328125 -6.578125 0.953125 -6.171875 C 0.640625 -5.828125 0.484375 -5.5 0.3125 -4.796875 L 0.515625 -4.734375 C 0.921875 -5.734375 1.28125 -6.046875 1.984375 -6.046875 C 2.828125 -6.046875 3.390625 -5.46875 3.390625 -4.625 C 3.390625 -3.84375 2.9375 -2.90625 2.09375 -2.015625 L 0.296875 -0.125 L 0.296875 0 L 4.21875 0 Z M 4.765625 -1.375 "/>
</symbol>
<symbol overflow="visible" id="glyph1-3">
<path style="stroke:none;" d="M 1.53125 -3.3125 C 2.125 -3.3125 2.359375 -3.296875 2.609375 -3.203125 C 3.21875 -2.984375 3.609375 -2.40625 3.609375 -1.71875 C 3.609375 -0.875 3.046875 -0.21875 2.296875 -0.21875 C 2.03125 -0.21875 1.828125 -0.296875 1.453125 -0.53125 C 1.15625 -0.71875 0.984375 -0.78125 0.8125 -0.78125 C 0.578125 -0.78125 0.4375 -0.640625 0.4375 -0.4375 C 0.4375 -0.078125 0.859375 0.140625 1.5625 0.140625 C 2.34375 0.140625 3.140625 -0.125 3.609375 -0.53125 C 4.078125 -0.9375 4.34375 -1.53125 4.34375 -2.203125 C 4.34375 -2.71875 4.171875 -3.1875 3.890625 -3.5 C 3.6875 -3.71875 3.5 -3.84375 3.046875 -4.03125 C 3.75 -4.5 4 -4.875 4 -5.421875 C 4 -6.234375 3.359375 -6.796875 2.4375 -6.796875 C 1.921875 -6.796875 1.484375 -6.625 1.125 -6.296875 C 0.828125 -6.03125 0.671875 -5.765625 0.453125 -5.171875 L 0.609375 -5.125 C 1.015625 -5.859375 1.46875 -6.1875 2.09375 -6.1875 C 2.75 -6.1875 3.203125 -5.75 3.203125 -5.109375 C 3.203125 -4.75 3.046875 -4.390625 2.796875 -4.140625 C 2.5 -3.84375 2.21875 -3.6875 1.53125 -3.453125 Z M 1.53125 -3.3125 "/>
</symbol>
<symbol overflow="visible" id="glyph1-4">
<path style="stroke:none;" d="M 3.625 -6.796875 C 1.703125 -6.796875 0.34375 -5.34375 0.34375 -3.328125 C 0.34375 -2.375 0.65625 -1.46875 1.203125 -0.890625 C 1.78125 -0.25 2.6875 0.140625 3.5625 0.140625 C 5.546875 0.140625 6.90625 -1.265625 6.90625 -3.28125 C 6.90625 -4.28125 6.625 -5.140625 6.0625 -5.734375 C 5.4375 -6.4375 4.59375 -6.796875 3.625 -6.796875 Z M 3.625 -6.4375 C 4.09375 -6.4375 4.546875 -6.25 4.90625 -5.921875 C 5.453125 -5.4375 5.765625 -4.484375 5.765625 -3.296875 C 5.765625 -2.703125 5.640625 -2.015625 5.4375 -1.484375 C 5.34375 -1.234375 5.171875 -0.984375 4.9375 -0.75 C 4.59375 -0.40625 4.140625 -0.21875 3.609375 -0.21875 C 3.140625 -0.21875 2.6875 -0.40625 2.34375 -0.71875 C 1.8125 -1.171875 1.484375 -2.1875 1.484375 -3.3125 C 1.484375 -4.328125 1.765625 -5.3125 2.1875 -5.78125 C 2.578125 -6.203125 3.078125 -6.4375 3.625 -6.4375 Z M 3.625 -6.4375 "/>
</symbol>
<symbol overflow="visible" id="glyph1-5">
<path style="stroke:none;" d="M 6.140625 -5.171875 C 6.140625 -6.203125 6.265625 -6.359375 7.078125 -6.453125 L 7.078125 -6.65625 L 4.75 -6.65625 L 4.75 -6.453125 C 5.53125 -6.40625 5.703125 -6.171875 5.703125 -5.171875 L 5.703125 -2.46875 C 5.703125 -1.78125 5.625 -1.390625 5.46875 -1.09375 C 5.1875 -0.609375 4.546875 -0.296875 3.796875 -0.296875 C 3.078125 -0.296875 2.59375 -0.546875 2.328125 -1.015625 C 2.140625 -1.34375 2.0625 -1.703125 2.0625 -2.34375 L 2.0625 -5.5625 C 2.0625 -6.28125 2.1875 -6.390625 2.984375 -6.453125 L 2.984375 -6.65625 L 0.140625 -6.65625 L 0.140625 -6.453125 C 0.9375 -6.40625 1.046875 -6.296875 1.046875 -5.5625 L 1.046875 -2.421875 C 1.046875 -0.6875 1.859375 0.140625 3.5625 0.140625 C 4.65625 0.140625 5.421875 -0.21875 5.8125 -0.890625 C 6.046875 -1.3125 6.140625 -1.78125 6.140625 -2.546875 Z M 6.140625 -5.171875 "/>
</symbol>
<symbol overflow="visible" id="glyph1-6">
<path style="stroke:none;" d="M 2.546875 -6.234375 L 2.546875 -1.203125 C 2.546875 -0.359375 2.4375 -0.234375 1.609375 -0.1875 L 1.609375 0 L 4.546875 0 L 4.546875 -0.1875 C 3.71875 -0.234375 3.578125 -0.359375 3.578125 -1.09375 L 3.578125 -6.234375 L 4.125 -6.234375 C 5.265625 -6.234375 5.484375 -6.046875 5.71875 -4.9375 L 5.953125 -4.9375 L 5.890625 -6.65625 L 0.234375 -6.65625 L 0.171875 -4.9375 L 0.40625 -4.9375 C 0.65625 -6.03125 0.890625 -6.234375 2.015625 -6.234375 Z M 2.546875 -6.234375 "/>
</symbol>
<symbol overflow="visible" id="glyph1-7">
<path style="stroke:none;" d="M 5.75 -1.75 C 5.59375 -1.359375 5.453125 -1.140625 5.296875 -0.96875 C 4.9375 -0.578125 4.390625 -0.390625 3.5625 -0.390625 L 2.890625 -0.390625 C 2.15625 -0.390625 2.015625 -0.453125 2.015625 -0.796875 L 2.015625 -5.5625 C 2.015625 -6.265625 2.15625 -6.40625 2.953125 -6.453125 L 2.953125 -6.65625 L 0.125 -6.65625 L 0.125 -6.453125 C 0.859375 -6.40625 1 -6.265625 1 -5.5625 L 1 -1.09375 C 1 -0.390625 0.859375 -0.234375 0.125 -0.1875 L 0.125 0 L 5.53125 0 L 6.015625 -1.75 Z M 5.75 -1.75 "/>
</symbol>
<symbol overflow="visible" id="glyph1-8">
<path style="stroke:none;" d="M 7.09375 -0.1875 C 6.640625 -0.21875 6.546875 -0.328125 6.1875 -1.0625 L 3.6875 -6.765625 L 3.484375 -6.765625 L 1.390625 -1.84375 C 0.75 -0.375 0.640625 -0.21875 0.15625 -0.1875 L 0.15625 0 L 2.140625 0 L 2.140625 -0.1875 C 1.65625 -0.1875 1.453125 -0.328125 1.453125 -0.609375 C 1.453125 -0.71875 1.484375 -0.859375 1.53125 -1 L 2 -2.171875 L 4.625 -2.171875 L 5.046875 -1.203125 C 5.171875 -0.9375 5.234375 -0.671875 5.234375 -0.53125 C 5.234375 -0.28125 5.0625 -0.203125 4.53125 -0.1875 L 4.53125 0 L 7.09375 0 Z M 2.171875 -2.578125 L 3.328125 -5.34375 L 4.484375 -2.578125 Z M 2.171875 -2.578125 "/>
</symbol>
<symbol overflow="visible" id="glyph1-9">
<path style="stroke:none;" d="M 1.046875 -1.09375 C 1.046875 -0.375 0.921875 -0.234375 0.15625 -0.1875 L 0.15625 0 L 3.015625 0 C 4.171875 0 5.234375 -0.328125 5.859375 -0.890625 C 6.515625 -1.484375 6.875 -2.375 6.875 -3.359375 C 6.875 -4.265625 6.578125 -5.046875 6.03125 -5.59375 C 5.34375 -6.296875 4.25 -6.65625 2.875 -6.65625 L 0.15625 -6.65625 L 0.15625 -6.453125 C 0.953125 -6.390625 1.046875 -6.296875 1.046875 -5.5625 Z M 2.0625 -5.890625 C 2.0625 -6.203125 2.1875 -6.28125 2.59375 -6.28125 C 3.453125 -6.28125 4.109375 -6.125 4.59375 -5.78125 C 5.375 -5.234375 5.78125 -4.375 5.78125 -3.28125 C 5.78125 -2.09375 5.375 -1.25 4.5625 -0.78125 C 4.046875 -0.5 3.46875 -0.375 2.59375 -0.375 C 2.1875 -0.375 2.0625 -0.46875 2.0625 -0.78125 Z M 2.0625 -5.890625 "/>
</symbol>
<symbol overflow="visible" id="glyph1-10">
<path style="stroke:none;" d="M 1.15625 -1.09375 C 1.15625 -0.34375 1.03125 -0.21875 0.1875 -0.1875 L 0.1875 0 L 3.171875 0 L 3.171875 -0.1875 C 2.34375 -0.21875 2.1875 -0.359375 2.1875 -1.09375 L 2.1875 -5.5625 C 2.1875 -6.296875 2.328125 -6.421875 3.171875 -6.453125 L 3.171875 -6.65625 L 0.1875 -6.65625 L 0.1875 -6.453125 C 1.03125 -6.40625 1.15625 -6.296875 1.15625 -5.5625 Z M 1.15625 -1.09375 "/>
</symbol>
<symbol overflow="visible" id="glyph1-11">
<path style="stroke:none;" d="M 6.15625 0.109375 L 6.15625 -5.171875 C 6.15625 -5.78125 6.25 -6.15625 6.4375 -6.28125 C 6.578125 -6.375 6.71875 -6.421875 7.109375 -6.453125 L 7.109375 -6.65625 L 4.734375 -6.65625 L 4.734375 -6.453125 C 5.125 -6.4375 5.265625 -6.390625 5.421875 -6.296875 C 5.609375 -6.15625 5.703125 -5.796875 5.703125 -5.171875 L 5.703125 -1.78125 L 1.84375 -6.65625 L 0.125 -6.65625 L 0.125 -6.453125 C 0.546875 -6.453125 0.6875 -6.375 1.09375 -5.90625 L 1.09375 -1.484375 C 1.09375 -0.4375 0.953125 -0.25 0.125 -0.1875 L 0.125 0 L 2.484375 0 L 2.484375 -0.1875 C 1.703125 -0.234375 1.53125 -0.46875 1.53125 -1.484375 L 1.53125 -5.421875 L 5.984375 0.109375 Z M 6.15625 0.109375 "/>
</symbol>
<symbol overflow="visible" id="glyph1-12">
<path style="stroke:none;" d="M 4.734375 -2.328125 L 3.71875 -2.328125 L 3.71875 -6.796875 L 3.28125 -6.796875 L 0.125 -2.328125 L 0.125 -1.671875 L 2.9375 -1.671875 L 2.9375 0 L 3.71875 0 L 3.71875 -1.671875 L 4.734375 -1.671875 Z M 2.9375 -2.328125 L 0.515625 -2.328125 L 2.9375 -5.765625 Z M 2.9375 -2.328125 "/>
</symbol>
<symbol overflow="visible" id="glyph2-0">
<path style="stroke:none;" d=""/>
</symbol>
<symbol overflow="visible" id="glyph2-1">
<path style="stroke:none;" d="M 0.25 -4.84375 C 0.390625 -4.84375 0.484375 -4.84375 0.609375 -4.84375 C 1.078125 -4.84375 1.203125 -4.640625 1.375 -3.546875 C 1.484375 -2.71875 1.625 -0.90625 1.625 -0.203125 C 1.625 0.125 1.65625 0.21875 1.734375 0.21875 C 2.046875 0.21875 3.15625 -1.0625 4.375 -2.765625 C 4.796875 -3.359375 5.109375 -4.140625 5.109375 -4.578125 C 5.109375 -4.96875 4.796875 -5.296875 4.4375 -5.296875 C 4.171875 -5.296875 4 -5.140625 4 -4.890625 C 4 -4.6875 4.0625 -4.546875 4.28125 -4.359375 C 4.4375 -4.21875 4.5 -4.109375 4.5 -4 C 4.5 -3.4375 3.703125 -2.109375 2.859375 -1.21875 L 2.484375 -0.84375 C 2.40625 -2.53125 2.328125 -3.15625 2.171875 -4.046875 C 1.9375 -5.265625 1.9375 -5.296875 1.828125 -5.296875 C 1.765625 -5.296875 1.6875 -5.28125 1.578125 -5.25 C 1.375 -5.1875 0.703125 -5.0625 0.25 -4.984375 Z M 0.25 -4.84375 "/>
</symbol>
<symbol overflow="visible" id="glyph2-2">
<path style="stroke:none;" d="M 1.90625 2.09375 C 1.46875 0.890625 1.328125 0.125 1.328125 -1.015625 C 1.328125 -2.453125 1.6875 -4.1875 2.234375 -5.515625 C 2.609375 -6.46875 3 -7.03125 3.78125 -7.84375 L 3.625 -8.03125 C 2.0625 -6.609375 1.453125 -5.8125 0.953125 -4.578125 C 0.640625 -3.8125 0.5 -3.078125 0.5 -2.15625 C 0.5 -1.234375 0.640625 -0.34375 0.90625 0.484375 C 1.078125 1.015625 1.265625 1.375 1.6875 2.171875 Z M 1.90625 2.09375 "/>
</symbol>
<symbol overflow="visible" id="glyph2-3">
<path style="stroke:none;" d="M 3.546875 -5.140625 L 2.59375 -5.140625 L 2.921875 -6.375 C 2.9375 -6.390625 2.9375 -6.421875 2.9375 -6.4375 C 2.9375 -6.515625 2.90625 -6.546875 2.84375 -6.546875 C 2.765625 -6.546875 2.734375 -6.546875 2.65625 -6.4375 C 2.203125 -5.828125 1.453125 -5.234375 1.0625 -5.125 C 0.765625 -5.03125 0.6875 -4.953125 0.6875 -4.828125 C 0.6875 -4.8125 0.6875 -4.78125 0.703125 -4.75 L 1.578125 -4.75 L 0.71875 -1.453125 C 0.703125 -1.34375 0.6875 -1.3125 0.640625 -1.203125 C 0.546875 -0.84375 0.4375 -0.421875 0.4375 -0.328125 C 0.4375 -0.0625 0.703125 0.125 1.015625 0.125 C 1.578125 0.125 1.96875 -0.203125 2.71875 -1.3125 L 2.5625 -1.40625 C 1.984375 -0.640625 1.78125 -0.453125 1.59375 -0.453125 C 1.484375 -0.453125 1.421875 -0.546875 1.421875 -0.703125 C 1.421875 -0.703125 1.421875 -0.71875 1.421875 -0.75 L 2.484375 -4.75 L 3.484375 -4.75 Z M 3.546875 -5.140625 "/>
</symbol>
<symbol overflow="visible" id="glyph2-4">
<path style="stroke:none;" d="M 0.34375 2.15625 C 1.84375 0.859375 2.453125 0.09375 2.984375 -1.21875 C 3.328125 -2 3.46875 -2.765625 3.46875 -3.640625 C 3.46875 -4.328125 3.375 -5.09375 3.203125 -5.8125 C 3 -6.640625 2.8125 -7.0625 2.28125 -8.03125 L 2.046875 -7.96875 C 2.453125 -7 2.640625 -6.03125 2.640625 -4.828125 C 2.640625 -3.296875 2.234375 -1.359375 1.625 -0.078125 C 1.28125 0.703125 0.921875 1.21875 0.1875 1.984375 Z M 0.34375 2.15625 "/>
</symbol>
<symbol overflow="visible" id="glyph2-5">
<path style="stroke:none;" d="M 3.65625 -3.4375 L 1.03125 -3.4375 L 1.03125 -2.640625 L 3.65625 -2.640625 L 3.65625 0 L 4.453125 0 L 4.453125 -2.640625 L 7.078125 -2.640625 L 7.078125 -3.4375 L 4.453125 -3.4375 L 4.453125 -6.078125 L 3.65625 -6.078125 Z M 3.65625 -3.4375 "/>
</symbol>
<symbol overflow="visible" id="glyph2-6">
<path style="stroke:none;" d="M 3.390625 -3.0625 L 0.75 -3.0625 L 0.59375 -2.296875 L 3.234375 -2.296875 Z M 3.390625 -3.0625 "/>
</symbol>
<symbol overflow="visible" id="glyph3-0">
<path style="stroke:none;" d=""/>
</symbol>
<symbol overflow="visible" id="glyph3-1">
<path style="stroke:none;" d="M 3.8125 -5.359375 C 3.140625 -5.359375 2.40625 -5.03125 1.765625 -4.453125 C 0.953125 -3.703125 0.484375 -2.71875 0.484375 -1.78125 C 0.484375 -0.65625 1.21875 0.140625 2.234375 0.140625 C 3.90625 0.140625 5.53125 -1.546875 5.625 -3.359375 C 5.6875 -4.5 4.890625 -5.359375 3.8125 -5.359375 Z M 3.734375 -5.09375 C 4.375 -5.09375 4.78125 -4.625 4.78125 -3.875 C 4.78125 -3 4.40625 -1.828125 3.875 -1.0625 C 3.4375 -0.4375 2.9375 -0.125 2.375 -0.125 C 1.703125 -0.125 1.328125 -0.609375 1.328125 -1.484375 C 1.328125 -2.234375 1.734375 -3.4375 2.21875 -4.140625 C 2.65625 -4.78125 3.15625 -5.09375 3.734375 -5.09375 Z M 3.734375 -5.09375 "/>
</symbol>
<symbol overflow="visible" id="glyph3-2">
<path style="stroke:none;" d="M 6.15625 -5.25 L 4.546875 -5.25 L 4.546875 -5.125 C 4.8125 -5.109375 4.890625 -5.078125 4.984375 -5.015625 C 5.0625 -4.96875 5.125 -4.859375 5.125 -4.75 C 5.125 -4.625 4.921875 -3.8125 4.53125 -2.453125 C 4.5 -2.34375 4.46875 -2.203125 4.421875 -2.046875 C 4.28125 -1.53125 4.15625 -1.203125 3.984375 -0.9375 C 3.671875 -0.4375 3.234375 -0.1875 2.671875 -0.1875 C 2 -0.1875 1.546875 -0.578125 1.546875 -1.140625 C 1.546875 -1.40625 1.796875 -2.375 2.328125 -4.234375 C 2.34375 -4.296875 2.359375 -4.359375 2.375 -4.390625 C 2.546875 -4.953125 2.671875 -5.0625 3.21875 -5.125 L 3.21875 -5.25 L 1.015625 -5.25 L 1.015625 -5.125 C 1.5625 -5.078125 1.65625 -5.03125 1.65625 -4.796875 C 1.65625 -4.703125 1.625 -4.578125 1.59375 -4.4375 L 1.171875 -2.890625 C 0.921875 -2.015625 0.828125 -1.5 0.828125 -1.1875 C 0.828125 -0.40625 1.5625 0.140625 2.578125 0.140625 C 3.625 0.140625 4.296875 -0.421875 4.65625 -1.640625 L 5.3125 -3.921875 C 5.625 -4.96875 5.65625 -5.015625 6.15625 -5.125 Z M 6.15625 -5.25 "/>
</symbol>
<symbol overflow="visible" id="glyph3-3">
<path style="stroke:none;" d="M 5.09375 -5.25 L 0.8125 -5.25 L 0.46875 -4.015625 L 0.625 -3.984375 C 1.046875 -4.859375 1.296875 -4.984375 2.53125 -4.96875 L 1.375 -0.71875 C 1.25 -0.296875 1.046875 -0.171875 0.515625 -0.125 L 0.515625 0 L 2.859375 0 L 2.859375 -0.125 C 2.71875 -0.140625 2.59375 -0.15625 2.546875 -0.15625 C 2.234375 -0.171875 2.125 -0.25 2.125 -0.484375 C 2.125 -0.59375 2.15625 -0.6875 2.234375 -0.96875 L 3.34375 -4.96875 L 3.796875 -4.96875 C 4.375 -4.96875 4.625 -4.765625 4.625 -4.328125 C 4.625 -4.21875 4.625 -4.09375 4.609375 -3.953125 L 4.734375 -3.9375 Z M 5.09375 -5.25 "/>
</symbol>
<symbol overflow="visible" id="glyph4-0">
<path style="stroke:none;" d=""/>
</symbol>
<symbol overflow="visible" id="glyph4-1">
<path style="stroke:none;" d="M 4.53125 -8 L 3.703125 -8 L 3.703125 -4.40625 L 0.15625 -4.40625 L 0.15625 -3.578125 L 3.703125 -3.578125 L 3.703125 0 L 4.53125 0 L 4.53125 -3.578125 L 8.078125 -3.578125 L 8.078125 -4.40625 L 4.53125 -4.40625 Z M 4.53125 -8 "/>
</symbol>
<symbol overflow="visible" id="glyph4-2">
<path style="stroke:none;" d="M 0.171875 -4.40625 L 0.171875 -3.578125 L 8.03125 -3.578125 L 8.03125 -4.40625 Z M 0.171875 -4.40625 "/>
</symbol>
<symbol overflow="visible" id="glyph5-0">
<path style="stroke:none;" d=""/>
</symbol>
<symbol overflow="visible" id="glyph5-1">
<path style="stroke:none;" d="M 0.3125 -6.046875 C 0.484375 -6.0625 0.59375 -6.0625 0.765625 -6.0625 C 1.34375 -6.0625 1.5 -5.8125 1.703125 -4.421875 C 1.859375 -3.390625 2.046875 -1.125 2.046875 -0.25 C 2.046875 0.171875 2.0625 0.265625 2.171875 0.265625 C 2.546875 0.265625 3.9375 -1.3125 5.46875 -3.453125 C 6 -4.203125 6.390625 -5.171875 6.390625 -5.734375 C 6.390625 -6.203125 6 -6.609375 5.546875 -6.609375 C 5.21875 -6.609375 5 -6.421875 5 -6.109375 C 5 -5.859375 5.078125 -5.6875 5.359375 -5.4375 C 5.546875 -5.265625 5.625 -5.140625 5.625 -5 C 5.625 -4.3125 4.640625 -2.640625 3.5625 -1.53125 L 3.109375 -1.046875 C 3 -3.171875 2.90625 -3.9375 2.71875 -5.0625 C 2.421875 -6.578125 2.421875 -6.609375 2.28125 -6.609375 C 2.203125 -6.609375 2.09375 -6.59375 1.984375 -6.5625 C 1.703125 -6.484375 0.890625 -6.328125 0.3125 -6.234375 Z M 0.3125 -6.046875 "/>
</symbol>
<symbol overflow="visible" id="glyph5-2">
<path style="stroke:none;" d="M 2.390625 2.625 C 1.84375 1.109375 1.671875 0.171875 1.671875 -1.28125 C 1.671875 -3.078125 2.09375 -5.234375 2.796875 -6.90625 C 3.265625 -8.078125 3.75 -8.796875 4.71875 -9.8125 L 4.53125 -10.03125 C 2.578125 -8.265625 1.8125 -7.28125 1.1875 -5.71875 C 0.796875 -4.765625 0.625 -3.84375 0.625 -2.703125 C 0.625 -1.546875 0.8125 -0.421875 1.140625 0.609375 C 1.34375 1.265625 1.578125 1.71875 2.109375 2.71875 Z M 2.390625 2.625 "/>
</symbol>
<symbol overflow="visible" id="glyph5-3">
<path style="stroke:none;" d="M 4.4375 -6.421875 L 3.234375 -6.421875 L 3.65625 -7.96875 C 3.671875 -8 3.671875 -8.03125 3.671875 -8.046875 C 3.671875 -8.140625 3.625 -8.1875 3.5625 -8.1875 C 3.46875 -8.1875 3.421875 -8.171875 3.328125 -8.0625 C 2.75 -7.296875 1.8125 -6.546875 1.328125 -6.40625 C 0.953125 -6.28125 0.859375 -6.1875 0.859375 -6.03125 C 0.859375 -6.015625 0.859375 -5.984375 0.875 -5.9375 L 1.984375 -5.9375 L 0.90625 -1.8125 C 0.875 -1.6875 0.859375 -1.640625 0.8125 -1.5 C 0.671875 -1.046875 0.5625 -0.53125 0.5625 -0.40625 C 0.5625 -0.078125 0.875 0.171875 1.28125 0.171875 C 1.96875 0.171875 2.453125 -0.25 3.40625 -1.65625 L 3.203125 -1.75 C 2.46875 -0.8125 2.234375 -0.5625 2 -0.5625 C 1.859375 -0.5625 1.765625 -0.6875 1.765625 -0.875 C 1.765625 -0.890625 1.765625 -0.90625 1.78125 -0.9375 L 3.109375 -5.9375 L 4.359375 -5.9375 Z M 4.4375 -6.421875 "/>
</symbol>
<symbol overflow="visible" id="glyph5-4">
<path style="stroke:none;" d="M 0.4375 2.703125 C 2.296875 1.078125 3.0625 0.125 3.734375 -1.515625 C 4.15625 -2.5 4.328125 -3.453125 4.328125 -4.5625 C 4.328125 -5.421875 4.21875 -6.375 4 -7.28125 C 3.75 -8.296875 3.53125 -8.828125 2.84375 -10.03125 L 2.5625 -9.953125 C 3.078125 -8.75 3.296875 -7.53125 3.296875 -6.03125 C 3.296875 -4.125 2.796875 -1.6875 2.046875 -0.09375 C 1.609375 0.890625 1.15625 1.515625 0.234375 2.46875 Z M 0.4375 2.703125 "/>
</symbol>
<symbol overflow="visible" id="glyph5-5">
<path style="stroke:none;" d="M 9.78125 -6.96875 L 10.328125 -9.953125 L 10.015625 -9.953125 C 9.90625 -9.71875 9.75 -9.625 9.453125 -9.625 C 9.328125 -9.625 9.15625 -9.65625 8.828125 -9.734375 C 8.15625 -9.90625 7.5625 -9.984375 7.078125 -9.984375 C 3.890625 -9.984375 0.984375 -6.96875 0.984375 -3.640625 C 0.984375 -1.34375 2.609375 0.265625 4.90625 0.265625 C 6.453125 0.265625 7.65625 -0.390625 9 -1.96875 L 8.75 -2.171875 C 7.390625 -0.859375 6.53125 -0.40625 5.296875 -0.40625 C 3.625 -0.40625 2.671875 -1.546875 2.671875 -3.484375 C 2.671875 -5.265625 3.390625 -7.078125 4.5625 -8.296875 C 5.28125 -9.03125 6.21875 -9.453125 7.21875 -9.453125 C 8.59375 -9.453125 9.359375 -8.640625 9.515625 -7.015625 Z M 9.78125 -6.96875 "/>
</symbol>
<symbol overflow="visible" id="glyph5-6">
<path style="stroke:none;" d="M 6.046875 -9.796875 L 1.953125 -9.796875 L 1.953125 -9.5625 C 2.875 -9.46875 3.109375 -9.34375 3.109375 -8.90625 C 3.109375 -8.703125 3.046875 -8.359375 2.9375 -7.984375 L 1.09375 -1.34375 C 0.828125 -0.484375 0.71875 -0.390625 -0.125 -0.234375 L -0.125 0 L 7.515625 0 L 8.390625 -2.6875 L 8.078125 -2.78125 C 7.5625 -1.6875 7.15625 -1.21875 6.5 -0.890625 C 5.96875 -0.625 5.359375 -0.546875 4.046875 -0.546875 C 2.90625 -0.546875 2.53125 -0.65625 2.53125 -1.046875 C 2.53125 -1.15625 2.609375 -1.515625 2.6875 -1.796875 L 4.53125 -8.4375 C 4.75 -9.203125 5.140625 -9.5 6.046875 -9.5625 Z M 6.046875 -9.796875 "/>
</symbol>
<symbol overflow="visible" id="glyph5-7">
<path style="stroke:none;" d="M 10.828125 -9.796875 L 7.5 -9.796875 L 7.5 -9.5625 C 7.6875 -9.546875 7.84375 -9.515625 7.90625 -9.515625 C 8.265625 -9.484375 8.421875 -9.390625 8.421875 -9.21875 C 8.421875 -8.859375 7.59375 -8.0625 6.25 -7.125 L 3.96875 -5.53125 L 4.765625 -8.4375 C 5 -9.1875 5.40625 -9.5 6.28125 -9.5625 L 6.28125 -9.796875 L 2.1875 -9.796875 L 2.1875 -9.5625 C 3.125 -9.46875 3.34375 -9.34375 3.34375 -8.90625 C 3.34375 -8.703125 3.28125 -8.359375 3.1875 -7.984375 L 1.328125 -1.34375 C 1.0625 -0.453125 0.984375 -0.375 0.109375 -0.234375 L 0.109375 0 L 3.828125 0 L 3.828125 -0.234375 C 2.875 -0.34375 2.75 -0.4375 2.75 -0.90625 C 2.75 -1.046875 2.78125 -1.1875 2.859375 -1.484375 L 2.953125 -1.796875 L 3.890625 -5.21875 L 5.703125 -2.09375 C 6.0625 -1.484375 6.265625 -0.953125 6.265625 -0.671875 C 6.265625 -0.453125 6.0625 -0.328125 5.578125 -0.28125 C 5.5 -0.28125 5.34375 -0.265625 5.140625 -0.234375 L 5.140625 0 L 9.265625 0 L 9.265625 -0.234375 C 8.328125 -0.328125 8.234375 -0.375 7.8125 -1.078125 L 5.203125 -5.625 L 9.703125 -9.015625 C 10.125 -9.328125 10.46875 -9.5 10.828125 -9.5625 Z M 10.828125 -9.796875 "/>
</symbol>
<symbol overflow="visible" id="glyph6-0">
<path style="stroke:none;" d=""/>
</symbol>
<symbol overflow="visible" id="glyph6-1">
<path style="stroke:none;" d="M 4.734375 -4.0625 L 4.125 -4.0625 C 4.09375 -4.0625 4.046875 -4.09375 3.96875 -4.15625 C 3.703125 -4.328125 3.359375 -4.4375 2.984375 -4.4375 C 1.875 -4.4375 0.96875 -3.65625 0.96875 -2.71875 C 0.96875 -2.1875 1.1875 -1.890625 1.765625 -1.625 C 1.171875 -1.21875 0.984375 -1.03125 0.984375 -0.78125 C 0.984375 -0.65625 1.0625 -0.53125 1.25 -0.390625 C 0.265625 0.265625 0.078125 0.46875 0.078125 0.921875 C 0.078125 1.625 0.75 2.0625 1.765625 2.0625 C 3.03125 2.0625 3.875 1.484375 3.875 0.609375 C 3.875 -0.03125 3.390625 -0.46875 2.4375 -0.71875 C 1.984375 -0.828125 1.734375 -1 1.734375 -1.140625 C 1.734375 -1.296875 1.953125 -1.5625 2.09375 -1.5625 C 2.109375 -1.5625 2.125 -1.5625 2.15625 -1.546875 C 2.234375 -1.53125 2.375 -1.515625 2.46875 -1.515625 C 3.390625 -1.515625 4.328125 -2.328125 4.328125 -3.109375 C 4.328125 -3.28125 4.296875 -3.46875 4.234375 -3.671875 L 4.734375 -3.671875 Z M 1.484375 -0.28125 C 1.5 -0.28125 1.515625 -0.265625 1.53125 -0.265625 C 1.5625 -0.25 1.671875 -0.21875 1.828125 -0.171875 C 2.890625 0.15625 3.265625 0.4375 3.265625 0.90625 C 3.265625 1.453125 2.6875 1.84375 1.90625 1.84375 C 1.109375 1.84375 0.640625 1.46875 0.640625 0.828125 C 0.640625 0.578125 0.6875 0.40625 0.859375 0.21875 C 0.984375 0.046875 1.40625 -0.28125 1.484375 -0.28125 Z M 2.96875 -4.203125 C 3.34375 -4.203125 3.53125 -3.96875 3.53125 -3.5 C 3.53125 -3.140625 3.421875 -2.703125 3.21875 -2.359375 C 3 -1.953125 2.6875 -1.734375 2.34375 -1.734375 C 1.96875 -1.734375 1.75 -2.015625 1.75 -2.484375 C 1.75 -3.40625 2.328125 -4.203125 2.96875 -4.203125 Z M 2.96875 -4.203125 "/>
</symbol>
<symbol overflow="visible" id="glyph6-2">
<path style="stroke:none;" d="M 4.546875 -2.421875 L 3.59375 -2.421875 L 4.8125 -6.796875 L 4.40625 -6.796875 L 0.21875 -2.46875 L 0.015625 -1.78125 L 2.640625 -1.78125 L 2.15625 0 L 2.9375 0 L 3.40625 -1.765625 L 4.40625 -1.765625 Z M 2.78125 -2.421875 L 0.65625 -2.421875 L 0.65625 -2.46875 L 3.703125 -5.65625 L 3.75 -5.65625 Z M 2.78125 -2.421875 "/>
</symbol>
<symbol overflow="visible" id="glyph6-3">
<path style="stroke:none;" d="M 1.78125 -5.703125 C 2.140625 -6.15625 2.484375 -6.375 2.90625 -6.375 C 3.453125 -6.375 3.8125 -6 3.8125 -5.453125 C 3.8125 -5.03125 3.59375 -4.671875 3.15625 -4.375 C 2.734375 -4.09375 2.296875 -3.9375 1.40625 -3.78125 L 1.40625 -3.625 C 1.9375 -3.625 2.0625 -3.609375 2.328125 -3.515625 C 2.9375 -3.3125 3.28125 -2.75 3.28125 -1.953125 C 3.28125 -1.59375 3.1875 -1.234375 3.046875 -1 C 2.828125 -0.59375 2.359375 -0.3125 1.953125 -0.3125 C 1.765625 -0.3125 1.53125 -0.40625 1.234375 -0.640625 C 0.9375 -0.84375 0.78125 -0.921875 0.59375 -0.921875 C 0.3125 -0.921875 0.15625 -0.78125 0.15625 -0.515625 C 0.15625 -0.140625 0.5625 0.078125 1.28125 0.078125 C 1.84375 0.078125 2.34375 -0.046875 2.78125 -0.296875 C 3.578125 -0.765625 4.078125 -1.609375 4.078125 -2.5 C 4.078125 -3.21875 3.78125 -3.6875 3.109375 -4 L 3.109375 -4.03125 C 4.328125 -4.5 4.6875 -4.828125 4.6875 -5.515625 C 4.6875 -6.25 4.078125 -6.796875 3.28125 -6.796875 C 2.578125 -6.796875 1.953125 -6.390625 1.625 -5.75 Z M 1.78125 -5.703125 "/>
</symbol>
<symbol overflow="visible" id="glyph6-4">
<path style="stroke:none;" d="M 0.5 0 L 3.296875 0 L 3.296875 -0.15625 L 3.140625 -0.15625 C 2.640625 -0.15625 2.4375 -0.25 2.4375 -0.46875 C 2.4375 -0.5625 2.46875 -0.75 2.546875 -1 C 2.578125 -1.078125 2.59375 -1.140625 2.609375 -1.171875 L 2.609375 -1.21875 L 4.046875 -6.4375 C 4.09375 -6.578125 4.109375 -6.671875 4.109375 -6.71875 C 4.109375 -6.765625 4.09375 -6.796875 4.0625 -6.796875 C 4.0625 -6.796875 4.03125 -6.796875 4.03125 -6.78125 L 3.234375 -6.625 L 2.328125 -6.453125 C 2.3125 -6.453125 2.234375 -6.4375 2.125 -6.40625 L 2.125 -6.265625 L 2.6875 -6.28125 C 2.921875 -6.296875 3.078125 -6.171875 3.078125 -5.96875 C 3.078125 -5.90625 3.046875 -5.8125 3 -5.625 L 1.625 -0.6875 C 1.5 -0.3125 1.28125 -0.21875 0.5 -0.140625 Z M 0.5 0 "/>
</symbol>
<symbol overflow="visible" id="glyph6-5">
<path style="stroke:none;" d="M 4.015625 -1.390625 C 3.78125 -0.890625 3.5625 -0.765625 3.03125 -0.765625 L 1.109375 -0.765625 L 1.109375 -0.8125 L 3.046875 -2.75 C 4.21875 -3.921875 4.546875 -4.421875 4.546875 -5.078125 C 4.546875 -6.046875 3.828125 -6.796875 2.90625 -6.796875 C 2.5625 -6.796875 2.1875 -6.6875 1.875 -6.53125 C 1.359375 -6.25 1.09375 -5.90625 0.796875 -5.1875 L 1.015625 -5.109375 C 1.390625 -5.765625 1.8125 -6.0625 2.421875 -6.0625 C 3.140625 -6.0625 3.671875 -5.53125 3.671875 -4.828125 C 3.671875 -4.625 3.640625 -4.4375 3.59375 -4.296875 C 3.34375 -3.75 2.890625 -3.125 2.234375 -2.421875 L 0.125 -0.171875 L 0.125 0 L 3.6875 0 L 4.1875 -1.328125 Z M 4.015625 -1.390625 "/>
</symbol>
</g>
</defs>
<g id="surface1">
<path style="fill:none;stroke-width:9.75;stroke-linecap:round;stroke-linejoin:bevel;stroke:rgb(0%,0%,0%);stroke-opacity:1;stroke-miterlimit:6;" d="M 1330 1585 L 1525 1585 " transform="matrix(0.1,0,0,-0.1,0,317)"/>
<path style=" stroke:none;fill-rule:evenodd;fill:rgb(0%,0%,0%);fill-opacity:1;" d="M 135.25 158.5 C 135.25 157.257812 134.242188 156.25 133 156.25 C 131.757812 156.25 130.75 157.257812 130.75 158.5 C 130.75 159.742188 131.757812 160.75 133 160.75 C 134.242188 160.75 135.25 159.742188 135.25 158.5 "/>
<path style="fill:none;stroke-width:9.75;stroke-linecap:round;stroke-linejoin:bevel;stroke:rgb(0%,0%,0%);stroke-opacity:1;stroke-miterlimit:6;" d="M 2230 1585 L 1870 1585 " transform="matrix(0.1,0,0,-0.1,0,317)"/>
<path style=" stroke:none;fill-rule:evenodd;fill:rgb(0%,0%,0%);fill-opacity:1;" d="M 207.25 158.5 C 207.25 157.257812 206.242188 156.25 205 156.25 C 203.757812 156.25 202.75 157.257812 202.75 158.5 C 202.75 159.742188 203.757812 160.75 205 160.75 C 206.242188 160.75 207.25 159.742188 207.25 158.5 "/>
<path style="fill:none;stroke-width:9.75;stroke-linecap:round;stroke-linejoin:bevel;stroke:rgb(0%,0%,0%);stroke-opacity:1;stroke-miterlimit:6;" d="M 2950 1585 L 2560 1585 " transform="matrix(0.1,0,0,-0.1,0,317)"/>
<path style="fill:none;stroke-width:9.75;stroke-linecap:round;stroke-linejoin:bevel;stroke:rgb(0%,0%,0%);stroke-opacity:1;stroke-miterlimit:6;" d="M 4210 1142.5 L 4210 925 " transform="matrix(0.1,0,0,-0.1,0,317)"/>
<path style="fill:none;stroke-width:9.75;stroke-linecap:round;stroke-linejoin:bevel;stroke:rgb(0%,0%,0%);stroke-opacity:1;stroke-miterlimit:6;" d="M 4210 1187.5 L 4210 1405 " transform="matrix(0.1,0,0,-0.1,0,317)"/>
<path style="fill:none;stroke-width:9.75;stroke-linecap:round;stroke-linejoin:bevel;stroke:rgb(0%,0%,0%);stroke-opacity:1;stroke-miterlimit:6;" d="M 4330 1187.5 L 4090 1187.5 " transform="matrix(0.1,0,0,-0.1,0,317)"/>
<path style="fill:none;stroke-width:9.75;stroke-linecap:round;stroke-linejoin:bevel;stroke:rgb(0%,0%,0%);stroke-opacity:1;stroke-miterlimit:6;" d="M 4330 1142.5 L 4090 1142.5 " transform="matrix(0.1,0,0,-0.1,0,317)"/>
<path style="fill:none;stroke-width:9.75;stroke-linecap:round;stroke-linejoin:bevel;stroke:rgb(0%,0%,0%);stroke-opacity:1;stroke-miterlimit:6;" d="M 4870 1300 L 4870 1405 " transform="matrix(0.1,0,0,-0.1,0,317)"/>
<path style="fill:none;stroke-width:9.75;stroke-linecap:round;stroke-linejoin:bevel;stroke:rgb(0%,0%,0%);stroke-opacity:1;stroke-miterlimit:6;" d="M 4870 1030 L 4870 925 " transform="matrix(0.1,0,0,-0.1,0,317)"/>
<path style="fill:none;stroke-width:9.75;stroke-linecap:round;stroke-linejoin:bevel;stroke:rgb(0%,0%,0%);stroke-opacity:1;stroke-miterlimit:6;" d="M 4870 1300 L 4817.5 1277.5 L 4922.5 1232.5 L 4817.5 1187.5 L 4922.5 1142.5 L 4817.5 1097.5 L 4922.5 1052.5 L 4870 1030 " transform="matrix(0.1,0,0,-0.1,0,317)"/>
<path style="fill:none;stroke-width:9.75;stroke-linecap:round;stroke-linejoin:bevel;stroke:rgb(0%,0%,0%);stroke-opacity:1;stroke-miterlimit:6;" d="M 4870 745 L 4210 745 " transform="matrix(0.1,0,0,-0.1,0,317)"/>
<path style="fill:none;stroke-width:9.75;stroke-linecap:round;stroke-linejoin:bevel;stroke:rgb(0%,0%,0%);stroke-opacity:1;stroke-miterlimit:6;" d="M 4570 505 L 4570 625 " transform="matrix(0.1,0,0,-0.1,0,317)"/>
<path style="fill:none;stroke-width:9.75;stroke-linecap:round;stroke-linejoin:bevel;stroke:rgb(0%,0%,0%);stroke-opacity:1;stroke-miterlimit:6;" d="M 4690 505 L 4450 505 " transform="matrix(0.1,0,0,-0.1,0,317)"/>
<path style="fill:none;stroke-width:9.75;stroke-linecap:round;stroke-linejoin:bevel;stroke:rgb(0%,0%,0%);stroke-opacity:1;stroke-miterlimit:6;" d="M 4637.5 452.5 L 4502.5 452.5 " transform="matrix(0.1,0,0,-0.1,0,317)"/>
<path style="fill:none;stroke-width:9.75;stroke-linecap:round;stroke-linejoin:bevel;stroke:rgb(0%,0%,0%);stroke-opacity:1;stroke-miterlimit:6;" d="M 4585 400 L 4555 400 " transform="matrix(0.1,0,0,-0.1,0,317)"/>
<path style="fill:none;stroke-width:9.75;stroke-linecap:round;stroke-linejoin:bevel;stroke:rgb(0%,0%,0%);stroke-opacity:1;stroke-miterlimit:6;" d="M 4570 745 L 4570 625 " transform="matrix(0.1,0,0,-0.1,0,317)"/>
<path style=" stroke:none;fill-rule:evenodd;fill:rgb(0%,0%,0%);fill-opacity:1;" d="M 459.25 242.5 C 459.25 241.257812 458.242188 240.25 457 240.25 C 455.757812 240.25 454.75 241.257812 454.75 242.5 C 454.75 243.742188 455.757812 244.75 457 244.75 C 458.242188 244.75 459.25 243.742188 459.25 242.5 "/>
<path style=" stroke:none;fill-rule:evenodd;fill:rgb(0%,0%,0%);fill-opacity:1;" d="M 423.25 158.5 C 423.25 157.257812 422.242188 156.25 421 156.25 C 419.757812 156.25 418.75 157.257812 418.75 158.5 C 418.75 159.742188 419.757812 160.75 421 160.75 C 422.242188 160.75 423.25 159.742188 423.25 158.5 "/>
<path style="fill:none;stroke-width:9.75;stroke-linecap:round;stroke-linejoin:bevel;stroke:rgb(0%,0%,0%);stroke-opacity:1;stroke-miterlimit:6;" d="M 4210 745 L 4210 925 " transform="matrix(0.1,0,0,-0.1,0,317)"/>
<path style="fill:none;stroke-width:9.75;stroke-linecap:round;stroke-linejoin:bevel;stroke:rgb(0%,0%,0%);stroke-opacity:1;stroke-miterlimit:6;" d="M 4210 1585 L 4210 1405 " transform="matrix(0.1,0,0,-0.1,0,317)"/>
<path style="fill:none;stroke-width:9.75;stroke-linecap:round;stroke-linejoin:bevel;stroke:rgb(0%,0%,0%);stroke-opacity:1;stroke-miterlimit:6;" d="M 4210 1585 L 4870 1585 L 4870 1375 " transform="matrix(0.1,0,0,-0.1,0,317)"/>
<path style="fill:none;stroke-width:9.75;stroke-linecap:round;stroke-linejoin:bevel;stroke:rgb(0%,0%,0%);stroke-opacity:1;stroke-miterlimit:6;" d="M 4870 745 L 4870 955 " transform="matrix(0.1,0,0,-0.1,0,317)"/>
<path style="fill:none;stroke-width:9.75;stroke-linecap:round;stroke-linejoin:bevel;stroke:rgb(0%,0%,0%);stroke-opacity:1;stroke-miterlimit:6;" d="M 2770 1967.5 L 2770 2185 " transform="matrix(0.1,0,0,-0.1,0,317)"/>
<path style="fill:none;stroke-width:9.75;stroke-linecap:round;stroke-linejoin:bevel;stroke:rgb(0%,0%,0%);stroke-opacity:1;stroke-miterlimit:6;" d="M 2770 1922.5 L 2770 1705 " transform="matrix(0.1,0,0,-0.1,0,317)"/>
<path style="fill:none;stroke-width:9.75;stroke-linecap:round;stroke-linejoin:bevel;stroke:rgb(0%,0%,0%);stroke-opacity:1;stroke-miterlimit:6;" d="M 2650 1922.5 L 2890 1922.5 " transform="matrix(0.1,0,0,-0.1,0,317)"/>
<path style="fill:none;stroke-width:9.75;stroke-linecap:round;stroke-linejoin:bevel;stroke:rgb(0%,0%,0%);stroke-opacity:1;stroke-miterlimit:6;" d="M 2650 1967.5 L 2890 1967.5 " transform="matrix(0.1,0,0,-0.1,0,317)"/>
<path style="fill:none;stroke-width:9.75;stroke-linecap:round;stroke-linejoin:bevel;stroke:rgb(0%,0%,0%);stroke-opacity:1;stroke-miterlimit:6;" d="M 1330 145 L 1330 265 " transform="matrix(0.1,0,0,-0.1,0,317)"/>
<path style="fill:none;stroke-width:9.75;stroke-linecap:round;stroke-linejoin:bevel;stroke:rgb(0%,0%,0%);stroke-opacity:1;stroke-miterlimit:6;" d="M 1450 145 L 1210 145 " transform="matrix(0.1,0,0,-0.1,0,317)"/>
<path style="fill:none;stroke-width:9.75;stroke-linecap:round;stroke-linejoin:bevel;stroke:rgb(0%,0%,0%);stroke-opacity:1;stroke-miterlimit:6;" d="M 1397.5 92.5 L 1262.5 92.5 " transform="matrix(0.1,0,0,-0.1,0,317)"/>
<path style="fill:none;stroke-width:9.75;stroke-linecap:round;stroke-linejoin:bevel;stroke:rgb(0%,0%,0%);stroke-opacity:1;stroke-miterlimit:6;" d="M 1345 40 L 1315 40 " transform="matrix(0.1,0,0,-0.1,0,317)"/>
<path style="fill:none;stroke-width:9.75;stroke-linecap:round;stroke-linejoin:bevel;stroke:rgb(0%,0%,0%);stroke-opacity:1;stroke-miterlimit:6;" d="M 2050 1247.5 L 2050 1465 " transform="matrix(0.1,0,0,-0.1,0,317)"/>
<path style="fill:none;stroke-width:9.75;stroke-linecap:round;stroke-linejoin:bevel;stroke:rgb(0%,0%,0%);stroke-opacity:1;stroke-miterlimit:6;" d="M 2050 1202.5 L 2050 985 " transform="matrix(0.1,0,0,-0.1,0,317)"/>
<path style="fill:none;stroke-width:9.75;stroke-linecap:round;stroke-linejoin:bevel;stroke:rgb(0%,0%,0%);stroke-opacity:1;stroke-miterlimit:6;" d="M 1930 1202.5 L 2170 1202.5 " transform="matrix(0.1,0,0,-0.1,0,317)"/>
<path style="fill:none;stroke-width:9.75;stroke-linecap:round;stroke-linejoin:bevel;stroke:rgb(0%,0%,0%);stroke-opacity:1;stroke-miterlimit:6;" d="M 1930 1247.5 L 2170 1247.5 " transform="matrix(0.1,0,0,-0.1,0,317)"/>
<path style=" stroke:none;fill-rule:evenodd;fill:rgb(0%,0%,0%);fill-opacity:1;" d="M 279.25 158.5 C 279.25 157.257812 278.242188 156.25 277 156.25 C 275.757812 156.25 274.75 157.257812 274.75 158.5 C 274.75 159.742188 275.757812 160.75 277 160.75 C 278.242188 160.75 279.25 159.742188 279.25 158.5 "/>
<path style="fill:none;stroke-width:9.75;stroke-linecap:round;stroke-linejoin:bevel;stroke:rgb(0%,0%,0%);stroke-opacity:1;stroke-miterlimit:6;" d="M 3490 1247.5 L 3490 1465 " transform="matrix(0.1,0,0,-0.1,0,317)"/>
<path style="fill:none;stroke-width:9.75;stroke-linecap:round;stroke-linejoin:bevel;stroke:rgb(0%,0%,0%);stroke-opacity:1;stroke-miterlimit:6;" d="M 3490 1202.5 L 3490 985 " transform="matrix(0.1,0,0,-0.1,0,317)"/>
<path style="fill:none;stroke-width:9.75;stroke-linecap:round;stroke-linejoin:bevel;stroke:rgb(0%,0%,0%);stroke-opacity:1;stroke-miterlimit:6;" d="M 3370 1202.5 L 3610 1202.5 " transform="matrix(0.1,0,0,-0.1,0,317)"/>
<path style="fill:none;stroke-width:9.75;stroke-linecap:round;stroke-linejoin:bevel;stroke:rgb(0%,0%,0%);stroke-opacity:1;stroke-miterlimit:6;" d="M 3370 1247.5 L 3610 1247.5 " transform="matrix(0.1,0,0,-0.1,0,317)"/>
<path style="fill:none;stroke-width:9.75;stroke-linecap:round;stroke-linejoin:bevel;stroke:rgb(0%,0%,0%);stroke-opacity:1;stroke-miterlimit:6;" d="M 3685 1585 L 3250 1585 " transform="matrix(0.1,0,0,-0.1,0,317)"/>
<path style=" stroke:none;fill-rule:evenodd;fill:rgb(0%,0%,0%);fill-opacity:1;" d="M 351.25 158.5 C 351.25 157.257812 350.242188 156.25 349 156.25 C 347.757812 156.25 346.75 157.257812 346.75 158.5 C 346.75 159.742188 347.757812 160.75 349 160.75 C 350.242188 160.75 351.25 159.742188 351.25 158.5 "/>
<path style="fill:none;stroke-width:9.75;stroke-linecap:round;stroke-linejoin:bevel;stroke:rgb(0%,0%,0%);stroke-opacity:1;stroke-miterlimit:6;" d="M 4225 1585 L 3880 1585 " transform="matrix(0.1,0,0,-0.1,0,317)"/>
<g style="fill:rgb(0%,0%,0%);fill-opacity:1;">
  <use xlink:href="#glyph0-1" x="206.081" y="212.5"/>
</g>
<g style="fill:rgb(0%,0%,0%);fill-opacity:1;">
  <use xlink:href="#glyph1-1" x="216.0861" y="215.81641"/>
</g>
<g style="fill:rgb(0%,0%,0%);fill-opacity:1;">
  <use xlink:href="#glyph0-1" x="330.5811" y="212.5"/>
</g>
<g style="fill:rgb(0%,0%,0%);fill-opacity:1;">
  <use xlink:href="#glyph1-2" x="340.5862" y="215.81641"/>
</g>
<g style="fill:rgb(0%,0%,0%);fill-opacity:1;">
  <use xlink:href="#glyph0-1" x="282.5811" y="116.50001"/>
</g>
<g style="fill:rgb(0%,0%,0%);fill-opacity:1;">
  <use xlink:href="#glyph1-3" x="292.5862" y="119.81642"/>
</g>
<g style="fill:rgb(0%,0%,0%);fill-opacity:1;">
  <use xlink:href="#glyph0-1" x="389.0811" y="214.00002"/>
</g>
<g style="fill:rgb(0%,0%,0%);fill-opacity:1;">
  <use xlink:href="#glyph1-4" x="399.0862" y="217.31643"/>
  <use xlink:href="#glyph1-5" x="406.3423" y="217.31643"/>
  <use xlink:href="#glyph1-6" x="413.5984" y="217.31643"/>
</g>
<g style="fill:rgb(0%,0%,0%);fill-opacity:1;">
  <use xlink:href="#glyph0-2" x="498.7452" y="203.50003"/>
</g>
<g style="fill:rgb(0%,0%,0%);fill-opacity:1;">
  <use xlink:href="#glyph1-7" x="508.7503" y="206.81644"/>
  <use xlink:href="#glyph1-4" x="514.89085" y="206.81644"/>
  <use xlink:href="#glyph1-8" x="522.14695" y="206.81644"/>
  <use xlink:href="#glyph1-9" x="529.40305" y="206.81644"/>
</g>
<g style="fill:rgb(80.46875%,0%,0%);fill-opacity:1;">
  <use xlink:href="#glyph2-1" x="435.75" y="203.5"/>
</g>
<g style="fill:rgb(80.46875%,0%,0%);fill-opacity:1;">
  <use xlink:href="#glyph3-1" x="441.07813" y="206.15313"/>
  <use xlink:href="#glyph3-2" x="446.88301" y="206.15313"/>
  <use xlink:href="#glyph3-3" x="452.68789" y="206.15313"/>
</g>
<g style="fill:rgb(80.46875%,0%,0%);fill-opacity:1;">
  <use xlink:href="#glyph2-2" x="457.15823" y="203.5"/>
  <use xlink:href="#glyph2-3" x="461.15423" y="203.5"/>
  <use xlink:href="#glyph2-4" x="464.49023" y="203.5"/>
</g>
<g style="fill:rgb(80.46875%,0%,0%);fill-opacity:1;">
  <use xlink:href="#glyph2-5" x="440.97503" y="185.5"/>
</g>
<g style="fill:rgb(80.46875%,0%,0%);fill-opacity:1;">
  <use xlink:href="#glyph2-6" x="441.415655" y="227.5"/>
</g>
<path style="fill:none;stroke-width:9.75;stroke-linecap:round;stroke-linejoin:bevel;stroke:rgb(0%,0%,0%);stroke-opacity:1;stroke-miterlimit:6;" d="M 2770 2185 L 2770 2305 L 1330 2305 " transform="matrix(0.1,0,0,-0.1,0,317)"/>
<path style=" stroke:none;fill-rule:evenodd;fill:rgb(0%,0%,0%);fill-opacity:1;" d="M 135.25 86.5 C 135.25 85.257812 134.242188 84.25 133 84.25 C 131.757812 84.25 130.75 85.257812 130.75 86.5 C 130.75 87.742188 131.757812 88.75 133 88.75 C 134.242188 88.75 135.25 87.742188 135.25 86.5 "/>
<path style="fill:none;stroke-width:9.75;stroke-linecap:round;stroke-linejoin:bevel;stroke:rgb(0%,0%,0%);stroke-opacity:1;stroke-miterlimit:6;" d="M 1330 3025 L 1330 2905 " transform="matrix(0.1,0,0,-0.1,0,317)"/>
<path style="fill:none;stroke-width:9.75;stroke-linecap:round;stroke-linejoin:bevel;stroke:rgb(0%,0%,0%);stroke-opacity:1;stroke-miterlimit:6;" d="M 1210 3025 L 1450 3025 " transform="matrix(0.1,0,0,-0.1,0,317)"/>
<path style="fill:none;stroke-width:9.75;stroke-linecap:round;stroke-linejoin:bevel;stroke:rgb(0%,0%,0%);stroke-opacity:1;stroke-miterlimit:6;" d="M 1262.5 3077.5 L 1397.5 3077.5 " transform="matrix(0.1,0,0,-0.1,0,317)"/>
<path style="fill:none;stroke-width:9.75;stroke-linecap:round;stroke-linejoin:bevel;stroke:rgb(0%,0%,0%);stroke-opacity:1;stroke-miterlimit:6;" d="M 1315 3130 L 1345 3130 " transform="matrix(0.1,0,0,-0.1,0,317)"/>
<path style="fill:none;stroke-width:9.75;stroke-linecap:round;stroke-linejoin:bevel;stroke:rgb(0%,0%,0%);stroke-opacity:1;stroke-miterlimit:6;" d="M 1330 295 L 1330 235 " transform="matrix(0.1,0,0,-0.1,0,317)"/>
<path style="fill:none;stroke-width:9.75;stroke-linecap:round;stroke-linejoin:bevel;stroke:rgb(0%,0%,0%);stroke-opacity:1;stroke-miterlimit:6;" d="M 2050 985 L 2050 865 L 1330 865 " transform="matrix(0.1,0,0,-0.1,0,317)"/>
<path style="fill:none;stroke-width:9.75;stroke-linecap:round;stroke-linejoin:bevel;stroke:rgb(0%,0%,0%);stroke-opacity:1;stroke-miterlimit:6;" d="M 2050 1585 L 2050 1465 " transform="matrix(0.1,0,0,-0.1,0,317)"/>
<path style="fill:none;stroke-width:9.75;stroke-linecap:round;stroke-linejoin:bevel;stroke:rgb(0%,0%,0%);stroke-opacity:1;stroke-miterlimit:6;" d="M 3490 985 L 3490 865 L 2035 865 " transform="matrix(0.1,0,0,-0.1,0,317)"/>
<path style="fill:none;stroke-width:9.75;stroke-linecap:round;stroke-linejoin:bevel;stroke:rgb(0%,0%,0%);stroke-opacity:1;stroke-miterlimit:6;" d="M 3490 1585 L 3490 1435 " transform="matrix(0.1,0,0,-0.1,0,317)"/>
<path style="fill:none;stroke-width:9.75;stroke-linecap:round;stroke-linejoin:bevel;stroke:rgb(0%,0%,0%);stroke-opacity:1;stroke-miterlimit:6;" d="M 2770 1765 L 2770 1585 " transform="matrix(0.1,0,0,-0.1,0,317)"/>
<path style=" stroke:none;fill-rule:evenodd;fill:rgb(0%,0%,0%);fill-opacity:1;" d="M 207.25 230.5 C 207.25 229.257812 206.242188 228.25 205 228.25 C 203.757812 228.25 202.75 229.257812 202.75 230.5 C 202.75 231.742188 203.757812 232.75 205 232.75 C 206.242188 232.75 207.25 231.742188 207.25 230.5 "/>
<path style=" stroke:none;fill-rule:evenodd;fill:rgb(0%,0%,0%);fill-opacity:1;" d="M 135.25 230.5 C 135.25 229.257812 134.242188 228.25 133 228.25 C 131.757812 228.25 130.75 229.257812 130.75 230.5 C 130.75 231.742188 131.757812 232.75 133 232.75 C 134.242188 232.75 135.25 231.742188 135.25 230.5 "/>
<path style="fill:none;stroke-width:9.75;stroke-linecap:round;stroke-linejoin:bevel;stroke:rgb(0%,0%,0%);stroke-opacity:1;stroke-miterlimit:6;" d="M 550 1225 C 550 1291.289062 496.289062 1345 430 1345 C 363.710938 1345 310 1291.289062 310 1225 C 310 1158.710938 363.710938 1105 430 1105 C 496.289062 1105 550 1158.710938 550 1225 " transform="matrix(0.1,0,0,-0.1,0,317)"/>
<path style="fill:none;stroke-width:9.75;stroke-linecap:round;stroke-linejoin:bevel;stroke:rgb(0%,0%,0%);stroke-opacity:1;stroke-miterlimit:6;" d="M 430 1465 L 430 1345 " transform="matrix(0.1,0,0,-0.1,0,317)"/>
<path style="fill:none;stroke-width:9.75;stroke-linecap:round;stroke-linejoin:bevel;stroke:rgb(0%,0%,0%);stroke-opacity:1;stroke-miterlimit:6;" d="M 430 985 L 430 1105 " transform="matrix(0.1,0,0,-0.1,0,317)"/>
<g style="fill:rgb(0%,0%,0%);fill-opacity:1;">
  <use xlink:href="#glyph4-1" x="39.0391" y="193.241"/>
</g>
<g style="fill:rgb(0%,0%,0%);fill-opacity:1;">
  <use xlink:href="#glyph4-2" x="39.075819" y="204.9512"/>
</g>
<g style="fill:rgb(0%,0%,0%);fill-opacity:1;">
  <use xlink:href="#glyph0-3" x="3.761019" y="197.49964"/>
</g>
<g style="fill:rgb(0%,0%,0%);fill-opacity:1;">
  <use xlink:href="#glyph1-10" x="14.591119" y="200.81605"/>
  <use xlink:href="#glyph1-11" x="17.937769" y="200.81605"/>
</g>
<path style="fill:none;stroke-width:9.75;stroke-linecap:round;stroke-linejoin:bevel;stroke:rgb(0%,0%,0%);stroke-opacity:1;stroke-miterlimit:6;" d="M 1330 1585 L 430 1585 L 430 1465 " transform="matrix(0.1,0,0,-0.1,0,317)"/>
<path style="fill:none;stroke-width:9.75;stroke-linecap:round;stroke-linejoin:bevel;stroke:rgb(0%,0%,0%);stroke-opacity:1;stroke-miterlimit:6;" d="M 430 865 L 430 985 " transform="matrix(0.1,0,0,-0.1,0,317)"/>
<path style="fill:none;stroke-width:9.75;stroke-linecap:round;stroke-linejoin:bevel;stroke:rgb(0%,0%,0%);stroke-opacity:1;stroke-miterlimit:6;" d="M 550 865 L 310 865 " transform="matrix(0.1,0,0,-0.1,0,317)"/>
<path style="fill:none;stroke-width:9.75;stroke-linecap:round;stroke-linejoin:bevel;stroke:rgb(0%,0%,0%);stroke-opacity:1;stroke-miterlimit:6;" d="M 497.5 812.5 L 362.5 812.5 " transform="matrix(0.1,0,0,-0.1,0,317)"/>
<path style="fill:none;stroke-width:9.75;stroke-linecap:round;stroke-linejoin:bevel;stroke:rgb(0%,0%,0%);stroke-opacity:1;stroke-miterlimit:6;" d="M 445 760 L 415 760 " transform="matrix(0.1,0,0,-0.1,0,317)"/>
<path style=" stroke:none;fill-rule:evenodd;fill:rgb(0%,0%,0%);fill-opacity:1;" d="M 163 165.25 L 175 158.5 L 163 151.75 "/>
<path style="fill:none;stroke-width:9.75;stroke-linecap:round;stroke-linejoin:bevel;stroke:rgb(0%,0%,0%);stroke-opacity:1;stroke-miterlimit:6;" d="M 1630 1585 L 1510 1585 " transform="matrix(0.1,0,0,-0.1,0,317)"/>
<path style="fill:none;stroke-width:9.75;stroke-linecap:round;stroke-linejoin:bevel;stroke:rgb(0%,0%,0%);stroke-opacity:1;stroke-miterlimit:6;" d="M 1750 1585 L 1870 1585 " transform="matrix(0.1,0,0,-0.1,0,317)"/>
<path style="fill:none;stroke-width:9.75;stroke-linecap:round;stroke-linejoin:bevel;stroke:rgb(0%,0%,0%);stroke-opacity:1;stroke-miterlimit:6;" d="M 1750 1517.5 L 1750 1652.5 " transform="matrix(0.1,0,0,-0.1,0,317)"/>
<path style=" stroke:none;fill-rule:evenodd;fill:rgb(0%,0%,0%);fill-opacity:1;" d="M 235 165.25 L 247 158.5 L 235 151.75 "/>
<path style="fill:none;stroke-width:9.75;stroke-linecap:round;stroke-linejoin:bevel;stroke:rgb(0%,0%,0%);stroke-opacity:1;stroke-miterlimit:6;" d="M 2350 1585 L 2230 1585 " transform="matrix(0.1,0,0,-0.1,0,317)"/>
<path style="fill:none;stroke-width:9.75;stroke-linecap:round;stroke-linejoin:bevel;stroke:rgb(0%,0%,0%);stroke-opacity:1;stroke-miterlimit:6;" d="M 2470 1585 L 2590 1585 " transform="matrix(0.1,0,0,-0.1,0,317)"/>
<path style="fill:none;stroke-width:9.75;stroke-linecap:round;stroke-linejoin:bevel;stroke:rgb(0%,0%,0%);stroke-opacity:1;stroke-miterlimit:6;" d="M 2470 1517.5 L 2470 1652.5 " transform="matrix(0.1,0,0,-0.1,0,317)"/>
<path style=" stroke:none;fill-rule:evenodd;fill:rgb(0%,0%,0%);fill-opacity:1;" d="M 307 165.25 L 319 158.5 L 307 151.75 "/>
<path style="fill:none;stroke-width:9.75;stroke-linecap:round;stroke-linejoin:bevel;stroke:rgb(0%,0%,0%);stroke-opacity:1;stroke-miterlimit:6;" d="M 3070 1585 L 2950 1585 " transform="matrix(0.1,0,0,-0.1,0,317)"/>
<path style="fill:none;stroke-width:9.75;stroke-linecap:round;stroke-linejoin:bevel;stroke:rgb(0%,0%,0%);stroke-opacity:1;stroke-miterlimit:6;" d="M 3190 1585 L 3310 1585 " transform="matrix(0.1,0,0,-0.1,0,317)"/>
<path style="fill:none;stroke-width:9.75;stroke-linecap:round;stroke-linejoin:bevel;stroke:rgb(0%,0%,0%);stroke-opacity:1;stroke-miterlimit:6;" d="M 3190 1517.5 L 3190 1652.5 " transform="matrix(0.1,0,0,-0.1,0,317)"/>
<path style=" stroke:none;fill-rule:evenodd;fill:rgb(0%,0%,0%);fill-opacity:1;" d="M 379 165.25 L 391 158.5 L 379 151.75 "/>
<path style="fill:none;stroke-width:9.75;stroke-linecap:round;stroke-linejoin:bevel;stroke:rgb(0%,0%,0%);stroke-opacity:1;stroke-miterlimit:6;" d="M 3790 1585 L 3670 1585 " transform="matrix(0.1,0,0,-0.1,0,317)"/>
<path style="fill:none;stroke-width:9.75;stroke-linecap:round;stroke-linejoin:bevel;stroke:rgb(0%,0%,0%);stroke-opacity:1;stroke-miterlimit:6;" d="M 3910 1585 L 4030 1585 " transform="matrix(0.1,0,0,-0.1,0,317)"/>
<path style="fill:none;stroke-width:9.75;stroke-linecap:round;stroke-linejoin:bevel;stroke:rgb(0%,0%,0%);stroke-opacity:1;stroke-miterlimit:6;" d="M 3910 1517.5 L 3910 1652.5 " transform="matrix(0.1,0,0,-0.1,0,317)"/>
<path style="fill-rule:evenodd;fill:rgb(0%,0%,0%);fill-opacity:1;stroke-width:9.75;stroke-linecap:round;stroke-linejoin:bevel;stroke:rgb(0%,0%,0%);stroke-opacity:1;stroke-miterlimit:6;" d="M 1450 2545 L 1510 2665 L 1390 2665 L 1450 2545 " transform="matrix(0.1,0,0,-0.1,0,317)"/>
<path style="fill:none;stroke-width:9.75;stroke-linecap:round;stroke-linejoin:bevel;stroke:rgb(0%,0%,0%);stroke-opacity:1;stroke-miterlimit:6;" d="M 1450 2545 L 1450 2425 L 1330 2425 " transform="matrix(0.1,0,0,-0.1,0,317)"/>
<path style="fill:none;stroke-width:9.75;stroke-linecap:round;stroke-linejoin:bevel;stroke:rgb(0%,0%,0%);stroke-opacity:1;stroke-miterlimit:6;" d="M 1450 2665 L 1450 2785 L 1330 2785 " transform="matrix(0.1,0,0,-0.1,0,317)"/>
<path style="fill:none;stroke-width:9.75;stroke-linecap:round;stroke-linejoin:bevel;stroke:rgb(0%,0%,0%);stroke-opacity:1;stroke-miterlimit:6;" d="M 1510 2545 L 1390 2545 " transform="matrix(0.1,0,0,-0.1,0,317)"/>
<path style="fill-rule:evenodd;fill:rgb(0%,0%,0%);fill-opacity:1;stroke-width:9.75;stroke-linecap:round;stroke-linejoin:bevel;stroke:rgb(0%,0%,0%);stroke-opacity:1;stroke-miterlimit:6;" d="M 1210 2605 L 1255 2635 L 1255 2575 L 1210 2605 " transform="matrix(0.1,0,0,-0.1,0,317)"/>
<path style="fill:none;stroke-width:9.75;stroke-linecap:round;stroke-linejoin:bevel;stroke:rgb(0%,0%,0%);stroke-opacity:1;stroke-miterlimit:6;" d="M 1330 2845 L 1330 2710 " transform="matrix(0.1,0,0,-0.1,0,317)"/>
<path style="fill:none;stroke-width:9.75;stroke-linecap:round;stroke-linejoin:bevel;stroke:rgb(0%,0%,0%);stroke-opacity:1;stroke-miterlimit:6;" d="M 1180 2605 L 1090 2605 " transform="matrix(0.1,0,0,-0.1,0,317)"/>
<path style="fill:none;stroke-width:9.75;stroke-linecap:round;stroke-linejoin:bevel;stroke:rgb(0%,0%,0%);stroke-opacity:1;stroke-miterlimit:6;" d="M 1210 2650 L 1210 2560 " transform="matrix(0.1,0,0,-0.1,0,317)"/>
<path style="fill:none;stroke-width:9.75;stroke-linecap:round;stroke-linejoin:bevel;stroke:rgb(0%,0%,0%);stroke-opacity:1;stroke-miterlimit:6;" d="M 1210 2530 L 1210 2485 " transform="matrix(0.1,0,0,-0.1,0,317)"/>
<path style="fill:none;stroke-width:9.75;stroke-linecap:round;stroke-linejoin:bevel;stroke:rgb(0%,0%,0%);stroke-opacity:1;stroke-miterlimit:6;" d="M 1210 2680 L 1210 2725 " transform="matrix(0.1,0,0,-0.1,0,317)"/>
<path style="fill:none;stroke-width:9.75;stroke-linecap:round;stroke-linejoin:bevel;stroke:rgb(0%,0%,0%);stroke-opacity:1;stroke-miterlimit:6;" d="M 1330 2680 L 1330 2710 " transform="matrix(0.1,0,0,-0.1,0,317)"/>
<path style=" stroke:none;fill-rule:evenodd;fill:rgb(0%,0%,0%);fill-opacity:1;" d="M 135.25 38.5 C 135.25 39.742188 134.242188 40.75 133 40.75 C 131.757812 40.75 130.75 39.742188 130.75 38.5 C 130.75 37.257812 131.757812 36.25 133 36.25 C 134.242188 36.25 135.25 37.257812 135.25 38.5 "/>
<path style=" stroke:none;fill-rule:evenodd;fill:rgb(0%,0%,0%);fill-opacity:1;" d="M 135.25 74.5 C 135.25 75.742188 134.242188 76.75 133 76.75 C 131.757812 76.75 130.75 75.742188 130.75 74.5 C 130.75 73.257812 131.757812 72.25 133 72.25 C 134.242188 72.25 135.25 73.257812 135.25 74.5 "/>
<path style="fill:none;stroke-width:9.75;stroke-linecap:round;stroke-linejoin:bevel;stroke:rgb(0%,0%,0%);stroke-opacity:1;stroke-miterlimit:6;" d="M 1330 2725 L 1210 2725 " transform="matrix(0.1,0,0,-0.1,0,317)"/>
<path style="fill:none;stroke-width:9.75;stroke-linecap:round;stroke-linejoin:bevel;stroke:rgb(0%,0%,0%);stroke-opacity:1;stroke-miterlimit:6;" d="M 1240 2605 L 1330 2605 L 1330 2695 " transform="matrix(0.1,0,0,-0.1,0,317)"/>
<path style="fill:none;stroke-width:9.75;stroke-linecap:round;stroke-linejoin:bevel;stroke:rgb(0%,0%,0%);stroke-opacity:1;stroke-miterlimit:6;" d="M 1330 2425 L 1330 2485 L 1210 2485 " transform="matrix(0.1,0,0,-0.1,0,317)"/>
<path style="fill:none;stroke-width:9.75;stroke-linecap:round;stroke-linejoin:bevel;stroke:rgb(0%,0%,0%);stroke-opacity:1;stroke-miterlimit:6;" d="M 1180 2725 L 1180 2485 " transform="matrix(0.1,0,0,-0.1,0,317)"/>
<path style="fill:none;stroke-width:9.75;stroke-linecap:round;stroke-linejoin:bevel;stroke:rgb(0%,0%,0%);stroke-opacity:1;stroke-miterlimit:6;" d="M 1330 2365 L 1330 2425 " transform="matrix(0.1,0,0,-0.1,0,317)"/>
<path style="fill:none;stroke-width:9.75;stroke-linecap:round;stroke-linejoin:bevel;stroke:rgb(0%,0%,0%);stroke-opacity:1;stroke-miterlimit:6;" d="M 1330 2365 L 1330 2305 " transform="matrix(0.1,0,0,-0.1,0,317)"/>
<path style="fill:none;stroke-width:9.75;stroke-linecap:round;stroke-linejoin:bevel;stroke:rgb(0%,0%,0%);stroke-opacity:1;stroke-miterlimit:6;" d="M 1330 2905 L 1330 2845 " transform="matrix(0.1,0,0,-0.1,0,317)"/>
<path style="fill-rule:evenodd;fill:rgb(0%,0%,0%);fill-opacity:1;stroke-width:9.75;stroke-linecap:round;stroke-linejoin:bevel;stroke:rgb(0%,0%,0%);stroke-opacity:1;stroke-miterlimit:6;" d="M 1450 565 L 1510 445 L 1390 445 L 1450 565 " transform="matrix(0.1,0,0,-0.1,0,317)"/>
<path style="fill:none;stroke-width:9.75;stroke-linecap:round;stroke-linejoin:bevel;stroke:rgb(0%,0%,0%);stroke-opacity:1;stroke-miterlimit:6;" d="M 1450 565 L 1450 685 L 1330 685 " transform="matrix(0.1,0,0,-0.1,0,317)"/>
<path style="fill:none;stroke-width:9.75;stroke-linecap:round;stroke-linejoin:bevel;stroke:rgb(0%,0%,0%);stroke-opacity:1;stroke-miterlimit:6;" d="M 1450 445 L 1450 325 L 1330 325 " transform="matrix(0.1,0,0,-0.1,0,317)"/>
<path style="fill:none;stroke-width:9.75;stroke-linecap:round;stroke-linejoin:bevel;stroke:rgb(0%,0%,0%);stroke-opacity:1;stroke-miterlimit:6;" d="M 1510 565 L 1390 565 " transform="matrix(0.1,0,0,-0.1,0,317)"/>
<path style="fill-rule:evenodd;fill:rgb(0%,0%,0%);fill-opacity:1;stroke-width:9.75;stroke-linecap:round;stroke-linejoin:bevel;stroke:rgb(0%,0%,0%);stroke-opacity:1;stroke-miterlimit:6;" d="M 1210 505 L 1255 475 L 1255 535 L 1210 505 " transform="matrix(0.1,0,0,-0.1,0,317)"/>
<path style="fill:none;stroke-width:9.75;stroke-linecap:round;stroke-linejoin:bevel;stroke:rgb(0%,0%,0%);stroke-opacity:1;stroke-miterlimit:6;" d="M 1330 265 L 1330 400 " transform="matrix(0.1,0,0,-0.1,0,317)"/>
<path style="fill:none;stroke-width:9.75;stroke-linecap:round;stroke-linejoin:bevel;stroke:rgb(0%,0%,0%);stroke-opacity:1;stroke-miterlimit:6;" d="M 1180 505 L 1090 505 " transform="matrix(0.1,0,0,-0.1,0,317)"/>
<path style="fill:none;stroke-width:9.75;stroke-linecap:round;stroke-linejoin:bevel;stroke:rgb(0%,0%,0%);stroke-opacity:1;stroke-miterlimit:6;" d="M 1210 460 L 1210 550 " transform="matrix(0.1,0,0,-0.1,0,317)"/>
<path style="fill:none;stroke-width:9.75;stroke-linecap:round;stroke-linejoin:bevel;stroke:rgb(0%,0%,0%);stroke-opacity:1;stroke-miterlimit:6;" d="M 1210 580 L 1210 625 " transform="matrix(0.1,0,0,-0.1,0,317)"/>
<path style="fill:none;stroke-width:9.75;stroke-linecap:round;stroke-linejoin:bevel;stroke:rgb(0%,0%,0%);stroke-opacity:1;stroke-miterlimit:6;" d="M 1210 430 L 1210 385 " transform="matrix(0.1,0,0,-0.1,0,317)"/>
<path style="fill:none;stroke-width:9.75;stroke-linecap:round;stroke-linejoin:bevel;stroke:rgb(0%,0%,0%);stroke-opacity:1;stroke-miterlimit:6;" d="M 1330 430 L 1330 400 " transform="matrix(0.1,0,0,-0.1,0,317)"/>
<path style=" stroke:none;fill-rule:evenodd;fill:rgb(0%,0%,0%);fill-opacity:1;" d="M 135.25 284.5 C 135.25 283.257812 134.242188 282.25 133 282.25 C 131.757812 282.25 130.75 283.257812 130.75 284.5 C 130.75 285.742188 131.757812 286.75 133 286.75 C 134.242188 286.75 135.25 285.742188 135.25 284.5 "/>
<path style=" stroke:none;fill-rule:evenodd;fill:rgb(0%,0%,0%);fill-opacity:1;" d="M 135.25 248.5 C 135.25 247.257812 134.242188 246.25 133 246.25 C 131.757812 246.25 130.75 247.257812 130.75 248.5 C 130.75 249.742188 131.757812 250.75 133 250.75 C 134.242188 250.75 135.25 249.742188 135.25 248.5 "/>
<path style="fill:none;stroke-width:9.75;stroke-linecap:round;stroke-linejoin:bevel;stroke:rgb(0%,0%,0%);stroke-opacity:1;stroke-miterlimit:6;" d="M 1330 385 L 1210 385 " transform="matrix(0.1,0,0,-0.1,0,317)"/>
<path style="fill:none;stroke-width:9.75;stroke-linecap:round;stroke-linejoin:bevel;stroke:rgb(0%,0%,0%);stroke-opacity:1;stroke-miterlimit:6;" d="M 1240 505 L 1330 505 L 1330 415 " transform="matrix(0.1,0,0,-0.1,0,317)"/>
<path style="fill:none;stroke-width:9.75;stroke-linecap:round;stroke-linejoin:bevel;stroke:rgb(0%,0%,0%);stroke-opacity:1;stroke-miterlimit:6;" d="M 1330 685 L 1330 625 L 1210 625 " transform="matrix(0.1,0,0,-0.1,0,317)"/>
<path style="fill:none;stroke-width:9.75;stroke-linecap:round;stroke-linejoin:bevel;stroke:rgb(0%,0%,0%);stroke-opacity:1;stroke-miterlimit:6;" d="M 1180 385 L 1180 625 " transform="matrix(0.1,0,0,-0.1,0,317)"/>
<path style="fill:none;stroke-width:9.75;stroke-linecap:round;stroke-linejoin:bevel;stroke:rgb(0%,0%,0%);stroke-opacity:1;stroke-miterlimit:6;" d="M 1330 745 L 1330 685 " transform="matrix(0.1,0,0,-0.1,0,317)"/>
<path style="fill:none;stroke-width:9.75;stroke-linecap:round;stroke-linejoin:bevel;stroke:rgb(0%,0%,0%);stroke-opacity:1;stroke-miterlimit:6;" d="M 1330 865 L 1330 745 " transform="matrix(0.1,0,0,-0.1,0,317)"/>
<path style="fill:none;stroke-width:9.75;stroke-linecap:round;stroke-linejoin:bevel;stroke:rgb(0%,0%,0%);stroke-opacity:1;stroke-miterlimit:6;" d="M 1180 1225 L 1090 1225 " transform="matrix(0.1,0,0,-0.1,0,317)"/>
<path style="fill:none;stroke-width:9.75;stroke-linecap:round;stroke-linejoin:bevel;stroke:rgb(0%,0%,0%);stroke-opacity:1;stroke-miterlimit:6;" d="M 1180 1105 L 1180 1345 " transform="matrix(0.1,0,0,-0.1,0,317)"/>
<path style="fill:none;stroke-width:9.75;stroke-linecap:round;stroke-linejoin:bevel;stroke:rgb(0%,0%,0%);stroke-opacity:1;stroke-miterlimit:6;" d="M 1210 1285 L 1210 1345 " transform="matrix(0.1,0,0,-0.1,0,317)"/>
<path style="fill:none;stroke-width:9.75;stroke-linecap:round;stroke-linejoin:bevel;stroke:rgb(0%,0%,0%);stroke-opacity:1;stroke-miterlimit:6;" d="M 1210 1195 L 1210 1255 " transform="matrix(0.1,0,0,-0.1,0,317)"/>
<path style="fill:none;stroke-width:9.75;stroke-linecap:round;stroke-linejoin:bevel;stroke:rgb(0%,0%,0%);stroke-opacity:1;stroke-miterlimit:6;" d="M 1330 1105 L 1210 1105 L 1210 1165 " transform="matrix(0.1,0,0,-0.1,0,317)"/>
<path style="fill:none;stroke-width:9.75;stroke-linecap:round;stroke-linejoin:bevel;stroke:rgb(0%,0%,0%);stroke-opacity:1;stroke-miterlimit:6;" d="M 1330 1225 L 1210 1225 " transform="matrix(0.1,0,0,-0.1,0,317)"/>
<path style=" stroke:none;fill-rule:evenodd;fill:rgb(0%,0%,0%);fill-opacity:1;" d="M 135.25 212.5 C 135.25 211.257812 134.242188 210.25 133 210.25 C 131.757812 210.25 130.75 211.257812 130.75 212.5 C 130.75 213.742188 131.757812 214.75 133 214.75 C 134.242188 214.75 135.25 213.742188 135.25 212.5 "/>
<path style=" stroke:none;fill-rule:evenodd;fill:rgb(0%,0%,0%);fill-opacity:1;" d="M 135.25 176.5 C 135.25 175.257812 134.242188 174.25 133 174.25 C 131.757812 174.25 130.75 175.257812 130.75 176.5 C 130.75 177.742188 131.757812 178.75 133 178.75 C 134.242188 178.75 135.25 177.742188 135.25 176.5 "/>
<path style=" stroke:none;fill-rule:evenodd;fill:rgb(0%,0%,0%);fill-opacity:1;" d="M 151.75 200.5 L 145 188.5 L 138.25 200.5 "/>
<path style="fill:none;stroke-width:9.75;stroke-linecap:round;stroke-linejoin:bevel;stroke:rgb(0%,0%,0%);stroke-opacity:1;stroke-miterlimit:6;" d="M 1450 1165 L 1450 1045 " transform="matrix(0.1,0,0,-0.1,0,317)"/>
<path style="fill:none;stroke-width:9.75;stroke-linecap:round;stroke-linejoin:bevel;stroke:rgb(0%,0%,0%);stroke-opacity:1;stroke-miterlimit:6;" d="M 1450 1285 L 1450 1405 " transform="matrix(0.1,0,0,-0.1,0,317)"/>
<path style="fill:none;stroke-width:9.75;stroke-linecap:round;stroke-linejoin:bevel;stroke:rgb(0%,0%,0%);stroke-opacity:1;stroke-miterlimit:6;" d="M 1517.5 1285 L 1382.5 1285 " transform="matrix(0.1,0,0,-0.1,0,317)"/>
<path style="fill:none;stroke-width:9.75;stroke-linecap:round;stroke-linejoin:bevel;stroke:rgb(0%,0%,0%);stroke-opacity:1;stroke-miterlimit:6;" d="M 1330 1465 L 1330 1345 L 1210 1345 " transform="matrix(0.1,0,0,-0.1,0,317)"/>
<path style="fill:none;stroke-width:9.75;stroke-linecap:round;stroke-linejoin:bevel;stroke:rgb(0%,0%,0%);stroke-opacity:1;stroke-miterlimit:6;" d="M 1450 1405 L 1330 1405 " transform="matrix(0.1,0,0,-0.1,0,317)"/>
<path style="fill:none;stroke-width:9.75;stroke-linecap:round;stroke-linejoin:bevel;stroke:rgb(0%,0%,0%);stroke-opacity:1;stroke-miterlimit:6;" d="M 1450 1045 L 1330 1045 " transform="matrix(0.1,0,0,-0.1,0,317)"/>
<path style=" stroke:none;fill-rule:evenodd;fill:rgb(0%,0%,0%);fill-opacity:1;" d="M 125.5 197.5 L 131.5 194.5 L 125.5 191.5 "/>
<path style="fill:none;stroke-width:9.75;stroke-linecap:round;stroke-linejoin:bevel;stroke:rgb(0%,0%,0%);stroke-opacity:1;stroke-miterlimit:6;" d="M 1255 1195 L 1315 1225 L 1255 1255 Z M 1255 1195 " transform="matrix(0.1,0,0,-0.1,0,317)"/>
<path style="fill:none;stroke-width:9.75;stroke-linecap:round;stroke-linejoin:bevel;stroke:rgb(0%,0%,0%);stroke-opacity:1;stroke-miterlimit:6;" d="M 1330 1345 L 1330 1225 " transform="matrix(0.1,0,0,-0.1,0,317)"/>
<path style="fill:none;stroke-width:9.75;stroke-linecap:round;stroke-linejoin:bevel;stroke:rgb(0%,0%,0%);stroke-opacity:1;stroke-miterlimit:6;" d="M 1330 1045 L 1330 1105 " transform="matrix(0.1,0,0,-0.1,0,317)"/>
<path style="fill:none;stroke-width:9.75;stroke-linecap:round;stroke-linejoin:bevel;stroke:rgb(0%,0%,0%);stroke-opacity:1;stroke-miterlimit:6;" d="M 1330 985 L 1330 1060 " transform="matrix(0.1,0,0,-0.1,0,317)"/>
<path style="fill:none;stroke-width:9.75;stroke-linecap:round;stroke-linejoin:bevel;stroke:rgb(0%,0%,0%);stroke-opacity:1;stroke-miterlimit:6;" d="M 1180 1945 L 1090 1945 " transform="matrix(0.1,0,0,-0.1,0,317)"/>
<path style="fill:none;stroke-width:9.75;stroke-linecap:round;stroke-linejoin:bevel;stroke:rgb(0%,0%,0%);stroke-opacity:1;stroke-miterlimit:6;" d="M 1180 2065 L 1180 1825 " transform="matrix(0.1,0,0,-0.1,0,317)"/>
<path style="fill:none;stroke-width:9.75;stroke-linecap:round;stroke-linejoin:bevel;stroke:rgb(0%,0%,0%);stroke-opacity:1;stroke-miterlimit:6;" d="M 1210 1885 L 1210 1825 " transform="matrix(0.1,0,0,-0.1,0,317)"/>
<path style="fill:none;stroke-width:9.75;stroke-linecap:round;stroke-linejoin:bevel;stroke:rgb(0%,0%,0%);stroke-opacity:1;stroke-miterlimit:6;" d="M 1210 1975 L 1210 1915 " transform="matrix(0.1,0,0,-0.1,0,317)"/>
<path style="fill:none;stroke-width:9.75;stroke-linecap:round;stroke-linejoin:bevel;stroke:rgb(0%,0%,0%);stroke-opacity:1;stroke-miterlimit:6;" d="M 1330 2065 L 1210 2065 L 1210 2005 " transform="matrix(0.1,0,0,-0.1,0,317)"/>
<path style="fill:none;stroke-width:9.75;stroke-linecap:round;stroke-linejoin:bevel;stroke:rgb(0%,0%,0%);stroke-opacity:1;stroke-miterlimit:6;" d="M 1330 1945 L 1210 1945 " transform="matrix(0.1,0,0,-0.1,0,317)"/>
<path style=" stroke:none;fill-rule:evenodd;fill:rgb(0%,0%,0%);fill-opacity:1;" d="M 135.25 104.5 C 135.25 105.742188 134.242188 106.75 133 106.75 C 131.757812 106.75 130.75 105.742188 130.75 104.5 C 130.75 103.257812 131.757812 102.25 133 102.25 C 134.242188 102.25 135.25 103.257812 135.25 104.5 "/>
<path style=" stroke:none;fill-rule:evenodd;fill:rgb(0%,0%,0%);fill-opacity:1;" d="M 135.25 140.5 C 135.25 141.742188 134.242188 142.75 133 142.75 C 131.757812 142.75 130.75 141.742188 130.75 140.5 C 130.75 139.257812 131.757812 138.25 133 138.25 C 134.242188 138.25 135.25 139.257812 135.25 140.5 "/>
<path style=" stroke:none;fill-rule:evenodd;fill:rgb(0%,0%,0%);fill-opacity:1;" d="M 151.75 116.5 L 145 128.5 L 138.25 116.5 "/>
<path style="fill:none;stroke-width:9.75;stroke-linecap:round;stroke-linejoin:bevel;stroke:rgb(0%,0%,0%);stroke-opacity:1;stroke-miterlimit:6;" d="M 1450 2005 L 1450 2125 " transform="matrix(0.1,0,0,-0.1,0,317)"/>
<path style="fill:none;stroke-width:9.75;stroke-linecap:round;stroke-linejoin:bevel;stroke:rgb(0%,0%,0%);stroke-opacity:1;stroke-miterlimit:6;" d="M 1450 1885 L 1450 1765 " transform="matrix(0.1,0,0,-0.1,0,317)"/>
<path style="fill:none;stroke-width:9.75;stroke-linecap:round;stroke-linejoin:bevel;stroke:rgb(0%,0%,0%);stroke-opacity:1;stroke-miterlimit:6;" d="M 1517.5 1885 L 1382.5 1885 " transform="matrix(0.1,0,0,-0.1,0,317)"/>
<path style="fill:none;stroke-width:9.75;stroke-linecap:round;stroke-linejoin:bevel;stroke:rgb(0%,0%,0%);stroke-opacity:1;stroke-miterlimit:6;" d="M 1330 1705 L 1330 1825 L 1210 1825 " transform="matrix(0.1,0,0,-0.1,0,317)"/>
<path style="fill:none;stroke-width:9.75;stroke-linecap:round;stroke-linejoin:bevel;stroke:rgb(0%,0%,0%);stroke-opacity:1;stroke-miterlimit:6;" d="M 1450 1765 L 1330 1765 " transform="matrix(0.1,0,0,-0.1,0,317)"/>
<path style="fill:none;stroke-width:9.75;stroke-linecap:round;stroke-linejoin:bevel;stroke:rgb(0%,0%,0%);stroke-opacity:1;stroke-miterlimit:6;" d="M 1450 2125 L 1330 2125 " transform="matrix(0.1,0,0,-0.1,0,317)"/>
<path style=" stroke:none;fill-rule:evenodd;fill:rgb(0%,0%,0%);fill-opacity:1;" d="M 125.5 119.5 L 131.5 122.5 L 125.5 125.5 "/>
<path style="fill:none;stroke-width:9.75;stroke-linecap:round;stroke-linejoin:bevel;stroke:rgb(0%,0%,0%);stroke-opacity:1;stroke-miterlimit:6;" d="M 1255 1975 L 1315 1945 L 1255 1915 Z M 1255 1975 " transform="matrix(0.1,0,0,-0.1,0,317)"/>
<path style="fill:none;stroke-width:9.75;stroke-linecap:round;stroke-linejoin:bevel;stroke:rgb(0%,0%,0%);stroke-opacity:1;stroke-miterlimit:6;" d="M 1330 1825 L 1330 1945 " transform="matrix(0.1,0,0,-0.1,0,317)"/>
<path style="fill:none;stroke-width:9.75;stroke-linecap:round;stroke-linejoin:bevel;stroke:rgb(0%,0%,0%);stroke-opacity:1;stroke-miterlimit:6;" d="M 1330 2125 L 1330 2065 " transform="matrix(0.1,0,0,-0.1,0,317)"/>
<path style="fill:none;stroke-width:9.75;stroke-linecap:round;stroke-linejoin:bevel;stroke:rgb(0%,0%,0%);stroke-opacity:1;stroke-miterlimit:6;" d="M 1330 2185 L 1330 2110 " transform="matrix(0.1,0,0,-0.1,0,317)"/>
<path style="fill:none;stroke-width:9.75;stroke-linecap:round;stroke-linejoin:bevel;stroke:rgb(0%,0%,0%);stroke-opacity:1;stroke-miterlimit:6;" d="M 1330 2170 L 1330 2305 " transform="matrix(0.1,0,0,-0.1,0,317)"/>
<path style="fill:none;stroke-width:9.75;stroke-linecap:round;stroke-linejoin:bevel;stroke:rgb(0%,0%,0%);stroke-opacity:1;stroke-miterlimit:6;" d="M 1330 1435 L 1330 1585 " transform="matrix(0.1,0,0,-0.1,0,317)"/>
<path style="fill:none;stroke-width:9.75;stroke-linecap:round;stroke-linejoin:bevel;stroke:rgb(0%,0%,0%);stroke-opacity:1;stroke-miterlimit:6;" d="M 1330 1585 L 1330 1735 " transform="matrix(0.1,0,0,-0.1,0,317)"/>
<path style="fill:none;stroke-width:9.75;stroke-linecap:round;stroke-linejoin:bevel;stroke:rgb(0%,0%,0%);stroke-opacity:1;stroke-miterlimit:6;" d="M 1330 880 L 1330 1000 " transform="matrix(0.1,0,0,-0.1,0,317)"/>
<path style="fill:none;stroke-width:9.75;stroke-linecap:round;stroke-linejoin:bevel;stroke:rgb(0%,0%,0%);stroke-opacity:1;stroke-miterlimit:6;" d="M 1007.5 2605 C 1007.5 2617.421875 1017.578125 2627.5 1030 2627.5 C 1042.421875 2627.5 1052.5 2617.421875 1052.5 2605 C 1052.5 2592.578125 1042.421875 2582.5 1030 2582.5 C 1017.578125 2582.5 1007.5 2592.578125 1007.5 2605 " transform="matrix(0.1,0,0,-0.1,0,317)"/>
<path style="fill:none;stroke-width:9.75;stroke-linecap:round;stroke-linejoin:bevel;stroke:rgb(0%,0%,0%);stroke-opacity:1;stroke-miterlimit:6;" d="M 1052.5 2605 L 1090 2605 " transform="matrix(0.1,0,0,-0.1,0,317)"/>
<path style="fill:none;stroke-width:9.75;stroke-linecap:round;stroke-linejoin:bevel;stroke:rgb(0%,0%,0%);stroke-opacity:1;stroke-miterlimit:6;" d="M 1007.5 1945 C 1007.5 1957.421875 1017.578125 1967.5 1030 1967.5 C 1042.421875 1967.5 1052.5 1957.421875 1052.5 1945 C 1052.5 1932.578125 1042.421875 1922.5 1030 1922.5 C 1017.578125 1922.5 1007.5 1932.578125 1007.5 1945 " transform="matrix(0.1,0,0,-0.1,0,317)"/>
<path style="fill:none;stroke-width:9.75;stroke-linecap:round;stroke-linejoin:bevel;stroke:rgb(0%,0%,0%);stroke-opacity:1;stroke-miterlimit:6;" d="M 1052.5 1945 L 1090 1945 " transform="matrix(0.1,0,0,-0.1,0,317)"/>
<path style="fill:none;stroke-width:9.75;stroke-linecap:round;stroke-linejoin:bevel;stroke:rgb(0%,0%,0%);stroke-opacity:1;stroke-miterlimit:6;" d="M 1007.5 1225 C 1007.5 1237.421875 1017.578125 1247.5 1030 1247.5 C 1042.421875 1247.5 1052.5 1237.421875 1052.5 1225 C 1052.5 1212.578125 1042.421875 1202.5 1030 1202.5 C 1017.578125 1202.5 1007.5 1212.578125 1007.5 1225 " transform="matrix(0.1,0,0,-0.1,0,317)"/>
<path style="fill:none;stroke-width:9.75;stroke-linecap:round;stroke-linejoin:bevel;stroke:rgb(0%,0%,0%);stroke-opacity:1;stroke-miterlimit:6;" d="M 1052.5 1225 L 1090 1225 " transform="matrix(0.1,0,0,-0.1,0,317)"/>
<path style="fill:none;stroke-width:9.75;stroke-linecap:round;stroke-linejoin:bevel;stroke:rgb(0%,0%,0%);stroke-opacity:1;stroke-miterlimit:6;" d="M 1007.5 505 C 1007.5 517.421875 1017.578125 527.5 1030 527.5 C 1042.421875 527.5 1052.5 517.421875 1052.5 505 C 1052.5 492.578125 1042.421875 482.5 1030 482.5 C 1017.578125 482.5 1007.5 492.578125 1007.5 505 " transform="matrix(0.1,0,0,-0.1,0,317)"/>
<path style="fill:none;stroke-width:9.75;stroke-linecap:round;stroke-linejoin:bevel;stroke:rgb(0%,0%,0%);stroke-opacity:1;stroke-miterlimit:6;" d="M 1052.5 505 L 1090 505 " transform="matrix(0.1,0,0,-0.1,0,317)"/>
<g style="fill:rgb(0%,0%,0%);fill-opacity:1;">
  <use xlink:href="#glyph0-4" x="151.991" y="199"/>
</g>
<g style="fill:rgb(0%,0%,0%);fill-opacity:1;">
  <use xlink:href="#glyph1-1" x="162.8211" y="202.31641"/>
</g>
<g style="fill:rgb(0%,0%,0%);fill-opacity:1;">
  <use xlink:href="#glyph0-4" x="151.991" y="271.00001"/>
</g>
<g style="fill:rgb(0%,0%,0%);fill-opacity:1;">
  <use xlink:href="#glyph1-2" x="162.8211" y="274.31642"/>
</g>
<g style="fill:rgb(0%,0%,0%);fill-opacity:1;">
  <use xlink:href="#glyph0-4" x="153.49102" y="124.00042"/>
</g>
<g style="fill:rgb(0%,0%,0%);fill-opacity:1;">
  <use xlink:href="#glyph1-3" x="164.32112" y="127.31683"/>
</g>
<g style="fill:rgb(0%,0%,0%);fill-opacity:1;">
  <use xlink:href="#glyph0-4" x="153.49102" y="59.50043"/>
</g>
<g style="fill:rgb(0%,0%,0%);fill-opacity:1;">
  <use xlink:href="#glyph1-12" x="164.32112" y="62.81684"/>
</g>
<g style="fill:rgb(0%,0%,0%);fill-opacity:1;">
  <use xlink:href="#glyph0-5" x="164.261354" y="179.50084"/>
</g>
<g style="fill:rgb(0%,0%,0%);fill-opacity:1;">
  <use xlink:href="#glyph1-1" x="175.091454" y="182.81725"/>
</g>
<g style="fill:rgb(0%,0%,0%);fill-opacity:1;">
  <use xlink:href="#glyph0-5" x="236.261354" y="178.00084"/>
</g>
<g style="fill:rgb(0%,0%,0%);fill-opacity:1;">
  <use xlink:href="#glyph1-2" x="247.091454" y="181.31725"/>
</g>
<g style="fill:rgb(0%,0%,0%);fill-opacity:1;">
  <use xlink:href="#glyph0-5" x="308.261354" y="178.00084"/>
</g>
<g style="fill:rgb(0%,0%,0%);fill-opacity:1;">
  <use xlink:href="#glyph1-3" x="319.091454" y="181.31725"/>
</g>
<g style="fill:rgb(0%,0%,0%);fill-opacity:1;">
  <use xlink:href="#glyph0-5" x="378.761354" y="178.00084"/>
</g>
<g style="fill:rgb(0%,0%,0%);fill-opacity:1;">
  <use xlink:href="#glyph1-12" x="389.591454" y="181.31725"/>
</g>
<g style="fill:rgb(0%,0%,0%);fill-opacity:1;">
  <use xlink:href="#glyph5-1" x="62.186454" y="59.50125"/>
</g>
<g style="fill:rgb(0%,0%,0%);fill-opacity:1;">
  <use xlink:href="#glyph6-1" x="68.846614" y="62.81766"/>
  <use xlink:href="#glyph6-2" x="73.871614" y="62.81766"/>
</g>
<g style="fill:rgb(0%,0%,0%);fill-opacity:1;">
  <use xlink:href="#glyph5-2" x="79.834114" y="59.50125"/>
  <use xlink:href="#glyph5-3" x="84.829114" y="59.50125"/>
  <use xlink:href="#glyph5-4" x="88.999114" y="59.50125"/>
</g>
<g style="fill:rgb(0%,0%,0%);fill-opacity:1;">
  <use xlink:href="#glyph5-1" x="62.186414" y="125.50125"/>
</g>
<g style="fill:rgb(0%,0%,0%);fill-opacity:1;">
  <use xlink:href="#glyph6-1" x="68.846574" y="128.81766"/>
  <use xlink:href="#glyph6-3" x="73.871574" y="128.81766"/>
</g>
<g style="fill:rgb(0%,0%,0%);fill-opacity:1;">
  <use xlink:href="#glyph5-2" x="79.834074" y="125.50125"/>
  <use xlink:href="#glyph5-3" x="84.829074" y="125.50125"/>
  <use xlink:href="#glyph5-4" x="88.999074" y="125.50125"/>
</g>
<g style="fill:rgb(0%,0%,0%);fill-opacity:1;">
  <use xlink:href="#glyph5-1" x="63.686374" y="199.00125"/>
</g>
<g style="fill:rgb(0%,0%,0%);fill-opacity:1;">
  <use xlink:href="#glyph6-1" x="70.346534" y="202.31766"/>
  <use xlink:href="#glyph6-4" x="75.371534" y="202.31766"/>
</g>
<g style="fill:rgb(0%,0%,0%);fill-opacity:1;">
  <use xlink:href="#glyph5-2" x="81.334034" y="199.00125"/>
  <use xlink:href="#glyph5-3" x="86.329034" y="199.00125"/>
  <use xlink:href="#glyph5-4" x="90.499034" y="199.00125"/>
</g>
<g style="fill:rgb(0%,0%,0%);fill-opacity:1;">
  <use xlink:href="#glyph5-1" x="63.686334" y="269.50125"/>
</g>
<g style="fill:rgb(0%,0%,0%);fill-opacity:1;">
  <use xlink:href="#glyph6-1" x="70.346494" y="272.81766"/>
  <use xlink:href="#glyph6-5" x="75.371494" y="272.81766"/>
</g>
<g style="fill:rgb(0%,0%,0%);fill-opacity:1;">
  <use xlink:href="#glyph5-2" x="81.333994" y="269.50125"/>
  <use xlink:href="#glyph5-3" x="86.328994" y="269.50125"/>
  <use xlink:href="#glyph5-4" x="90.498994" y="269.50125"/>
</g>
<path style="fill:none;stroke-width:9.75;stroke-linecap:round;stroke-linejoin:bevel;stroke:rgb(0%,0%,0%);stroke-opacity:1;stroke-miterlimit:6;" d="M 2770 2387.5 C 2757.578125 2387.5 2747.5 2377.421875 2747.5 2365 C 2747.5 2352.578125 2757.578125 2342.5 2770 2342.5 C 2782.421875 2342.5 2792.5 2352.578125 2792.5 2365 C 2792.5 2377.421875 2782.421875 2387.5 2770 2387.5 " transform="matrix(0.1,0,0,-0.1,0,317)"/>
<path style="fill:none;stroke-width:9.75;stroke-linecap:round;stroke-linejoin:bevel;stroke:rgb(0%,0%,0%);stroke-opacity:1;stroke-miterlimit:6;" d="M 2770 2342.5 L 2770 2305 " transform="matrix(0.1,0,0,-0.1,0,317)"/>
<path style=" stroke:none;fill-rule:evenodd;fill:rgb(0%,0%,0%);fill-opacity:1;" d="M 279.25 86.5 C 279.25 85.257812 278.242188 84.25 277 84.25 C 275.757812 84.25 274.75 85.257812 274.75 86.5 C 274.75 87.742188 275.757812 88.75 277 88.75 C 278.242188 88.75 279.25 87.742188 279.25 86.5 "/>
<g style="fill:rgb(100%,0%,0%);fill-opacity:1;">
  <use xlink:href="#glyph5-5" x="349.511" y="245.5"/>
  <use xlink:href="#glyph5-6" x="359.516" y="245.5"/>
  <use xlink:href="#glyph5-7" x="367.856" y="245.5"/>
</g>
<g style="fill:rgb(100%,0%,0%);fill-opacity:1;">
  <use xlink:href="#glyph6-4" x="377.861" y="248.81641"/>
</g>
<path style="fill:none;stroke-width:9.75;stroke-linecap:round;stroke-linejoin:bevel;stroke:rgb(0%,0%,0%);stroke-opacity:1;stroke-miterlimit:6;" d="M 3572.5 865 C 3572.5 877.421875 3562.421875 887.5 3550 887.5 C 3537.578125 887.5 3527.5 877.421875 3527.5 865 C 3527.5 852.578125 3537.578125 842.5 3550 842.5 C 3562.421875 842.5 3572.5 852.578125 3572.5 865 " transform="matrix(0.1,0,0,-0.1,0,317)"/>
<path style="fill:none;stroke-width:9.75;stroke-linecap:round;stroke-linejoin:bevel;stroke:rgb(0%,0%,0%);stroke-opacity:1;stroke-miterlimit:6;" d="M 3527.5 865 L 3490 865 " transform="matrix(0.1,0,0,-0.1,0,317)"/>
<g style="fill:rgb(100%,0%,0%);fill-opacity:1;">
  <use xlink:href="#glyph5-5" x="283.511" y="86.5"/>
  <use xlink:href="#glyph5-6" x="293.516" y="86.5"/>
  <use xlink:href="#glyph5-7" x="301.856" y="86.5"/>
</g>
<g style="fill:rgb(100%,0%,0%);fill-opacity:1;">
  <use xlink:href="#glyph6-5" x="311.861" y="89.81641"/>
</g>
<path style=" stroke:none;fill-rule:evenodd;fill:rgb(0%,0%,0%);fill-opacity:1;" d="M 351.25 230.5 C 351.25 229.257812 350.242188 228.25 349 228.25 C 347.757812 228.25 346.75 229.257812 346.75 230.5 C 346.75 231.742188 347.757812 232.75 349 232.75 C 350.242188 232.75 351.25 231.742188 351.25 230.5 "/>
</g>
</svg>
