<?xml version="1.0" encoding="UTF-8"?>
<svg xmlns="http://www.w3.org/2000/svg" xmlns:xlink="http://www.w3.org/1999/xlink" width="456pt" height="323pt" viewBox="0 0 456 323" version="1.1">
<defs>
<g>
<symbol overflow="visible" id="glyph0-0">
<path style="stroke:none;" d=""/>
</symbol>
<symbol overflow="visible" id="glyph0-1">
<path style="stroke:none;" d="M 0.3125 -6.046875 C 0.484375 -6.0625 0.59375 -6.0625 0.765625 -6.0625 C 1.34375 -6.0625 1.5 -5.8125 1.703125 -4.421875 C 1.859375 -3.390625 2.046875 -1.125 2.046875 -0.25 C 2.046875 0.171875 2.0625 0.265625 2.171875 0.265625 C 2.546875 0.265625 3.9375 -1.3125 5.46875 -3.453125 C 6 -4.203125 6.390625 -5.171875 6.390625 -5.734375 C 6.390625 -6.203125 6 -6.609375 5.546875 -6.609375 C 5.21875 -6.609375 5 -6.421875 5 -6.109375 C 5 -5.859375 5.078125 -5.6875 5.359375 -5.4375 C 5.546875 -5.265625 5.625 -5.140625 5.625 -5 C 5.625 -4.3125 4.640625 -2.640625 3.5625 -1.53125 L 3.109375 -1.046875 C 3 -3.171875 2.90625 -3.9375 2.71875 -5.0625 C 2.421875 -6.578125 2.421875 -6.609375 2.28125 -6.609375 C 2.203125 -6.609375 2.09375 -6.59375 1.984375 -6.5625 C 1.703125 -6.484375 0.890625 -6.328125 0.3125 -6.234375 Z M 0.3125 -6.046875 "/>
</symbol>
<symbol overflow="visible" id="glyph0-2">
<path style="stroke:none;" d="M 2.390625 2.625 C 1.84375 1.109375 1.671875 0.171875 1.671875 -1.28125 C 1.671875 -3.078125 2.09375 -5.234375 2.796875 -6.90625 C 3.265625 -8.078125 3.75 -8.796875 4.71875 -9.8125 L 4.53125 -10.03125 C 2.578125 -8.265625 1.8125 -7.28125 1.1875 -5.71875 C 0.796875 -4.765625 0.625 -3.84375 0.625 -2.703125 C 0.625 -1.546875 0.8125 -0.421875 1.140625 0.609375 C 1.34375 1.265625 1.578125 1.71875 2.109375 2.71875 Z M 2.390625 2.625 "/>
</symbol>
<symbol overflow="visible" id="glyph0-3">
<path style="stroke:none;" d="M 4.4375 -6.421875 L 3.234375 -6.421875 L 3.65625 -7.96875 C 3.671875 -8 3.671875 -8.03125 3.671875 -8.046875 C 3.671875 -8.140625 3.625 -8.1875 3.5625 -8.1875 C 3.46875 -8.1875 3.421875 -8.171875 3.328125 -8.0625 C 2.75 -7.296875 1.8125 -6.546875 1.328125 -6.40625 C 0.953125 -6.28125 0.859375 -6.1875 0.859375 -6.03125 C 0.859375 -6.015625 0.859375 -5.984375 0.875 -5.9375 L 1.984375 -5.9375 L 0.90625 -1.8125 C 0.875 -1.6875 0.859375 -1.640625 0.8125 -1.5 C 0.671875 -1.046875 0.5625 -0.53125 0.5625 -0.40625 C 0.5625 -0.078125 0.875 0.171875 1.28125 0.171875 C 1.96875 0.171875 2.453125 -0.25 3.40625 -1.65625 L 3.203125 -1.75 C 2.46875 -0.8125 2.234375 -0.5625 2 -0.5625 C 1.859375 -0.5625 1.765625 -0.6875 1.765625 -0.875 C 1.765625 -0.890625 1.765625 -0.90625 1.78125 -0.9375 L 3.109375 -5.9375 L 4.359375 -5.9375 Z M 4.4375 -6.421875 "/>
</symbol>
<symbol overflow="visible" id="glyph0-4">
<path style="stroke:none;" d="M 0.4375 2.703125 C 2.296875 1.078125 3.0625 0.125 3.734375 -1.515625 C 4.15625 -2.5 4.328125 -3.453125 4.328125 -4.5625 C 4.328125 -5.421875 4.21875 -6.375 4 -7.28125 C 3.75 -8.296875 3.53125 -8.828125 2.84375 -10.03125 L 2.5625 -9.953125 C 3.078125 -8.75 3.296875 -7.53125 3.296875 -6.03125 C 3.296875 -4.125 2.796875 -1.6875 2.046875 -0.09375 C 1.609375 0.890625 1.15625 1.515625 0.234375 2.46875 Z M 0.4375 2.703125 "/>
</symbol>
<symbol overflow="visible" id="glyph1-0">
<path style="stroke:none;" d=""/>
</symbol>
<symbol overflow="visible" id="glyph1-1">
<path style="stroke:none;" d="M 4.65625 -1.109375 C 4.515625 -0.953125 4.453125 -0.90625 4.375 -0.828125 C 4.078125 -0.515625 3.953125 -0.40625 3.859375 -0.40625 C 3.78125 -0.40625 3.71875 -0.46875 3.71875 -0.546875 C 3.71875 -0.75 4.140625 -2.46875 4.609375 -4.1875 C 4.640625 -4.296875 4.65625 -4.3125 4.671875 -4.40625 L 4.59375 -4.4375 L 3.984375 -4.359375 L 3.953125 -4.328125 L 3.84375 -3.84375 C 3.765625 -4.21875 3.46875 -4.4375 3.046875 -4.4375 C 1.71875 -4.4375 0.171875 -2.59375 0.171875 -1 C 0.171875 -0.296875 0.546875 0.109375 1.203125 0.109375 C 1.90625 0.109375 2.328125 -0.21875 3.21875 -1.46875 C 3.015625 -0.6875 2.984375 -0.546875 2.984375 -0.3125 C 2.984375 -0.015625 3.109375 0.09375 3.390625 0.09375 C 3.78125 0.09375 4.03125 -0.09375 4.78125 -1 Z M 3.109375 -4.203125 C 3.453125 -4.1875 3.671875 -3.953125 3.671875 -3.59375 C 3.671875 -2.75 3.171875 -1.5625 2.46875 -0.828125 C 2.234375 -0.546875 1.890625 -0.375 1.59375 -0.375 C 1.25 -0.375 1.015625 -0.671875 1.015625 -1.140625 C 1.015625 -1.671875 1.390625 -2.71875 1.828125 -3.328125 C 2.234375 -3.921875 2.703125 -4.234375 3.109375 -4.203125 Z M 3.109375 -4.203125 "/>
</symbol>
<symbol overflow="visible" id="glyph1-2">
<path style="stroke:none;" d="M 3.515625 -1.0625 C 2.96875 -0.46875 2.578125 -0.25 2.078125 -0.25 C 1.5 -0.25 1.171875 -0.6875 1.171875 -1.390625 C 1.171875 -2.25 1.515625 -3.140625 2.078125 -3.734375 C 2.375 -4.03125 2.765625 -4.21875 3.171875 -4.21875 C 3.390625 -4.21875 3.546875 -4.140625 3.546875 -4.015625 C 3.546875 -3.96875 3.53125 -3.921875 3.484375 -3.828125 C 3.421875 -3.703125 3.390625 -3.625 3.390625 -3.53125 C 3.390625 -3.296875 3.546875 -3.15625 3.78125 -3.15625 C 4.0625 -3.15625 4.265625 -3.359375 4.265625 -3.609375 C 4.265625 -4.078125 3.8125 -4.4375 3.21875 -4.4375 C 1.703125 -4.4375 0.296875 -2.96875 0.296875 -1.390625 C 0.296875 -0.4375 0.84375 0.109375 1.78125 0.109375 C 2.515625 0.109375 3.078125 -0.203125 3.671875 -0.96875 Z M 3.515625 -1.0625 "/>
</symbol>
<symbol overflow="visible" id="glyph1-3">
<path style="stroke:none;" d="M 0.359375 -1.46875 L 0.15625 0.125 L 0.328125 0.125 C 0.40625 -0.03125 0.46875 -0.078125 0.5625 -0.078125 C 0.671875 -0.078125 0.859375 -0.046875 1.0625 0.015625 C 1.28125 0.078125 1.453125 0.109375 1.609375 0.109375 C 2.453125 0.109375 3.046875 -0.4375 3.046875 -1.203125 C 3.046875 -1.578125 2.84375 -2.015625 2.375 -2.609375 C 1.984375 -3.078125 1.828125 -3.390625 1.828125 -3.65625 C 1.828125 -3.984375 2.046875 -4.203125 2.390625 -4.203125 C 2.90625 -4.203125 3.21875 -3.828125 3.3125 -3.046875 L 3.46875 -3.046875 L 3.671875 -4.4375 L 3.53125 -4.4375 C 3.453125 -4.296875 3.375 -4.265625 3.234375 -4.265625 C 3.171875 -4.265625 3.0625 -4.28125 2.875 -4.328125 C 2.625 -4.40625 2.46875 -4.4375 2.3125 -4.4375 C 1.578125 -4.4375 1.09375 -4 1.09375 -3.328125 C 1.09375 -3 1.3125 -2.578125 1.734375 -2.03125 C 2.125 -1.515625 2.296875 -1.171875 2.296875 -0.875 C 2.296875 -0.421875 1.984375 -0.09375 1.546875 -0.09375 C 1 -0.09375 0.6875 -0.515625 0.515625 -1.46875 Z M 0.359375 -1.46875 "/>
</symbol>
<symbol overflow="visible" id="glyph2-0">
<path style="stroke:none;" d=""/>
</symbol>
<symbol overflow="visible" id="glyph2-1">
<path style="stroke:none;" d="M 3.578125 -1.59375 C 3.03125 -0.828125 2.6875 -0.578125 2.203125 -0.578125 C 1.71875 -0.578125 1.390625 -0.984375 1.390625 -1.59375 C 1.390625 -2.28125 1.671875 -3.296875 2.078125 -4.03125 C 2.375 -4.5625 2.71875 -4.828125 3.046875 -4.828125 C 3.1875 -4.828125 3.296875 -4.75 3.296875 -4.640625 C 3.296875 -4.59375 3.28125 -4.515625 3.203125 -4.421875 C 3.109375 -4.234375 3.0625 -4.125 3.0625 -3.984375 C 3.0625 -3.640625 3.34375 -3.390625 3.71875 -3.390625 C 4.125 -3.390625 4.40625 -3.71875 4.40625 -4.1875 C 4.40625 -4.78125 3.890625 -5.203125 3.15625 -5.203125 C 1.5625 -5.203125 -0.0625 -3.359375 -0.0625 -1.546875 C -0.0625 -0.546875 0.65625 0.140625 1.671875 0.140625 C 2.15625 0.140625 2.640625 -0.03125 3.03125 -0.359375 C 3.3125 -0.609375 3.5 -0.828125 3.890625 -1.390625 Z M 3.578125 -1.59375 "/>
</symbol>
<symbol overflow="visible" id="glyph2-2">
<path style="stroke:none;" d="M 5.359375 -1.59375 C 4.875 -0.90625 4.65625 -0.65625 4.515625 -0.65625 C 4.4375 -0.65625 4.3125 -0.765625 4.3125 -0.84375 C 4.3125 -0.859375 4.3125 -0.875 4.359375 -0.984375 L 5 -2.984375 C 5.21875 -3.671875 5.34375 -4.140625 5.34375 -4.359375 C 5.34375 -4.875 5.015625 -5.203125 4.484375 -5.203125 C 4.078125 -5.203125 3.75 -5.046875 3.359375 -4.71875 C 3 -4.421875 2.734375 -4.078125 2.109375 -3.1875 L 3.3125 -7.859375 C 2.4375 -7.6875 1.875 -7.609375 0.96875 -7.53125 L 0.96875 -7.21875 C 1.0625 -7.234375 1.15625 -7.234375 1.21875 -7.234375 C 1.515625 -7.234375 1.671875 -7.109375 1.671875 -6.859375 C 1.671875 -6.765625 1.640625 -6.59375 1.59375 -6.375 L -0.140625 0 L 1.21875 0 C 1.78125 -2 2.03125 -2.5625 2.59375 -3.390625 C 3.0625 -4.0625 3.4375 -4.390625 3.71875 -4.390625 C 3.859375 -4.390625 3.96875 -4.28125 3.96875 -4.15625 C 3.96875 -4.078125 3.953125 -4 3.921875 -3.890625 C 3.921875 -3.875 3.875 -3.75 3.796875 -3.515625 C 3.75 -3.390625 3.71875 -3.265625 3.671875 -3.15625 C 3.125 -1.578125 2.984375 -1.015625 2.984375 -0.546875 C 2.984375 -0.171875 3.28125 0.09375 3.71875 0.09375 C 4.40625 0.09375 4.859375 -0.265625 5.609375 -1.421875 Z M 5.359375 -1.59375 "/>
</symbol>
<symbol overflow="visible" id="glyph2-3">
<path style="stroke:none;" d="M 0.0625 0 L 3.9375 0 L 3.9375 -0.265625 C 3.046875 -0.265625 2.84375 -0.359375 2.84375 -0.78125 C 2.84375 -0.875 2.859375 -0.9375 2.984375 -1.390625 L 4.71875 -7.6875 C 3.6875 -7.4375 2.984375 -7.296875 1.671875 -7.09375 L 1.65625 -6.84375 C 1.953125 -6.890625 2.15625 -6.890625 2.359375 -6.890625 C 2.71875 -6.890625 2.875 -6.765625 2.875 -6.53125 C 2.875 -6.453125 2.859375 -6.359375 2.828125 -6.25 L 1.390625 -1.09375 C 1.203125 -0.46875 0.859375 -0.265625 0.0625 -0.265625 Z M 0.0625 0 "/>
</symbol>
<symbol overflow="visible" id="glyph2-4">
<path style="stroke:none;" d="M 4.71875 -2.15625 L 4.4375 -2.15625 C 4 -1.40625 3.75 -1.25 2.875 -1.25 L 1.1875 -1.25 L 3.390625 -3.125 C 4.453125 -4.03125 5.015625 -4.953125 5.015625 -5.796875 C 5.015625 -6.84375 4.203125 -7.6875 3.15625 -7.6875 C 2.5625 -7.6875 2.03125 -7.453125 1.546875 -7.015625 C 1.21875 -6.71875 1.03125 -6.453125 0.71875 -5.84375 L 0.96875 -5.703125 C 1.421875 -6.375 1.875 -6.671875 2.46875 -6.671875 C 3.109375 -6.671875 3.515625 -6.203125 3.515625 -5.4375 C 3.515625 -4.40625 2.828125 -3.390625 0.703125 -1.28125 L -0.296875 -0.265625 L -0.296875 0 L 3.828125 0 Z M 4.71875 -2.15625 "/>
</symbol>
<symbol overflow="visible" id="glyph2-5">
<path style="stroke:none;" d="M 1.4375 -3.90625 C 1.90625 -3.875 2.125 -3.84375 2.390625 -3.6875 C 2.921875 -3.421875 3.203125 -2.875 3.203125 -2.125 C 3.203125 -1.125 2.65625 -0.296875 1.96875 -0.296875 C 1.78125 -0.296875 1.609375 -0.375 1.515625 -0.46875 C 1.5 -0.484375 1.421875 -0.578125 1.234375 -0.859375 C 0.984375 -1.265625 0.796875 -1.390625 0.5 -1.390625 C 0.09375 -1.390625 -0.171875 -1.140625 -0.171875 -0.75 C -0.171875 -0.203125 0.40625 0.140625 1.328125 0.140625 C 3.140625 0.140625 4.59375 -1.171875 4.59375 -2.8125 C 4.59375 -3.5625 4.359375 -3.984375 3.71875 -4.46875 L 3.859375 -4.53125 C 4.65625 -4.921875 5.0625 -5.484375 5.0625 -6.15625 C 5.0625 -7.03125 4.34375 -7.6875 3.390625 -7.6875 C 2.46875 -7.6875 1.78125 -7.234375 1.09375 -6.1875 L 1.328125 -6.046875 C 1.78125 -6.6875 2.109375 -6.890625 2.625 -6.890625 C 3.234375 -6.890625 3.609375 -6.484375 3.609375 -5.875 C 3.609375 -5 2.9375 -4.453125 1.484375 -4.15625 Z M 1.4375 -3.90625 "/>
</symbol>
<symbol overflow="visible" id="glyph2-6">
<path style="stroke:none;" d="M 5.09375 -2.796875 L 4.3125 -2.796875 L 5.65625 -7.6875 L 4.953125 -7.6875 L 0.140625 -2.875 L -0.171875 -1.6875 L 2.578125 -1.6875 L 2.109375 0 L 3.5625 0 L 4.03125 -1.6875 L 4.796875 -1.6875 Z M 0.59375 -2.796875 L 3.765625 -5.9375 L 2.875 -2.796875 Z M 0.59375 -2.796875 "/>
</symbol>
<symbol overflow="visible" id="glyph3-0">
<path style="stroke:none;" d=""/>
</symbol>
<symbol overflow="visible" id="glyph3-1">
<path style="stroke:none;" d="M 3.796875 -7.09375 C 1.78125 -7.09375 0.359375 -5.59375 0.359375 -3.46875 C 0.359375 -2.484375 0.6875 -1.53125 1.265625 -0.921875 C 1.875 -0.265625 2.796875 0.140625 3.734375 0.140625 C 5.796875 0.140625 7.21875 -1.328125 7.21875 -3.4375 C 7.21875 -4.46875 6.921875 -5.359375 6.34375 -6 C 5.6875 -6.71875 4.796875 -7.09375 3.796875 -7.09375 Z M 3.796875 -6.71875 C 4.28125 -6.71875 4.75 -6.53125 5.140625 -6.1875 C 5.703125 -5.6875 6.03125 -4.6875 6.03125 -3.4375 C 6.03125 -2.828125 5.890625 -2.09375 5.6875 -1.546875 C 5.59375 -1.296875 5.40625 -1.03125 5.171875 -0.78125 C 4.796875 -0.421875 4.328125 -0.234375 3.765625 -0.234375 C 3.28125 -0.234375 2.8125 -0.421875 2.453125 -0.75 C 1.90625 -1.234375 1.546875 -2.28125 1.546875 -3.453125 C 1.546875 -4.53125 1.84375 -5.546875 2.28125 -6.03125 C 2.703125 -6.484375 3.21875 -6.71875 3.796875 -6.71875 Z M 3.796875 -6.71875 "/>
</symbol>
<symbol overflow="visible" id="glyph3-2">
<path style="stroke:none;" d="M 3.3125 -3.296875 L 3.265625 -4.71875 L 3.15625 -4.71875 L 3.125 -4.703125 C 3.03125 -4.625 3.03125 -4.625 2.984375 -4.625 C 2.921875 -4.625 2.8125 -4.640625 2.703125 -4.6875 C 2.46875 -4.78125 2.234375 -4.8125 1.96875 -4.8125 C 1.140625 -4.8125 0.53125 -4.28125 0.53125 -3.53125 C 0.53125 -2.9375 0.875 -2.515625 1.765625 -2.015625 L 2.375 -1.671875 C 2.734375 -1.453125 2.921875 -1.203125 2.921875 -0.875 C 2.921875 -0.421875 2.578125 -0.125 2.046875 -0.125 C 1.6875 -0.125 1.359375 -0.265625 1.171875 -0.5 C 0.9375 -0.75 0.84375 -1 0.71875 -1.59375 L 0.546875 -1.59375 L 0.546875 0.046875 L 0.6875 0.046875 C 0.75 -0.0625 0.796875 -0.078125 0.921875 -0.078125 C 1.015625 -0.078125 1.171875 -0.0625 1.40625 0 C 1.703125 0.0625 1.984375 0.109375 2.171875 0.109375 C 2.984375 0.109375 3.65625 -0.5 3.65625 -1.234375 C 3.65625 -1.765625 3.40625 -2.109375 2.765625 -2.484375 L 1.640625 -3.15625 C 1.34375 -3.328125 1.1875 -3.59375 1.1875 -3.875 C 1.1875 -4.296875 1.515625 -4.59375 2 -4.59375 C 2.59375 -4.59375 2.90625 -4.234375 3.15625 -3.296875 Z M 3.3125 -3.296875 "/>
</symbol>
<symbol overflow="visible" id="glyph3-3">
<path style="stroke:none;" d="M 4.171875 -1.640625 C 3.671875 -0.90625 3.296875 -0.65625 2.703125 -0.65625 C 1.75 -0.65625 1.078125 -1.484375 1.078125 -2.703125 C 1.078125 -3.78125 1.65625 -4.53125 2.5 -4.53125 C 2.875 -4.53125 3.015625 -4.40625 3.125 -4.015625 L 3.1875 -3.796875 C 3.265625 -3.5 3.453125 -3.3125 3.671875 -3.3125 C 3.953125 -3.3125 4.171875 -3.5 4.171875 -3.75 C 4.171875 -4.34375 3.4375 -4.828125 2.5625 -4.828125 C 2.046875 -4.828125 1.515625 -4.625 1.078125 -4.234375 C 0.5625 -3.78125 0.265625 -3.0625 0.265625 -2.234375 C 0.265625 -0.875 1.09375 0.109375 2.25 0.109375 C 2.734375 0.109375 3.15625 -0.0625 3.53125 -0.390625 C 3.8125 -0.640625 4.015625 -0.921875 4.328125 -1.546875 Z M 4.171875 -1.640625 "/>
</symbol>
<symbol overflow="visible" id="glyph3-4">
<path style="stroke:none;" d="M 1.84375 -4.828125 L 0.203125 -4.25 L 0.203125 -4.09375 L 0.296875 -4.109375 C 0.421875 -4.125 0.5625 -4.140625 0.65625 -4.140625 C 0.90625 -4.140625 1 -3.96875 1 -3.5 L 1 -1.078125 C 1 -0.3125 0.890625 -0.203125 0.171875 -0.15625 L 0.171875 0 L 2.65625 0 L 2.65625 -0.15625 C 1.96875 -0.203125 1.875 -0.3125 1.875 -1.078125 L 1.875 -4.796875 Z M 1.34375 -7.171875 C 1.0625 -7.171875 0.8125 -6.9375 0.8125 -6.640625 C 0.8125 -6.34375 1.046875 -6.09375 1.34375 -6.09375 C 1.65625 -6.09375 1.890625 -6.328125 1.890625 -6.640625 C 1.890625 -6.9375 1.65625 -7.171875 1.34375 -7.171875 Z M 1.34375 -7.171875 "/>
</symbol>
<symbol overflow="visible" id="glyph3-5">
<path style="stroke:none;" d="M 0.203125 -6.546875 L 0.265625 -6.546875 C 0.375 -6.546875 0.5 -6.5625 0.59375 -6.5625 C 0.921875 -6.5625 1.03125 -6.421875 1.03125 -5.921875 L 1.03125 -0.90625 C 1.03125 -0.34375 0.875 -0.203125 0.21875 -0.15625 L 0.21875 0 L 2.703125 0 L 2.703125 -0.15625 C 2.03125 -0.203125 1.90625 -0.296875 1.90625 -0.875 L 1.90625 -7.15625 L 1.875 -7.171875 C 1.328125 -7 0.921875 -6.890625 0.203125 -6.703125 Z M 0.203125 -6.546875 "/>
</symbol>
<symbol overflow="visible" id="glyph3-6">
<path style="stroke:none;" d="M 2.625 -4.828125 C 1.265625 -4.828125 0.296875 -3.828125 0.296875 -2.375 C 0.296875 -0.953125 1.28125 0.109375 2.609375 0.109375 C 3.921875 0.109375 4.9375 -1.015625 4.9375 -2.453125 C 4.9375 -3.828125 3.96875 -4.828125 2.625 -4.828125 Z M 2.484375 -4.53125 C 3.375 -4.53125 3.984375 -3.53125 3.984375 -2.09375 C 3.984375 -0.90625 3.515625 -0.1875 2.734375 -0.1875 C 2.328125 -0.1875 1.9375 -0.4375 1.71875 -0.859375 C 1.421875 -1.40625 1.25 -2.140625 1.25 -2.890625 C 1.25 -3.890625 1.75 -4.53125 2.484375 -4.53125 Z M 2.484375 -4.53125 "/>
</symbol>
<symbol overflow="visible" id="glyph3-7">
<path style="stroke:none;" d="M 0.09375 -4.125 C 0.1875 -4.140625 0.265625 -4.140625 0.359375 -4.140625 C 0.71875 -4.140625 0.78125 -4.03125 0.78125 -3.53125 L 0.78125 1.375 C 0.78125 1.921875 0.671875 2.03125 0.046875 2.09375 L 0.046875 2.28125 L 2.59375 2.28125 L 2.59375 2.09375 C 1.8125 2.078125 1.671875 1.96875 1.671875 1.296875 L 1.671875 -0.34375 C 2.03125 0 2.28125 0.109375 2.734375 0.109375 C 3.96875 0.109375 4.9375 -1.078125 4.9375 -2.59375 C 4.9375 -3.890625 4.203125 -4.828125 3.1875 -4.828125 C 2.59375 -4.828125 2.125 -4.5625 1.671875 -4 L 1.671875 -4.8125 L 1.609375 -4.828125 C 1.046875 -4.609375 0.671875 -4.46875 0.09375 -4.296875 Z M 1.671875 -3.5 C 1.671875 -3.828125 2.25 -4.203125 2.734375 -4.203125 C 3.515625 -4.203125 4.03125 -3.40625 4.03125 -2.1875 C 4.03125 -1.015625 3.515625 -0.234375 2.765625 -0.234375 C 2.265625 -0.234375 1.671875 -0.609375 1.671875 -0.921875 Z M 1.671875 -3.5 "/>
</symbol>
<symbol overflow="visible" id="glyph3-8">
<path style="stroke:none;" d="M 4.28125 -1.71875 C 3.78125 -0.921875 3.328125 -0.625 2.65625 -0.625 C 2.0625 -0.625 1.609375 -0.921875 1.296875 -1.515625 C 1.109375 -1.921875 1.046875 -2.265625 1.015625 -2.90625 L 4.25 -2.90625 C 4.171875 -3.59375 4.0625 -3.890625 3.796875 -4.234375 C 3.484375 -4.609375 3 -4.828125 2.453125 -4.828125 C 1.9375 -4.828125 1.4375 -4.640625 1.046875 -4.28125 C 0.546875 -3.859375 0.265625 -3.109375 0.265625 -2.25 C 0.265625 -0.796875 1.015625 0.109375 2.21875 0.109375 C 3.21875 0.109375 4.015625 -0.515625 4.453125 -1.65625 Z M 1.046875 -3.25 C 1.15625 -4.0625 1.515625 -4.453125 2.15625 -4.453125 C 2.796875 -4.453125 3.046875 -4.15625 3.1875 -3.25 Z M 1.046875 -3.25 "/>
</symbol>
</g>
</defs>
<g id="surface1">
<path style="fill:none;stroke-width:9.75;stroke-linecap:round;stroke-linejoin:bevel;stroke:rgb(0%,0%,0%);stroke-opacity:1;stroke-miterlimit:6;" d="M 1120 572.5 C 1195 557.5 1195 497.5 1120 482.5 " transform="matrix(0.1,0,0,-0.1,0,323)"/>
<path style="fill:none;stroke-width:9.75;stroke-linecap:round;stroke-linejoin:bevel;stroke:rgb(0%,0%,0%);stroke-opacity:1;stroke-miterlimit:6;" d="M 1120 572.5 C 1045 587.5 1045 542.5 1120 557.5 " transform="matrix(0.1,0,0,-0.1,0,323)"/>
<path style="fill:none;stroke-width:9.75;stroke-linecap:round;stroke-linejoin:bevel;stroke:rgb(0%,0%,0%);stroke-opacity:1;stroke-miterlimit:6;" d="M 1120 797.5 C 1195 782.5 1195 722.5 1120 707.5 " transform="matrix(0.1,0,0,-0.1,0,323)"/>
<path style="fill:none;stroke-width:9.75;stroke-linecap:round;stroke-linejoin:bevel;stroke:rgb(0%,0%,0%);stroke-opacity:1;stroke-miterlimit:6;" d="M 1120 722.5 C 1195 707.5 1195 647.5 1120 632.5 " transform="matrix(0.1,0,0,-0.1,0,323)"/>
<path style="fill:none;stroke-width:9.75;stroke-linecap:round;stroke-linejoin:bevel;stroke:rgb(0%,0%,0%);stroke-opacity:1;stroke-miterlimit:6;" d="M 1120 647.5 C 1195 632.5 1195 572.5 1120 557.5 " transform="matrix(0.1,0,0,-0.1,0,323)"/>
<path style="fill:none;stroke-width:9.75;stroke-linecap:round;stroke-linejoin:bevel;stroke:rgb(0%,0%,0%);stroke-opacity:1;stroke-miterlimit:6;" d="M 1120 722.5 C 1045 737.5 1045 692.5 1120 707.5 " transform="matrix(0.1,0,0,-0.1,0,323)"/>
<path style="fill:none;stroke-width:9.75;stroke-linecap:round;stroke-linejoin:bevel;stroke:rgb(0%,0%,0%);stroke-opacity:1;stroke-miterlimit:6;" d="M 1120 647.5 C 1045 662.5 1045 617.5 1120 632.5 " transform="matrix(0.1,0,0,-0.1,0,323)"/>
<path style="fill:none;stroke-width:9.75;stroke-linecap:round;stroke-linejoin:bevel;stroke:rgb(0%,0%,0%);stroke-opacity:1;stroke-miterlimit:6;" d="M 1120 400 L 1120 482.5 " transform="matrix(0.1,0,0,-0.1,0,323)"/>
<path style="fill:none;stroke-width:9.75;stroke-linecap:round;stroke-linejoin:bevel;stroke:rgb(0%,0%,0%);stroke-opacity:1;stroke-miterlimit:6;" d="M 1120 880 L 1120 797.5 " transform="matrix(0.1,0,0,-0.1,0,323)"/>
<path style="fill:none;stroke-width:9.75;stroke-linecap:round;stroke-linejoin:bevel;stroke:rgb(0%,0%,0%);stroke-opacity:1;stroke-miterlimit:6;" d="M 1360 572.5 C 1285 557.5 1285 497.5 1360 482.5 " transform="matrix(0.1,0,0,-0.1,0,323)"/>
<path style="fill:none;stroke-width:9.75;stroke-linecap:round;stroke-linejoin:bevel;stroke:rgb(0%,0%,0%);stroke-opacity:1;stroke-miterlimit:6;" d="M 1360 572.5 C 1435 587.5 1435 542.5 1360 557.5 " transform="matrix(0.1,0,0,-0.1,0,323)"/>
<path style="fill:none;stroke-width:9.75;stroke-linecap:round;stroke-linejoin:bevel;stroke:rgb(0%,0%,0%);stroke-opacity:1;stroke-miterlimit:6;" d="M 1360 797.5 C 1285 782.5 1285 722.5 1360 707.5 " transform="matrix(0.1,0,0,-0.1,0,323)"/>
<path style="fill:none;stroke-width:9.75;stroke-linecap:round;stroke-linejoin:bevel;stroke:rgb(0%,0%,0%);stroke-opacity:1;stroke-miterlimit:6;" d="M 1360 722.5 C 1285 707.5 1285 647.5 1360 632.5 " transform="matrix(0.1,0,0,-0.1,0,323)"/>
<path style="fill:none;stroke-width:9.75;stroke-linecap:round;stroke-linejoin:bevel;stroke:rgb(0%,0%,0%);stroke-opacity:1;stroke-miterlimit:6;" d="M 1360 647.5 C 1285 632.5 1285 572.5 1360 557.5 " transform="matrix(0.1,0,0,-0.1,0,323)"/>
<path style="fill:none;stroke-width:9.75;stroke-linecap:round;stroke-linejoin:bevel;stroke:rgb(0%,0%,0%);stroke-opacity:1;stroke-miterlimit:6;" d="M 1360 722.5 C 1435 737.5 1435 692.5 1360 707.5 " transform="matrix(0.1,0,0,-0.1,0,323)"/>
<path style="fill:none;stroke-width:9.75;stroke-linecap:round;stroke-linejoin:bevel;stroke:rgb(0%,0%,0%);stroke-opacity:1;stroke-miterlimit:6;" d="M 1360 647.5 C 1435 662.5 1435 617.5 1360 632.5 " transform="matrix(0.1,0,0,-0.1,0,323)"/>
<path style="fill:none;stroke-width:9.75;stroke-linecap:round;stroke-linejoin:bevel;stroke:rgb(0%,0%,0%);stroke-opacity:1;stroke-miterlimit:6;" d="M 1360 400 L 1360 482.5 " transform="matrix(0.1,0,0,-0.1,0,323)"/>
<path style="fill:none;stroke-width:9.75;stroke-linecap:round;stroke-linejoin:bevel;stroke:rgb(0%,0%,0%);stroke-opacity:1;stroke-miterlimit:6;" d="M 1360 880 L 1360 797.5 " transform="matrix(0.1,0,0,-0.1,0,323)"/>
<path style="fill-rule:evenodd;fill:rgb(50%,50%,50%);fill-opacity:1;stroke-width:9.75;stroke-linecap:round;stroke-linejoin:bevel;stroke:rgb(0%,0%,0%);stroke-opacity:1;stroke-miterlimit:6;" d="M 1210 400 L 1270 400 L 1270 880 L 1210 880 Z M 1210 400 " transform="matrix(0.1,0,0,-0.1,0,323)"/>
<path style=" stroke:none;fill-rule:evenodd;fill:rgb(0%,0%,0%);fill-opacity:1;" d="M 114.25 247 C 114.25 245.757812 113.242188 244.75 112 244.75 C 110.757812 244.75 109.75 245.757812 109.75 247 C 109.75 248.242188 110.757812 249.25 112 249.25 C 113.242188 249.25 114.25 248.242188 114.25 247 "/>
<path style=" stroke:none;fill-rule:evenodd;fill:rgb(0%,0%,0%);fill-opacity:1;" d="M 138.25 247 C 138.25 245.757812 137.242188 244.75 136 244.75 C 134.757812 244.75 133.75 245.757812 133.75 247 C 133.75 248.242188 134.757812 249.25 136 249.25 C 137.242188 249.25 138.25 248.242188 138.25 247 "/>
<path style="fill:none;stroke-width:9.75;stroke-linecap:round;stroke-linejoin:bevel;stroke:rgb(0%,0%,0%);stroke-opacity:1;stroke-miterlimit:6;" d="M 1000 880 L 1120 880 " transform="matrix(0.1,0,0,-0.1,0,323)"/>
<path style="fill:none;stroke-width:9.75;stroke-linecap:round;stroke-linejoin:bevel;stroke:rgb(0%,0%,0%);stroke-opacity:1;stroke-miterlimit:6;" d="M 1000 400 L 1120 400 " transform="matrix(0.1,0,0,-0.1,0,323)"/>
<path style="fill:none;stroke-width:9.75;stroke-linecap:round;stroke-linejoin:bevel;stroke:rgb(0%,0%,0%);stroke-opacity:1;stroke-miterlimit:6;" d="M 1480 880 L 1360 880 " transform="matrix(0.1,0,0,-0.1,0,323)"/>
<path style="fill:none;stroke-width:9.75;stroke-linecap:round;stroke-linejoin:bevel;stroke:rgb(0%,0%,0%);stroke-opacity:1;stroke-miterlimit:6;" d="M 1480 400 L 1360 400 " transform="matrix(0.1,0,0,-0.1,0,323)"/>
<path style="fill:none;stroke-width:39;stroke-linecap:round;stroke-linejoin:bevel;stroke:rgb(0%,0%,0%);stroke-opacity:1;stroke-miterlimit:6;" d="M 1060 280 L 1390 970 " transform="matrix(0.1,0,0,-0.1,0,323)"/>
<path style=" stroke:none;fill-rule:evenodd;fill:rgb(0%,0%,0%);fill-opacity:1;" d="M 141.023438 232.890625 C 141.398438 226.613281 142.242188 225.152344 145 217 C 139.320312 223.464844 138.476562 224.925781 133.226562 228.390625 C 136.714844 229.101562 138.660156 230.226562 141.023438 232.890625 "/>
<path style="fill:none;stroke-width:9.75;stroke-linecap:round;stroke-linejoin:bevel;stroke:rgb(0%,0%,0%);stroke-opacity:1;stroke-miterlimit:6;" d="M 640 640 C 640 706.289062 586.289062 760 520 760 C 453.710938 760 400 706.289062 400 640 C 400 573.710938 453.710938 520 520 520 C 586.289062 520 640 573.710938 640 640 " transform="matrix(0.1,0,0,-0.1,0,323)"/>
<path style="fill:none;stroke-width:9.75;stroke-linecap:round;stroke-linejoin:bevel;stroke:rgb(0%,0%,0%);stroke-opacity:1;stroke-miterlimit:6;" d="M 520 880 L 520 760 " transform="matrix(0.1,0,0,-0.1,0,323)"/>
<path style="fill:none;stroke-width:9.75;stroke-linecap:round;stroke-linejoin:bevel;stroke:rgb(0%,0%,0%);stroke-opacity:1;stroke-miterlimit:6;" d="M 520 400 L 520 520 " transform="matrix(0.1,0,0,-0.1,0,323)"/>
<path style="fill:none;stroke-width:7.8;stroke-linecap:round;stroke-linejoin:bevel;stroke:rgb(0%,0%,0%);stroke-opacity:1;stroke-miterlimit:6;" d="M 580 640 C 520 460 520 820 460 640 " transform="matrix(0.1,0,0,-0.1,0,323)"/>
<path style="fill:none;stroke-width:9.75;stroke-linecap:round;stroke-linejoin:bevel;stroke:rgb(0%,0%,0%);stroke-opacity:1;stroke-miterlimit:6;" d="M 1000 880 L 520 880 " transform="matrix(0.1,0,0,-0.1,0,323)"/>
<path style="fill:none;stroke-width:9.75;stroke-linecap:round;stroke-linejoin:bevel;stroke:rgb(0%,0%,0%);stroke-opacity:1;stroke-miterlimit:6;" d="M 1000 400 L 520 400 " transform="matrix(0.1,0,0,-0.1,0,323)"/>
<g style="fill:rgb(0%,0%,0%);fill-opacity:1;">
  <use xlink:href="#glyph0-1" x="3.68594" y="265"/>
</g>
<g style="fill:rgb(0%,0%,0%);fill-opacity:1;">
  <use xlink:href="#glyph1-1" x="10.3461" y="268.31641"/>
  <use xlink:href="#glyph1-2" x="15.3711" y="268.31641"/>
</g>
<g style="fill:rgb(0%,0%,0%);fill-opacity:1;">
  <use xlink:href="#glyph0-2" x="19.83321" y="265"/>
  <use xlink:href="#glyph0-3" x="24.82821" y="265"/>
  <use xlink:href="#glyph0-4" x="28.99821" y="265"/>
</g>
<g style="fill:rgb(0%,0%,0%);fill-opacity:1;">
  <use xlink:href="#glyph0-1" x="144.68621" y="259"/>
</g>
<g style="fill:rgb(0%,0%,0%);fill-opacity:1;">
  <use xlink:href="#glyph1-3" x="151.34637" y="262.31641"/>
</g>
<g style="fill:rgb(0%,0%,0%);fill-opacity:1;">
  <use xlink:href="#glyph0-2" x="155.25574" y="259"/>
  <use xlink:href="#glyph0-3" x="160.25074" y="259"/>
  <use xlink:href="#glyph0-4" x="164.42074" y="259"/>
</g>
<path style="fill:none;stroke-width:9.75;stroke-linecap:round;stroke-linejoin:bevel;stroke:rgb(0%,0%,0%);stroke-opacity:1;stroke-miterlimit:6;" d="M 1960 880 L 1480 880 " transform="matrix(0.1,0,0,-0.1,0,323)"/>
<path style="fill:none;stroke-width:9.75;stroke-linecap:round;stroke-linejoin:bevel;stroke:rgb(0%,0%,0%);stroke-opacity:1;stroke-miterlimit:6;" d="M 1960 400 L 1480 400 " transform="matrix(0.1,0,0,-0.1,0,323)"/>
<path style="fill-rule:evenodd;fill:rgb(100%,87.5%,87.5%);fill-opacity:1;stroke-width:29.25;stroke-linecap:round;stroke-linejoin:bevel;stroke:rgb(100%,0%,0%);stroke-opacity:1;stroke-miterlimit:6;" d="M 1960 280 L 2440 280 L 2440 1000 L 1960 1000 Z M 1960 280 " transform="matrix(0.1,0,0,-0.1,0,323)"/>
<path style="fill:none;stroke-width:9.75;stroke-linecap:round;stroke-linejoin:bevel;stroke:rgb(0%,0%,0%);stroke-opacity:1;stroke-miterlimit:6;" d="M 2080 400 C 2110 355 2110 460 2140 400 " transform="matrix(0.1,0,0,-0.1,0,323)"/>
<path style="fill:none;stroke-width:9.75;stroke-linecap:round;stroke-linejoin:bevel;stroke:rgb(0%,0%,0%);stroke-opacity:1;stroke-miterlimit:6;" d="M 2065 880 C 2095 835 2095 940 2125 880 " transform="matrix(0.1,0,0,-0.1,0,323)"/>
<path style="fill:none;stroke-width:9.75;stroke-linecap:round;stroke-linejoin:bevel;stroke:rgb(0%,0%,0%);stroke-opacity:1;stroke-miterlimit:6;" d="M 2290 850 L 2290 910 " transform="matrix(0.1,0,0,-0.1,0,323)"/>
<path style="fill:none;stroke-width:9.75;stroke-linecap:round;stroke-linejoin:bevel;stroke:rgb(0%,0%,0%);stroke-opacity:1;stroke-miterlimit:6;" d="M 2320 880 L 2260 880 " transform="matrix(0.1,0,0,-0.1,0,323)"/>
<path style="fill:none;stroke-width:9.75;stroke-linecap:round;stroke-linejoin:bevel;stroke:rgb(0%,0%,0%);stroke-opacity:1;stroke-miterlimit:6;" d="M 2320 400 L 2260 400 " transform="matrix(0.1,0,0,-0.1,0,323)"/>
<path style=" stroke:none;fill-rule:evenodd;fill:rgb(0%,0%,0%);fill-opacity:1;" d="M 226.75 265 L 220 253 L 213.25 265 "/>
<path style="fill:none;stroke-width:9.75;stroke-linecap:round;stroke-linejoin:bevel;stroke:rgb(0%,0%,0%);stroke-opacity:1;stroke-miterlimit:6;" d="M 2200 580 L 2200 460 " transform="matrix(0.1,0,0,-0.1,0,323)"/>
<path style="fill:none;stroke-width:9.75;stroke-linecap:round;stroke-linejoin:bevel;stroke:rgb(0%,0%,0%);stroke-opacity:1;stroke-miterlimit:6;" d="M 2200 700 L 2200 820 " transform="matrix(0.1,0,0,-0.1,0,323)"/>
<path style="fill:none;stroke-width:9.75;stroke-linecap:round;stroke-linejoin:bevel;stroke:rgb(0%,0%,0%);stroke-opacity:1;stroke-miterlimit:6;" d="M 2267.5 700 L 2132.5 700 " transform="matrix(0.1,0,0,-0.1,0,323)"/>
<path style="fill-rule:evenodd;fill:rgb(100%,100%,100%);fill-opacity:1;stroke-width:9.75;stroke-linecap:round;stroke-linejoin:bevel;stroke:rgb(100%,0%,0%);stroke-opacity:1;stroke-miterlimit:6;" d="M 2035 880 C 2035 888.28125 2028.28125 895 2020 895 C 2011.71875 895 2005 888.28125 2005 880 C 2005 871.71875 2011.71875 865 2020 865 C 2028.28125 865 2035 871.71875 2035 880 " transform="matrix(0.1,0,0,-0.1,0,323)"/>
<path style="fill-rule:evenodd;fill:rgb(100%,100%,100%);fill-opacity:1;stroke-width:9.75;stroke-linecap:round;stroke-linejoin:bevel;stroke:rgb(100%,0%,0%);stroke-opacity:1;stroke-miterlimit:6;" d="M 2035 400 C 2035 408.28125 2028.28125 415 2020 415 C 2011.71875 415 2005 408.28125 2005 400 C 2005 391.71875 2011.71875 385 2020 385 C 2028.28125 385 2035 391.71875 2035 400 " transform="matrix(0.1,0,0,-0.1,0,323)"/>
<path style="fill-rule:evenodd;fill:rgb(100%,100%,100%);fill-opacity:1;stroke-width:9.75;stroke-linecap:round;stroke-linejoin:bevel;stroke:rgb(100%,0%,0%);stroke-opacity:1;stroke-miterlimit:6;" d="M 2395 880 C 2395 888.28125 2388.28125 895 2380 895 C 2371.71875 895 2365 888.28125 2365 880 C 2365 871.71875 2371.71875 865 2380 865 C 2388.28125 865 2395 871.71875 2395 880 " transform="matrix(0.1,0,0,-0.1,0,323)"/>
<path style="fill-rule:evenodd;fill:rgb(100%,100%,100%);fill-opacity:1;stroke-width:9.75;stroke-linecap:round;stroke-linejoin:bevel;stroke:rgb(100%,0%,0%);stroke-opacity:1;stroke-miterlimit:6;" d="M 2395 400 C 2395 408.28125 2388.28125 415 2380 415 C 2371.71875 415 2365 408.28125 2365 400 C 2365 391.71875 2371.71875 385 2380 385 C 2388.28125 385 2395 391.71875 2395 400 " transform="matrix(0.1,0,0,-0.1,0,323)"/>
<path style=" stroke:none;fill-rule:evenodd;fill:rgb(100%,0%,0%);fill-opacity:1;" d="M 172.347656 179.21875 L 190.347656 210.398438 L 185.152344 213.398438 L 167.152344 182.21875 "/>
<path style="fill:none;stroke-width:9.75;stroke-linecap:round;stroke-linejoin:bevel;stroke:rgb(100%,0%,0%);stroke-opacity:1;stroke-miterlimit:6;" d="M 1723.476562 1437.8125 L 1903.476562 1126.015625 L 1851.523438 1096.015625 L 1671.523438 1407.8125 Z M 1723.476562 1437.8125 " transform="matrix(0.1,0,0,-0.1,0,323)"/>
<path style="fill-rule:evenodd;fill:rgb(100%,0%,0%);fill-opacity:1;stroke-width:9.75;stroke-linecap:round;stroke-linejoin:bevel;stroke:rgb(100%,0%,0%);stroke-opacity:1;stroke-miterlimit:6;" d="M 1903.476562 1126.015625 L 1825.546875 1081.015625 L 1836.523438 1121.992188 L 1888.476562 1151.992188 L 1929.453125 1141.015625 L 1825.546875 1081.015625 " transform="matrix(0.1,0,0,-0.1,0,323)"/>
<path style="fill-rule:evenodd;fill:rgb(100%,0%,0%);fill-opacity:1;stroke-width:9.75;stroke-linecap:round;stroke-linejoin:bevel;stroke:rgb(100%,0%,0%);stroke-opacity:1;stroke-miterlimit:6;" d="M 1825.546875 1081.015625 L 1929.453125 1141.015625 L 1918.476562 1100.039062 L 1866.523438 1070.039062 L 1825.546875 1081.015625 " transform="matrix(0.1,0,0,-0.1,0,323)"/>
<path style="fill:none;stroke-width:29.25;stroke-linecap:round;stroke-linejoin:bevel;stroke:rgb(100%,0%,0%);stroke-opacity:1;stroke-miterlimit:6;" d="M 2012.5 877.1875 L 1885 1098.046875 " transform="matrix(0.1,0,0,-0.1,0,323)"/>
<path style="fill:none;stroke-width:39;stroke-linecap:round;stroke-linejoin:bevel;stroke:rgb(100%,0%,0%);stroke-opacity:1;stroke-miterlimit:6;" d="M 1720 1390 C 1735 1855 2350 1300 2530 1270 " transform="matrix(0.1,0,0,-0.1,0,323)"/>
<path style="fill:none;stroke-width:39;stroke-linecap:round;stroke-linejoin:bevel;stroke:rgb(0%,0%,0%);stroke-opacity:1;stroke-miterlimit:6;" d="M 2530 1270 C 2350 1240 1690 1180 1870 1000 " transform="matrix(0.1,0,0,-0.1,0,323)"/>
<path style="fill-rule:evenodd;fill:rgb(100%,100%,100%);fill-opacity:1;stroke-width:39;stroke-linecap:round;stroke-linejoin:bevel;stroke:rgb(0%,0%,0%);stroke-opacity:1;stroke-miterlimit:6;" d="M 2410 1570 L 4420 1570 L 4420 3190 L 2410 3190 Z M 2410 1570 " transform="matrix(0.1,0,0,-0.1,0,323)"/>
<path style="fill-rule:evenodd;fill:rgb(87.5%,87.5%,87.5%);fill-opacity:1;stroke-width:39;stroke-linecap:round;stroke-linejoin:bevel;stroke:rgb(0%,0%,0%);stroke-opacity:1;stroke-miterlimit:6;" d="M 2500 2110 L 3940 2110 L 3940 3070 L 2500 3070 Z M 2500 2110 " transform="matrix(0.1,0,0,-0.1,0,323)"/>
<path style="fill-rule:evenodd;fill:rgb(100%,100%,100%);fill-opacity:1;stroke-width:39;stroke-linecap:round;stroke-linejoin:bevel;stroke:rgb(0%,0%,0%);stroke-opacity:1;stroke-miterlimit:6;" d="M 2890 1810 C 2890 1876.289062 2836.289062 1930 2770 1930 C 2703.710938 1930 2650 1876.289062 2650 1810 C 2650 1743.710938 2703.710938 1690 2770 1690 C 2836.289062 1690 2890 1743.710938 2890 1810 " transform="matrix(0.1,0,0,-0.1,0,323)"/>
<path style="fill-rule:evenodd;fill:rgb(100%,100%,100%);fill-opacity:1;stroke-width:39;stroke-linecap:round;stroke-linejoin:bevel;stroke:rgb(0%,0%,0%);stroke-opacity:1;stroke-miterlimit:6;" d="M 3190 1810 C 3190 1876.289062 3136.289062 1930 3070 1930 C 3003.710938 1930 2950 1876.289062 2950 1810 C 2950 1743.710938 3003.710938 1690 3070 1690 C 3136.289062 1690 3190 1743.710938 3190 1810 " transform="matrix(0.1,0,0,-0.1,0,323)"/>
<path style="fill:none;stroke-width:9.75;stroke-linecap:round;stroke-linejoin:bevel;stroke:rgb(59.959412%,59.959412%,59.959412%);stroke-opacity:1;stroke-miterlimit:6;" d="M 3220 2110 L 3220 3070 " transform="matrix(0.1,0,0,-0.1,0,323)"/>
<path style="fill:none;stroke-width:9.75;stroke-linecap:round;stroke-linejoin:bevel;stroke:rgb(59.959412%,59.959412%,59.959412%);stroke-opacity:1;stroke-miterlimit:6;" d="M 2500 2590 C 2560 2590 3880 2590 3940 2590 " transform="matrix(0.1,0,0,-0.1,0,323)"/>
<path style="fill-rule:evenodd;fill:rgb(100%,100%,100%);fill-opacity:1;stroke-width:39;stroke-linecap:round;stroke-linejoin:bevel;stroke:rgb(0%,0%,0%);stroke-opacity:1;stroke-miterlimit:6;" d="M 3490 1810 C 3490 1876.289062 3436.289062 1930 3370 1930 C 3303.710938 1930 3250 1876.289062 3250 1810 C 3250 1743.710938 3303.710938 1690 3370 1690 C 3436.289062 1690 3490 1743.710938 3490 1810 " transform="matrix(0.1,0,0,-0.1,0,323)"/>
<path style="fill-rule:evenodd;fill:rgb(100%,100%,100%);fill-opacity:1;stroke-width:39;stroke-linecap:round;stroke-linejoin:bevel;stroke:rgb(0%,0%,0%);stroke-opacity:1;stroke-miterlimit:6;" d="M 3790 1810 C 3790 1876.289062 3736.289062 1930 3670 1930 C 3603.710938 1930 3550 1876.289062 3550 1810 C 3550 1743.710938 3603.710938 1690 3670 1690 C 3736.289062 1690 3790 1743.710938 3790 1810 " transform="matrix(0.1,0,0,-0.1,0,323)"/>
<g style="fill:rgb(0%,0%,0%);fill-opacity:1;">
  <use xlink:href="#glyph2-1" x="268.056" y="124"/>
  <use xlink:href="#glyph2-2" x="273.051" y="124"/>
  <use xlink:href="#glyph2-3" x="279.306" y="124"/>
</g>
<g style="fill:rgb(0%,0%,0%);fill-opacity:1;">
  <use xlink:href="#glyph2-1" x="298.056038" y="124"/>
  <use xlink:href="#glyph2-2" x="303.051038" y="124"/>
  <use xlink:href="#glyph2-4" x="309.306038" y="124"/>
</g>
<g style="fill:rgb(0%,0%,0%);fill-opacity:1;">
  <use xlink:href="#glyph2-1" x="328.056075" y="124"/>
  <use xlink:href="#glyph2-2" x="333.051075" y="124"/>
  <use xlink:href="#glyph2-5" x="339.306075" y="124"/>
</g>
<g style="fill:rgb(0%,0%,0%);fill-opacity:1;">
  <use xlink:href="#glyph2-1" x="358.056113" y="124"/>
  <use xlink:href="#glyph2-2" x="363.051113" y="124"/>
  <use xlink:href="#glyph2-6" x="369.306113" y="124"/>
</g>
<path style="fill-rule:evenodd;fill:rgb(100%,100%,100%);fill-opacity:1;stroke-width:39;stroke-linecap:round;stroke-linejoin:bevel;stroke:rgb(0%,0%,0%);stroke-opacity:1;stroke-miterlimit:6;" d="M 4330 2230 C 4330 2296.289062 4276.289062 2350 4210 2350 C 4143.710938 2350 4090 2296.289062 4090 2230 C 4090 2163.710938 4143.710938 2110 4210 2110 C 4276.289062 2110 4330 2163.710938 4330 2230 " transform="matrix(0.1,0,0,-0.1,0,323)"/>
<path style="fill-rule:evenodd;fill:rgb(100%,100%,100%);fill-opacity:1;stroke-width:39;stroke-linecap:round;stroke-linejoin:bevel;stroke:rgb(0%,0%,0%);stroke-opacity:1;stroke-miterlimit:6;" d="M 4330 2830 C 4330 2896.289062 4276.289062 2950 4210 2950 C 4143.710938 2950 4090 2896.289062 4090 2830 C 4090 2763.710938 4143.710938 2710 4210 2710 C 4276.289062 2710 4330 2763.710938 4330 2830 " transform="matrix(0.1,0,0,-0.1,0,323)"/>
<g style="fill:rgb(0%,0%,0%);fill-opacity:1;">
  <use xlink:href="#glyph3-1" x="381.642" y="13"/>
  <use xlink:href="#glyph3-2" x="389.223" y="13"/>
  <use xlink:href="#glyph3-3" x="393.3075" y="13"/>
  <use xlink:href="#glyph3-4" x="397.9695" y="13"/>
  <use xlink:href="#glyph3-5" x="400.8885" y="13"/>
  <use xlink:href="#glyph3-5" x="403.8075" y="13"/>
  <use xlink:href="#glyph3-6" x="406.7265" y="13"/>
  <use xlink:href="#glyph3-2" x="411.9765" y="13"/>
  <use xlink:href="#glyph3-3" x="416.061" y="13"/>
  <use xlink:href="#glyph3-6" x="420.723" y="13"/>
  <use xlink:href="#glyph3-7" x="425.973" y="13"/>
  <use xlink:href="#glyph3-8" x="431.223" y="13"/>
</g>
<path style="fill-rule:evenodd;fill:rgb(69.921875%,69.921875%,69.921875%);fill-opacity:1;stroke-width:9.75;stroke-linecap:round;stroke-linejoin:bevel;stroke:rgb(59.959412%,59.959412%,59.959412%);stroke-opacity:1;stroke-miterlimit:6;" d="M 2545 1150 L 3265 1150 L 3265 1450 L 2545 1450 Z M 2545 1150 " transform="matrix(0.1,0,0,-0.1,0,323)"/>
<path style="fill-rule:evenodd;fill:rgb(90.039062%,90.039062%,90.039062%);fill-opacity:1;stroke-width:9.75;stroke-linecap:round;stroke-linejoin:bevel;stroke:rgb(80.076599%,80.076599%,80.076599%);stroke-opacity:1;stroke-miterlimit:6;" d="M 2605 1180 L 3205 1180 L 3205 1420 L 2605 1420 Z M 2605 1180 " transform="matrix(0.1,0,0,-0.1,0,323)"/>
<path style="fill-rule:evenodd;fill:rgb(47.509766%,47.509766%,47.509766%);fill-opacity:1;stroke-width:9.75;stroke-linecap:round;stroke-linejoin:bevel;stroke:rgb(39.988708%,39.988708%,39.988708%);stroke-opacity:1;stroke-miterlimit:6;" d="M 3145 1210 L 3175 1210 L 3175 1390 L 3145 1390 Z M 3145 1210 " transform="matrix(0.1,0,0,-0.1,0,323)"/>
<path style="fill-rule:evenodd;fill:rgb(47.509766%,47.509766%,47.509766%);fill-opacity:1;stroke-width:9.75;stroke-linecap:round;stroke-linejoin:bevel;stroke:rgb(39.988708%,39.988708%,39.988708%);stroke-opacity:1;stroke-miterlimit:6;" d="M 2635 1210 L 2725 1210 L 2725 1390 L 2635 1390 Z M 2635 1210 " transform="matrix(0.1,0,0,-0.1,0,323)"/>
<path style="fill-rule:evenodd;fill:rgb(0%,0%,0%);fill-opacity:1;stroke-width:9.75;stroke-linecap:round;stroke-linejoin:bevel;stroke:rgb(0%,0%,0%);stroke-opacity:1;stroke-miterlimit:6;" d="M 2935 1210 L 2995 1210 L 2995 1240 L 2935 1240 Z M 2935 1210 " transform="matrix(0.1,0,0,-0.1,0,323)"/>
<path style="fill-rule:evenodd;fill:rgb(0%,0%,0%);fill-opacity:1;stroke-width:9.75;stroke-linecap:round;stroke-linejoin:bevel;stroke:rgb(0%,0%,0%);stroke-opacity:1;stroke-miterlimit:6;" d="M 2785 1330 L 2845 1330 L 2845 1360 L 2785 1360 Z M 2785 1330 " transform="matrix(0.1,0,0,-0.1,0,323)"/>
<path style="fill:none;stroke-width:14.625;stroke-linecap:round;stroke-linejoin:bevel;stroke:rgb(0%,0%,0%);stroke-opacity:1;stroke-miterlimit:6;" d="M 3130 1217.5 L 3040 1217.5 " transform="matrix(0.1,0,0,-0.1,0,323)"/>
<path style="fill:none;stroke-width:14.625;stroke-linecap:round;stroke-linejoin:bevel;stroke:rgb(0%,0%,0%);stroke-opacity:1;stroke-miterlimit:6;" d="M 3130 1217.5 L 3130 1247.5 L 3115 1262.5 L 3055 1262.5 L 3040 1247.5 L 3040 1217.5 " transform="matrix(0.1,0,0,-0.1,0,323)"/>
<path style="fill:none;stroke-width:14.625;stroke-linecap:round;stroke-linejoin:bevel;stroke:rgb(0%,0%,0%);stroke-opacity:1;stroke-miterlimit:6;" d="M 3130 1292.5 L 3085 1292.5 " transform="matrix(0.1,0,0,-0.1,0,323)"/>
<path style="fill:none;stroke-width:14.625;stroke-linecap:round;stroke-linejoin:bevel;stroke:rgb(0%,0%,0%);stroke-opacity:1;stroke-miterlimit:6;" d="M 3040 1352.5 L 3040 1337.5 L 3055 1322.5 L 3130 1322.5 " transform="matrix(0.1,0,0,-0.1,0,323)"/>
<path style="fill:none;stroke-width:14.625;stroke-linecap:round;stroke-linejoin:bevel;stroke:rgb(0%,0%,0%);stroke-opacity:1;stroke-miterlimit:6;" d="M 3070 1352.5 L 3070 1322.5 " transform="matrix(0.1,0,0,-0.1,0,323)"/>
<path style="fill:none;stroke-width:14.625;stroke-linecap:round;stroke-linejoin:bevel;stroke:rgb(0%,0%,0%);stroke-opacity:1;stroke-miterlimit:6;" d="M 3070 1292.5 L 3062.5 1292.5 " transform="matrix(0.1,0,0,-0.1,0,323)"/>
<path style="fill:none;stroke-width:14.625;stroke-linecap:round;stroke-linejoin:bevel;stroke:rgb(0%,0%,0%);stroke-opacity:1;stroke-miterlimit:6;" d="M 3040 1405 L 3040 1390 L 3055 1375 L 3130 1375 " transform="matrix(0.1,0,0,-0.1,0,323)"/>
<path style="fill:none;stroke-width:14.625;stroke-linecap:round;stroke-linejoin:bevel;stroke:rgb(0%,0%,0%);stroke-opacity:1;stroke-miterlimit:6;" d="M 3070 1405 L 3070 1375 " transform="matrix(0.1,0,0,-0.1,0,323)"/>
<path style="fill:none;stroke-width:39;stroke-linecap:round;stroke-linejoin:bevel;stroke:rgb(59.959412%,59.959412%,59.959412%);stroke-opacity:1;stroke-miterlimit:6;" d="M 3670 1600 C 3730 1120 5020 1870 4330 1150 " transform="matrix(0.1,0,0,-0.1,0,323)"/>
<path style="fill:none;stroke-width:39;stroke-linecap:round;stroke-linejoin:bevel;stroke:rgb(0%,0%,0%);stroke-opacity:1;stroke-miterlimit:6;" d="M 2770 1600 C 2590 1150 1600 2200 1540 1150 " transform="matrix(0.1,0,0,-0.1,0,323)"/>
<path style="fill:none;stroke-width:29.25;stroke-linecap:round;stroke-linejoin:bevel;stroke:rgb(93.359375%,60.351562%,0%);stroke-opacity:1;stroke-miterlimit:6;" d="M 2980 2830 C 2920 2590 2800 2590 2740 2830 " transform="matrix(0.1,0,0,-0.1,0,323)"/>
<path style="fill:none;stroke-width:29.25;stroke-linecap:round;stroke-linejoin:bevel;stroke:rgb(93.359375%,60.351562%,0%);stroke-opacity:1;stroke-miterlimit:6;" d="M 2500 2830 C 2560 3070 2680 3070 2740 2830 " transform="matrix(0.1,0,0,-0.1,0,323)"/>
<path style="fill:none;stroke-width:29.25;stroke-linecap:round;stroke-linejoin:bevel;stroke:rgb(93.359375%,60.351562%,0%);stroke-opacity:1;stroke-miterlimit:6;" d="M 3460 2830 C 3400 2590 3280 2590 3220 2830 " transform="matrix(0.1,0,0,-0.1,0,323)"/>
<path style="fill:none;stroke-width:29.25;stroke-linecap:round;stroke-linejoin:bevel;stroke:rgb(93.359375%,60.351562%,0%);stroke-opacity:1;stroke-miterlimit:6;" d="M 2980 2830 C 3040 3070 3160 3070 3220 2830 " transform="matrix(0.1,0,0,-0.1,0,323)"/>
<path style="fill:none;stroke-width:29.25;stroke-linecap:round;stroke-linejoin:bevel;stroke:rgb(93.359375%,60.351562%,0%);stroke-opacity:1;stroke-miterlimit:6;" d="M 3940 2830 C 3880 2590 3760 2590 3700 2830 " transform="matrix(0.1,0,0,-0.1,0,323)"/>
<path style="fill:none;stroke-width:29.25;stroke-linecap:round;stroke-linejoin:bevel;stroke:rgb(93.359375%,60.351562%,0%);stroke-opacity:1;stroke-miterlimit:6;" d="M 3460 2830 C 3520 3070 3640 3070 3700 2830 " transform="matrix(0.1,0,0,-0.1,0,323)"/>
<path style=" stroke:none;fill-rule:evenodd;fill:rgb(0%,0%,0%);fill-opacity:1;" d="M 189.246094 221.796875 L 198.5625 256.570312 L 192.765625 258.121094 L 183.449219 223.347656 "/>
<path style="fill:none;stroke-width:9.75;stroke-linecap:round;stroke-linejoin:bevel;stroke:rgb(0%,0%,0%);stroke-opacity:1;stroke-miterlimit:6;" d="M 1892.460938 1012.03125 L 1985.625 664.296875 L 1927.65625 648.789062 L 1834.492188 996.523438 Z M 1892.460938 1012.03125 " transform="matrix(0.1,0,0,-0.1,0,323)"/>
<path style="fill-rule:evenodd;fill:rgb(0%,0%,0%);fill-opacity:1;stroke-width:9.75;stroke-linecap:round;stroke-linejoin:bevel;stroke:rgb(0%,0%,0%);stroke-opacity:1;stroke-miterlimit:6;" d="M 1985.625 664.296875 L 1898.671875 641.015625 L 1919.921875 677.734375 L 1977.851562 693.28125 L 2014.609375 672.070312 L 1898.671875 641.015625 " transform="matrix(0.1,0,0,-0.1,0,323)"/>
<path style="fill-rule:evenodd;fill:rgb(0%,0%,0%);fill-opacity:1;stroke-width:9.75;stroke-linecap:round;stroke-linejoin:bevel;stroke:rgb(0%,0%,0%);stroke-opacity:1;stroke-miterlimit:6;" d="M 1898.671875 641.015625 L 2014.609375 672.070312 L 1993.398438 635.3125 L 1935.429688 619.804688 L 1898.671875 641.015625 " transform="matrix(0.1,0,0,-0.1,0,323)"/>
<path style="fill:none;stroke-width:29.25;stroke-linecap:round;stroke-linejoin:bevel;stroke:rgb(0%,0%,0%);stroke-opacity:1;stroke-miterlimit:6;" d="M 2026.523438 395.742188 L 1960.546875 642.03125 " transform="matrix(0.1,0,0,-0.1,0,323)"/>
<path style="fill-rule:evenodd;fill:rgb(0%,0%,0%);fill-opacity:1;stroke-width:9.75;stroke-linecap:round;stroke-linejoin:bevel;stroke:rgb(0%,0%,0%);stroke-opacity:1;stroke-miterlimit:6;" d="M 1510 820 L 1570 820 L 1570 940 L 1510 940 Z M 1510 820 " transform="matrix(0.1,0,0,-0.1,0,323)"/>
<path style="fill-rule:evenodd;fill:rgb(12.5%,12.5%,12.5%);fill-opacity:1;stroke-width:9.75;stroke-linecap:round;stroke-linejoin:bevel;stroke:rgb(0%,0%,0%);stroke-opacity:1;stroke-miterlimit:6;" d="M 1495 940 L 1585 940 L 1585 1180 L 1495 1180 Z M 1495 940 " transform="matrix(0.1,0,0,-0.1,0,323)"/>
<path style="fill-rule:evenodd;fill:rgb(100%,100%,100%);fill-opacity:1;stroke-width:9.75;stroke-linecap:round;stroke-linejoin:bevel;stroke:rgb(100%,100%,100%);stroke-opacity:1;stroke-miterlimit:6;" d="M 1540 1000 L 1540 1015 L 1570 985 L 1540 955 L 1540 977.5 L 1510 977.5 L 1510 992.5 L 1540 992.5 " transform="matrix(0.1,0,0,-0.1,0,323)"/>
<path style="fill:none;stroke-width:9.75;stroke-linecap:round;stroke-linejoin:bevel;stroke:rgb(0%,0%,0%);stroke-opacity:1;stroke-miterlimit:6;" d="M 2800 617.5 L 2800 400 " transform="matrix(0.1,0,0,-0.1,0,323)"/>
<path style="fill:none;stroke-width:9.75;stroke-linecap:round;stroke-linejoin:bevel;stroke:rgb(0%,0%,0%);stroke-opacity:1;stroke-miterlimit:6;" d="M 2800 662.5 L 2800 880 " transform="matrix(0.1,0,0,-0.1,0,323)"/>
<path style="fill:none;stroke-width:9.75;stroke-linecap:round;stroke-linejoin:bevel;stroke:rgb(0%,0%,0%);stroke-opacity:1;stroke-miterlimit:6;" d="M 2920 662.5 L 2680 662.5 " transform="matrix(0.1,0,0,-0.1,0,323)"/>
<path style="fill:none;stroke-width:9.75;stroke-linecap:round;stroke-linejoin:bevel;stroke:rgb(0%,0%,0%);stroke-opacity:1;stroke-miterlimit:6;" d="M 2912.851562 593.515625 C 2877.34375 609.335938 2838.90625 617.5 2800 617.5 C 2761.09375 617.5 2722.65625 609.335938 2687.148438 593.515625 " transform="matrix(0.1,0,0,-0.1,0,323)"/>
<path style="fill:none;stroke-width:9.75;stroke-linecap:round;stroke-linejoin:bevel;stroke:rgb(100%,0%,0%);stroke-opacity:1;stroke-miterlimit:6;" d="M 3520 775 L 3520 880 " transform="matrix(0.1,0,0,-0.1,0,323)"/>
<path style="fill:none;stroke-width:9.75;stroke-linecap:round;stroke-linejoin:bevel;stroke:rgb(100%,0%,0%);stroke-opacity:1;stroke-miterlimit:6;" d="M 3520 505 L 3520 400 " transform="matrix(0.1,0,0,-0.1,0,323)"/>
<path style="fill:none;stroke-width:9.75;stroke-linecap:round;stroke-linejoin:bevel;stroke:rgb(100%,0%,0%);stroke-opacity:1;stroke-miterlimit:6;" d="M 3520 775 L 3467.5 752.5 L 3572.5 707.5 L 3467.5 662.5 L 3572.5 617.5 L 3467.5 572.5 L 3572.5 527.5 L 3520 505 " transform="matrix(0.1,0,0,-0.1,0,323)"/>
<path style="fill:none;stroke-width:9.75;stroke-linecap:round;stroke-linejoin:bevel;stroke:rgb(0%,0%,0%);stroke-opacity:1;stroke-miterlimit:6;" d="M 3520 880 L 2440 880 " transform="matrix(0.1,0,0,-0.1,0,323)"/>
<path style=" stroke:none;fill-rule:evenodd;fill:rgb(0%,0%,0%);fill-opacity:1;" d="M 282.25 235 C 282.25 233.757812 281.242188 232.75 280 232.75 C 278.757812 232.75 277.75 233.757812 277.75 235 C 277.75 236.242188 278.757812 237.25 280 237.25 C 281.242188 237.25 282.25 236.242188 282.25 235 "/>
<path style="fill:none;stroke-width:9.75;stroke-linecap:round;stroke-linejoin:bevel;stroke:rgb(0%,0%,0%);stroke-opacity:1;stroke-miterlimit:6;" d="M 3520 400 L 2440 400 " transform="matrix(0.1,0,0,-0.1,0,323)"/>
<path style=" stroke:none;fill-rule:evenodd;fill:rgb(0%,0%,0%);fill-opacity:1;" d="M 282.25 283 C 282.25 281.757812 281.242188 280.75 280 280.75 C 278.757812 280.75 277.75 281.757812 277.75 283 C 277.75 284.242188 278.757812 285.25 280 285.25 C 281.242188 285.25 282.25 284.242188 282.25 283 "/>
<path style="fill:none;stroke-width:9.75;stroke-linecap:round;stroke-linejoin:bevel;stroke:rgb(0%,0%,0%);stroke-opacity:1;stroke-miterlimit:6;" d="M 2860 700 L 2860 760 " transform="matrix(0.1,0,0,-0.1,0,323)"/>
<path style="fill:none;stroke-width:9.75;stroke-linecap:round;stroke-linejoin:bevel;stroke:rgb(0%,0%,0%);stroke-opacity:1;stroke-miterlimit:6;" d="M 2830 730 L 2890 730 " transform="matrix(0.1,0,0,-0.1,0,323)"/>
<path style="fill:none;stroke-width:39;stroke-linecap:round;stroke-linejoin:bevel;stroke:rgb(100%,0%,0%);stroke-opacity:1;stroke-miterlimit:6;" d="M 3715 805 C 3295 625 4060 1645 2980 1045 " transform="matrix(0.1,0,0,-0.1,0,323)"/>
<path style=" stroke:none;fill-rule:evenodd;fill:rgb(0%,0%,0%);fill-opacity:1;" d="M 290.78125 316.347656 L 259.601562 298.347656 L 262.601562 293.152344 L 293.78125 311.152344 "/>
<path style="fill:none;stroke-width:9.75;stroke-linecap:round;stroke-linejoin:bevel;stroke:rgb(0%,0%,0%);stroke-opacity:1;stroke-miterlimit:6;" d="M 2907.8125 66.523438 L 2596.015625 246.523438 L 2626.015625 298.476562 L 2937.8125 118.476562 Z M 2907.8125 66.523438 " transform="matrix(0.1,0,0,-0.1,0,323)"/>
<path style="fill-rule:evenodd;fill:rgb(0%,0%,0%);fill-opacity:1;stroke-width:9.75;stroke-linecap:round;stroke-linejoin:bevel;stroke:rgb(0%,0%,0%);stroke-opacity:1;stroke-miterlimit:6;" d="M 2596.015625 246.523438 L 2641.015625 324.453125 L 2651.992188 283.476562 L 2621.992188 231.523438 L 2581.015625 220.546875 L 2641.015625 324.453125 " transform="matrix(0.1,0,0,-0.1,0,323)"/>
<path style="fill-rule:evenodd;fill:rgb(0%,0%,0%);fill-opacity:1;stroke-width:9.75;stroke-linecap:round;stroke-linejoin:bevel;stroke:rgb(0%,0%,0%);stroke-opacity:1;stroke-miterlimit:6;" d="M 2641.015625 324.453125 L 2581.015625 220.546875 L 2570.039062 261.523438 L 2600.039062 313.476562 L 2641.015625 324.453125 " transform="matrix(0.1,0,0,-0.1,0,323)"/>
<path style="fill:none;stroke-width:29.25;stroke-linecap:round;stroke-linejoin:bevel;stroke:rgb(0%,0%,0%);stroke-opacity:1;stroke-miterlimit:6;" d="M 2377.1875 407.5 L 2598.046875 280 " transform="matrix(0.1,0,0,-0.1,0,323)"/>
<path style=" stroke:none;fill-rule:evenodd;fill:rgb(100%,0%,0%);fill-opacity:1;" d="M 299.203125 220.746094 L 264.429688 230.0625 L 262.878906 224.265625 L 297.648438 214.949219 "/>
<path style="fill:none;stroke-width:9.75;stroke-linecap:round;stroke-linejoin:bevel;stroke:rgb(100%,0%,0%);stroke-opacity:1;stroke-miterlimit:6;" d="M 2992.03125 1022.539062 L 2644.296875 929.375 L 2628.789062 987.34375 L 2976.484375 1080.507812 Z M 2992.03125 1022.539062 " transform="matrix(0.1,0,0,-0.1,0,323)"/>
<path style="fill-rule:evenodd;fill:rgb(100%,0%,0%);fill-opacity:1;stroke-width:9.75;stroke-linecap:round;stroke-linejoin:bevel;stroke:rgb(100%,0%,0%);stroke-opacity:1;stroke-miterlimit:6;" d="M 2644.296875 929.375 L 2621.015625 1016.328125 L 2657.734375 995.078125 L 2673.28125 937.148438 L 2652.070312 900.390625 L 2621.015625 1016.328125 " transform="matrix(0.1,0,0,-0.1,0,323)"/>
<path style="fill-rule:evenodd;fill:rgb(100%,0%,0%);fill-opacity:1;stroke-width:9.75;stroke-linecap:round;stroke-linejoin:bevel;stroke:rgb(100%,0%,0%);stroke-opacity:1;stroke-miterlimit:6;" d="M 2621.015625 1016.328125 L 2652.070312 900.390625 L 2615.3125 921.601562 L 2599.804688 979.570312 L 2621.015625 1016.328125 " transform="matrix(0.1,0,0,-0.1,0,323)"/>
<path style="fill:none;stroke-width:29.25;stroke-linecap:round;stroke-linejoin:bevel;stroke:rgb(100%,0%,0%);stroke-opacity:1;stroke-miterlimit:6;" d="M 2375.742188 888.476562 L 2622.03125 954.492188 " transform="matrix(0.1,0,0,-0.1,0,323)"/>
<path style="fill:none;stroke-width:39;stroke-linecap:round;stroke-linejoin:bevel;stroke:rgb(0%,0%,0%);stroke-opacity:1;stroke-miterlimit:6;" d="M 3715 790 C 3700 190 3175 10 2905 100 " transform="matrix(0.1,0,0,-0.1,0,323)"/>
<path style=" stroke:none;fill-rule:evenodd;fill:rgb(69.921875%,69.921875%,69.921875%);fill-opacity:1;" d="M 362.824219 229.511719 L 425.175781 193.511719 L 440.175781 219.488281 L 377.824219 255.488281 "/>
<path style="fill:none;stroke-width:9.75;stroke-linecap:round;stroke-linejoin:bevel;stroke:rgb(59.959412%,59.959412%,59.959412%);stroke-opacity:1;stroke-miterlimit:6;" d="M 3628.242188 934.882812 L 4251.757812 1294.882812 L 4401.757812 1035.117188 L 3778.242188 675.117188 Z M 3628.242188 934.882812 " transform="matrix(0.1,0,0,-0.1,0,323)"/>
<path style=" stroke:none;fill-rule:evenodd;fill:rgb(90.039062%,90.039062%,90.039062%);fill-opacity:1;" d="M 369.519531 229.109375 L 421.480469 199.109375 L 433.480469 219.890625 L 381.519531 249.890625 "/>
<path style="fill:none;stroke-width:9.75;stroke-linecap:round;stroke-linejoin:bevel;stroke:rgb(80.076599%,80.076599%,80.076599%);stroke-opacity:1;stroke-miterlimit:6;" d="M 3695.195312 938.90625 L 4214.804688 1238.90625 L 4334.804688 1031.09375 L 3815.195312 731.09375 Z M 3695.195312 938.90625 " transform="matrix(0.1,0,0,-0.1,0,323)"/>
<path style=" stroke:none;fill-rule:evenodd;fill:rgb(47.509766%,47.509766%,47.509766%);fill-opacity:1;" d="M 417.785156 204.707031 L 420.382812 203.207031 L 429.382812 218.792969 L 426.785156 220.292969 "/>
<path style="fill:none;stroke-width:9.75;stroke-linecap:round;stroke-linejoin:bevel;stroke:rgb(39.988708%,39.988708%,39.988708%);stroke-opacity:1;stroke-miterlimit:6;" d="M 4177.851562 1182.929688 L 4203.828125 1197.929688 L 4293.828125 1042.070312 L 4267.851562 1027.070312 Z M 4177.851562 1182.929688 " transform="matrix(0.1,0,0,-0.1,0,323)"/>
<path style=" stroke:none;fill-rule:evenodd;fill:rgb(47.509766%,47.509766%,47.509766%);fill-opacity:1;" d="M 373.617188 230.207031 L 381.410156 225.707031 L 390.410156 241.292969 L 382.617188 245.792969 "/>
<path style="fill:none;stroke-width:9.75;stroke-linecap:round;stroke-linejoin:bevel;stroke:rgb(39.988708%,39.988708%,39.988708%);stroke-opacity:1;stroke-miterlimit:6;" d="M 3736.171875 927.929688 L 3814.101562 972.929688 L 3904.101562 817.070312 L 3826.171875 772.070312 Z M 3736.171875 927.929688 " transform="matrix(0.1,0,0,-0.1,0,323)"/>
<path style=" stroke:none;fill-rule:evenodd;fill:rgb(0%,0%,0%);fill-opacity:1;" d="M 408.597656 230.792969 L 413.792969 227.792969 L 412.292969 225.195312 L 407.097656 228.195312 "/>
<path style="fill:none;stroke-width:9.75;stroke-linecap:round;stroke-linejoin:bevel;stroke:rgb(0%,0%,0%);stroke-opacity:1;stroke-miterlimit:6;" d="M 4085.976562 922.070312 L 4137.929688 952.070312 L 4122.929688 978.046875 L 4070.976562 948.046875 Z M 4085.976562 922.070312 " transform="matrix(0.1,0,0,-0.1,0,323)"/>
<path style=" stroke:none;fill-rule:evenodd;fill:rgb(0%,0%,0%);fill-opacity:1;" d="M 389.609375 227.902344 L 394.804688 224.902344 L 393.304688 222.304688 L 388.109375 225.304688 "/>
<path style="fill:none;stroke-width:9.75;stroke-linecap:round;stroke-linejoin:bevel;stroke:rgb(0%,0%,0%);stroke-opacity:1;stroke-miterlimit:6;" d="M 3896.09375 950.976562 L 3948.046875 980.976562 L 3933.046875 1006.953125 L 3881.09375 976.953125 Z M 3896.09375 950.976562 " transform="matrix(0.1,0,0,-0.1,0,323)"/>
<path style="fill:none;stroke-width:14.625;stroke-linecap:round;stroke-linejoin:bevel;stroke:rgb(0%,0%,0%);stroke-opacity:1;stroke-miterlimit:6;" d="M 4251.09375 1026.054688 L 4173.164062 981.054688 " transform="matrix(0.1,0,0,-0.1,0,323)"/>
<path style="fill:none;stroke-width:14.625;stroke-linecap:round;stroke-linejoin:bevel;stroke:rgb(0%,0%,0%);stroke-opacity:1;stroke-miterlimit:6;" d="M 4251.09375 1026.054688 L 4236.09375 1052.03125 L 4215.625 1057.539062 L 4163.632812 1027.539062 L 4158.164062 1007.03125 L 4173.164062 981.054688 " transform="matrix(0.1,0,0,-0.1,0,323)"/>
<path style="fill:none;stroke-width:14.625;stroke-linecap:round;stroke-linejoin:bevel;stroke:rgb(0%,0%,0%);stroke-opacity:1;stroke-miterlimit:6;" d="M 4213.59375 1091.015625 L 4174.648438 1068.515625 " transform="matrix(0.1,0,0,-0.1,0,323)"/>
<path style="fill:none;stroke-width:14.625;stroke-linecap:round;stroke-linejoin:bevel;stroke:rgb(0%,0%,0%);stroke-opacity:1;stroke-miterlimit:6;" d="M 4105.664062 1097.96875 L 4113.164062 1084.960938 L 4133.632812 1079.492188 L 4198.59375 1116.992188 " transform="matrix(0.1,0,0,-0.1,0,323)"/>
<path style="fill:none;stroke-width:14.625;stroke-linecap:round;stroke-linejoin:bevel;stroke:rgb(0%,0%,0%);stroke-opacity:1;stroke-miterlimit:6;" d="M 4131.640625 1112.96875 L 4146.640625 1086.992188 " transform="matrix(0.1,0,0,-0.1,0,323)"/>
<path style="fill:none;stroke-width:14.625;stroke-linecap:round;stroke-linejoin:bevel;stroke:rgb(0%,0%,0%);stroke-opacity:1;stroke-miterlimit:6;" d="M 4161.640625 1061.015625 L 4155.15625 1057.265625 " transform="matrix(0.1,0,0,-0.1,0,323)"/>
<path style="fill:none;stroke-width:14.625;stroke-linecap:round;stroke-linejoin:bevel;stroke:rgb(0%,0%,0%);stroke-opacity:1;stroke-miterlimit:6;" d="M 4079.414062 1143.4375 L 4086.914062 1130.429688 L 4107.382812 1124.960938 L 4172.34375 1162.460938 " transform="matrix(0.1,0,0,-0.1,0,323)"/>
<path style="fill:none;stroke-width:14.625;stroke-linecap:round;stroke-linejoin:bevel;stroke:rgb(0%,0%,0%);stroke-opacity:1;stroke-miterlimit:6;" d="M 4105.390625 1158.4375 L 4120.390625 1132.460938 " transform="matrix(0.1,0,0,-0.1,0,323)"/>
<path style="fill:none;stroke-width:39;stroke-linecap:round;stroke-linejoin:bevel;stroke:rgb(59.959412%,59.959412%,59.959412%);stroke-opacity:1;stroke-miterlimit:6;" d="M 3070 1600 C 3070 1420 3700 1300 3280 1270 " transform="matrix(0.1,0,0,-0.1,0,323)"/>
<path style="fill-rule:evenodd;fill:rgb(75%,75%,75%);fill-opacity:1;stroke-width:9.75;stroke-linecap:round;stroke-linejoin:bevel;stroke:rgb(59.959412%,59.959412%,59.959412%);stroke-opacity:1;stroke-miterlimit:6;" d="M 3610 1750 L 3610 1570 L 3730 1570 L 3730 1750 C 3730 1783.75 3700 1810 3670 1810 C 3636.25 1813.75 3610 1783.75 3610 1750 " transform="matrix(0.1,0,0,-0.1,0,323)"/>
<path style="fill-rule:evenodd;fill:rgb(75%,75%,75%);fill-opacity:1;stroke-width:9.75;stroke-linecap:round;stroke-linejoin:bevel;stroke:rgb(59.959412%,59.959412%,59.959412%);stroke-opacity:1;stroke-miterlimit:6;" d="M 3010 1780 L 3010 1600 L 3130 1600 L 3130 1780 C 3130 1813.75 3100 1840 3070 1840 C 3036.25 1843.75 3010 1813.75 3010 1780 " transform="matrix(0.1,0,0,-0.1,0,323)"/>
<path style="fill-rule:evenodd;fill:rgb(75%,75%,75%);fill-opacity:1;stroke-width:9.75;stroke-linecap:round;stroke-linejoin:bevel;stroke:rgb(59.959412%,59.959412%,59.959412%);stroke-opacity:1;stroke-miterlimit:6;" d="M 2710 1780 L 2710 1600 L 2830 1600 L 2830 1780 C 2830 1813.75 2800 1840 2770 1840 C 2736.25 1843.75 2710 1813.75 2710 1780 " transform="matrix(0.1,0,0,-0.1,0,323)"/>
<path style=" stroke:none;fill-rule:evenodd;fill:rgb(0%,0%,0%);fill-opacity:1;" d="M 339.597656 229.695312 L 333.597656 240.089844 L 328.402344 237.089844 L 334.402344 226.695312 "/>
<path style="fill:none;stroke-width:9.75;stroke-linecap:round;stroke-linejoin:bevel;stroke:rgb(0%,0%,0%);stroke-opacity:1;stroke-miterlimit:6;" d="M 3395.976562 933.046875 L 3335.976562 829.101562 L 3284.023438 859.101562 L 3344.023438 963.046875 Z M 3395.976562 933.046875 " transform="matrix(0.1,0,0,-0.1,0,323)"/>
<path style=" stroke:none;fill-rule:evenodd;fill:rgb(12.5%,12.5%,12.5%);fill-opacity:1;" d="M 352.898438 209.660156 L 340.898438 230.445312 L 333.101562 225.945312 L 345.101562 205.160156 "/>
<path style="fill:none;stroke-width:9.75;stroke-linecap:round;stroke-linejoin:bevel;stroke:rgb(0%,0%,0%);stroke-opacity:1;stroke-miterlimit:6;" d="M 3528.984375 1133.398438 L 3408.984375 925.546875 L 3331.015625 970.546875 L 3451.015625 1178.398438 Z M 3528.984375 1133.398438 " transform="matrix(0.1,0,0,-0.1,0,323)"/>
<path style="fill-rule:evenodd;fill:rgb(100%,100%,100%);fill-opacity:1;stroke-width:9.75;stroke-linecap:round;stroke-linejoin:bevel;stroke:rgb(100%,100%,100%);stroke-opacity:1;stroke-miterlimit:6;" d="M 3400 1000 L 3407.5 1013.007812 L 3418.476562 971.992188 L 3377.5 961.015625 L 3388.75 980.507812 L 3362.773438 995.507812 L 3370.273438 1008.515625 L 3396.25 993.515625 " transform="matrix(0.1,0,0,-0.1,0,323)"/>
<path style="fill:none;stroke-width:39;stroke-linecap:round;stroke-linejoin:bevel;stroke:rgb(0%,0%,0%);stroke-opacity:1;stroke-miterlimit:6;" d="M 3370 1600 C 3220 1360 3700 1450 3490 1150 " transform="matrix(0.1,0,0,-0.1,0,323)"/>
<path style="fill-rule:evenodd;fill:rgb(75%,75%,75%);fill-opacity:1;stroke-width:9.75;stroke-linecap:round;stroke-linejoin:bevel;stroke:rgb(59.959412%,59.959412%,59.959412%);stroke-opacity:1;stroke-miterlimit:6;" d="M 3310 1780 L 3310 1600 L 3430 1600 L 3430 1780 C 3430 1813.75 3400 1840 3370 1840 C 3336.25 1843.75 3310 1813.75 3310 1780 " transform="matrix(0.1,0,0,-0.1,0,323)"/>
<path style="fill:none;stroke-width:29.25;stroke-linecap:round;stroke-linejoin:bevel;stroke:rgb(17.993164%,54.492188%,34.104919%);stroke-opacity:1;stroke-miterlimit:6;" d="M 2515 2590 L 2575 2590 " transform="matrix(0.1,0,0,-0.1,0,323)"/>
<path style="fill:none;stroke-width:29.25;stroke-linecap:round;stroke-linejoin:bevel;stroke:rgb(17.993164%,54.492188%,34.104919%);stroke-opacity:1;stroke-miterlimit:6;" d="M 2650 2590 C 2590 2590 2635 2725 2575 2725 L 2575 2590 " transform="matrix(0.1,0,0,-0.1,0,323)"/>
<path style="fill:none;stroke-width:29.25;stroke-linecap:round;stroke-linejoin:bevel;stroke:rgb(17.993164%,54.492188%,34.104919%);stroke-opacity:1;stroke-miterlimit:6;" d="M 2875 2590 C 2815 2590 2860 2455 2800 2455 L 2800 2590 " transform="matrix(0.1,0,0,-0.1,0,323)"/>
<path style="fill:none;stroke-width:29.25;stroke-linecap:round;stroke-linejoin:bevel;stroke:rgb(17.993164%,54.492188%,34.104919%);stroke-opacity:1;stroke-miterlimit:6;" d="M 2800 2590 L 2650 2590 " transform="matrix(0.1,0,0,-0.1,0,323)"/>
<path style="fill:none;stroke-width:29.25;stroke-linecap:round;stroke-linejoin:bevel;stroke:rgb(17.993164%,54.492188%,34.104919%);stroke-opacity:1;stroke-miterlimit:6;" d="M 3145 2590 C 3085 2590 3130 2725 3070 2725 L 3070 2590 " transform="matrix(0.1,0,0,-0.1,0,323)"/>
<path style="fill:none;stroke-width:29.25;stroke-linecap:round;stroke-linejoin:bevel;stroke:rgb(17.993164%,54.492188%,34.104919%);stroke-opacity:1;stroke-miterlimit:6;" d="M 3295 2590 L 3145 2590 " transform="matrix(0.1,0,0,-0.1,0,323)"/>
<path style="fill:none;stroke-width:29.25;stroke-linecap:round;stroke-linejoin:bevel;stroke:rgb(17.993164%,54.492188%,34.104919%);stroke-opacity:1;stroke-miterlimit:6;" d="M 2875 2590 L 3070 2590 " transform="matrix(0.1,0,0,-0.1,0,323)"/>
<path style="fill:none;stroke-width:29.25;stroke-linecap:round;stroke-linejoin:bevel;stroke:rgb(17.993164%,54.492188%,34.104919%);stroke-opacity:1;stroke-miterlimit:6;" d="M 3370 2590 C 3310 2590 3355 2455 3295 2455 L 3295 2590 " transform="matrix(0.1,0,0,-0.1,0,323)"/>
<path style="fill:none;stroke-width:29.25;stroke-linecap:round;stroke-linejoin:bevel;stroke:rgb(17.993164%,54.492188%,34.104919%);stroke-opacity:1;stroke-miterlimit:6;" d="M 3610 2590 C 3550 2590 3595 2725 3535 2725 L 3535 2590 " transform="matrix(0.1,0,0,-0.1,0,323)"/>
<path style="fill:none;stroke-width:29.25;stroke-linecap:round;stroke-linejoin:bevel;stroke:rgb(17.993164%,54.492188%,34.104919%);stroke-opacity:1;stroke-miterlimit:6;" d="M 3745 2590 L 3610 2590 " transform="matrix(0.1,0,0,-0.1,0,323)"/>
<path style="fill:none;stroke-width:29.25;stroke-linecap:round;stroke-linejoin:bevel;stroke:rgb(17.993164%,54.492188%,34.104919%);stroke-opacity:1;stroke-miterlimit:6;" d="M 3385 2590 L 3535 2590 " transform="matrix(0.1,0,0,-0.1,0,323)"/>
<path style="fill:none;stroke-width:29.25;stroke-linecap:round;stroke-linejoin:bevel;stroke:rgb(17.993164%,54.492188%,34.104919%);stroke-opacity:1;stroke-miterlimit:6;" d="M 3820 2590 C 3760 2590 3805 2455 3745 2455 L 3745 2590 " transform="matrix(0.1,0,0,-0.1,0,323)"/>
<path style="fill:none;stroke-width:29.25;stroke-linecap:round;stroke-linejoin:bevel;stroke:rgb(17.993164%,54.492188%,34.104919%);stroke-opacity:1;stroke-miterlimit:6;" d="M 3940 2590 L 3805 2590 " transform="matrix(0.1,0,0,-0.1,0,323)"/>
<path style="fill:none;stroke-width:29.25;stroke-linecap:round;stroke-linejoin:bevel;stroke:rgb(62.693787%,12.5%,94.139099%);stroke-opacity:1;stroke-miterlimit:6;" d="M 2605 2365 C 2650 2455 2560 2380 2830 2365 " transform="matrix(0.1,0,0,-0.1,0,323)"/>
<path style="fill:none;stroke-width:29.25;stroke-linecap:round;stroke-linejoin:bevel;stroke:rgb(62.693787%,12.5%,94.139099%);stroke-opacity:1;stroke-miterlimit:6;" d="M 2830 2365 C 2875 2455 2785 2380 3055 2365 " transform="matrix(0.1,0,0,-0.1,0,323)"/>
<path style="fill:none;stroke-width:29.25;stroke-linecap:round;stroke-linejoin:bevel;stroke:rgb(62.693787%,12.5%,94.139099%);stroke-opacity:1;stroke-miterlimit:6;" d="M 3055 2365 C 3100 2455 3010 2380 3280 2365 " transform="matrix(0.1,0,0,-0.1,0,323)"/>
<path style="fill:none;stroke-width:29.25;stroke-linecap:round;stroke-linejoin:bevel;stroke:rgb(62.693787%,12.5%,94.139099%);stroke-opacity:1;stroke-miterlimit:6;" d="M 3295 2365 C 3340 2455 3250 2380 3520 2365 " transform="matrix(0.1,0,0,-0.1,0,323)"/>
<path style="fill:none;stroke-width:29.25;stroke-linecap:round;stroke-linejoin:bevel;stroke:rgb(62.693787%,12.5%,94.139099%);stroke-opacity:1;stroke-miterlimit:6;" d="M 3535 2365 C 3580 2455 3490 2380 3760 2365 " transform="matrix(0.1,0,0,-0.1,0,323)"/>
<path style="fill:none;stroke-width:29.25;stroke-linecap:round;stroke-linejoin:bevel;stroke:rgb(62.693787%,12.5%,94.139099%);stroke-opacity:1;stroke-miterlimit:6;" d="M 3745 2365 C 3790 2455 3700 2380 3970 2365 " transform="matrix(0.1,0,0,-0.1,0,323)"/>
<path style="fill:none;stroke-width:29.25;stroke-linecap:round;stroke-linejoin:bevel;stroke:rgb(0%,0%,100%);stroke-opacity:1;stroke-miterlimit:6;" d="M 2560 2275 C 2605 2365 2515 2290 2785 2275 " transform="matrix(0.1,0,0,-0.1,0,323)"/>
<path style="fill:none;stroke-width:29.25;stroke-linecap:round;stroke-linejoin:bevel;stroke:rgb(0%,0%,100%);stroke-opacity:1;stroke-miterlimit:6;" d="M 2785 2275 C 2830 2365 2740 2290 3010 2275 " transform="matrix(0.1,0,0,-0.1,0,323)"/>
<path style="fill:none;stroke-width:29.25;stroke-linecap:round;stroke-linejoin:bevel;stroke:rgb(0%,0%,100%);stroke-opacity:1;stroke-miterlimit:6;" d="M 3010 2275 C 3055 2365 2965 2290 3235 2275 " transform="matrix(0.1,0,0,-0.1,0,323)"/>
<path style="fill:none;stroke-width:29.25;stroke-linecap:round;stroke-linejoin:bevel;stroke:rgb(0%,0%,100%);stroke-opacity:1;stroke-miterlimit:6;" d="M 3250 2275 C 3295 2365 3205 2290 3475 2275 " transform="matrix(0.1,0,0,-0.1,0,323)"/>
<path style="fill:none;stroke-width:29.25;stroke-linecap:round;stroke-linejoin:bevel;stroke:rgb(0%,0%,100%);stroke-opacity:1;stroke-miterlimit:6;" d="M 3490 2275 C 3535 2365 3445 2290 3715 2275 " transform="matrix(0.1,0,0,-0.1,0,323)"/>
<path style="fill:none;stroke-width:29.25;stroke-linecap:round;stroke-linejoin:bevel;stroke:rgb(0%,0%,100%);stroke-opacity:1;stroke-miterlimit:6;" d="M 3700 2275 C 3745 2365 3655 2290 3925 2275 " transform="matrix(0.1,0,0,-0.1,0,323)"/>
</g>
</svg>
